waveforms/add.s.vcd
$date
2021-12-01T09:31+0000
$end
$version
0.2
$end
$comment

$end
$timescale 1ns  $end
$scope module Tile $end
 $var wire 1 * io_regsWriteEnable $end
 $var wire 32 + io_regsReadData $end
 $var wire 32 4 io_IMEMAddress $end
 $var wire 1 < io_regsDeviceWriteEnable $end
 $var wire 32 I io_DMEMAddress $end
 $var wire 32 Z io_DMEMWriteData $end
 $var wire 1 ] CPU $end
 $var wire 32 _ io_regsDeviceWriteData $end
 $var wire 5 a io_regsDeviceWriteAddress $end
 $var wire 1 i clock $end
 $var wire 32 l io_currentPC $end
 $var wire 5 m io_regsAddress $end
 $var wire 1 u io_DMEMWriteEnable $end
 $var wire 32 v io_memDeviceWriteAddress $end
 $var wire 32 ~ io_IMEMWriteData $end
 $var wire 32 "! io_memDeviceWriteData $end
 $var wire 32 ") io_DMEMReadData $end
 $var wire 1 ", reset $end
 $var wire 1 "2 io_setup $end
 $var wire 1 "7 io_memDeviceWriteEnable $end
 $var wire 32 "A io_regsWriteData $end
  $scope module CPU.MEM $end
  $upscope $end
  $scope module CPU.ID.registers $end
  $upscope $end
  $scope module CPU.IF $end
  $upscope $end
  $scope module CPU.IF.IMEM $end
  $upscope $end
  $scope module CPU.MEM.DMEM $end
  $upscope $end
  $scope module CPU $end
   $var wire 1 2 testHarness_regUpdates_writeEnable $end
   $var wire 1 > ID $end
   $var wire 1 D testHarness_memUpdates_writeEnable $end
   $var wire 32 K testHarness_regUpdates_writeData $end
   $var wire 5 L testHarness_regUpdates_writeAddress $end
   $var wire 5 M testHarness_setupSignals_registerSignals_readAddress $end
   $var wire 32 P testHarness_testReadouts_registerRead $end
   $var wire 32 T testHarness_currentPC $end
   $var wire 1 W IF $end
   $var wire 32 [ testHarness_memUpdates_writeAddress $end
   $var wire 1 ^ testHarness_setupSignals_DMEMsignals_setup $end
   $var wire 32 d testHarness_testReadouts_DMEMread $end
   $var wire 32 f testHarness_setupSignals_DMEMsignals_dataIn $end
   $var wire 1 g testHarness_setupSignals_IMEMsignals_setup $end
   $var wire 1 q clock $end
   $var wire 32 s testHarness_setupSignals_DMEMsignals_dataAddress $end
   $var wire 1 x testHarness_setupSignals_registerSignals_setup $end
   $var wire 1 { MEM $end
   $var wire 1 "" testHarness_setupSignals_registerSignals_writeEnable $end
   $var wire 32 "6 testHarness_memUpdates_writeData $end
   $var wire 32 "= testHarness_setupSignals_registerSignals_writeData $end
   $var wire 1 "@ reset $end
   $var wire 1 "B testHarness_setupSignals_DMEMsignals_writeEnable $end
    $scope module MEM $end
     $var wire 1 8 DMEM $end
     $var wire 32 ; testHarness_testUpdates_writeAddress $end
     $var wire 32 U testHarness_DMEMsetup_dataAddress $end
     $var wire 1 p testHarness_testUpdates_writeEnable $end
     $var wire 1 z testHarness_DMEMsetup_writeEnable $end
     $var wire 32 } testHarness_DMEMpeek $end
     $var wire 1 "* testHarness_DMEMsetup_setup $end
     $var wire 32 "0 testHarness_testUpdates_writeData $end
     $var wire 1 "4 clock $end
     $var wire 32 "> testHarness_DMEMsetup_dataIn $end
      $scope module DMEM $end
       $var wire 32 & testHarness_testUpdates_writeData $end
       $var wire 1 ) _GEN_6 $end
       $var wire 12 - data__T_24_addr_pipe_0 $end
       $var wire 1 6 testHarness_testUpdates_writeEnable $end
       $var wire 32 : testHarness_setup_dataAddress $end
       $var wire 32 ? testHarness_testUpdates_writeAddress $end
       $var wire 32 F addressSource $end
       $var wire 32 J data $end
       $var wire 1 r testHarness_setup_writeEnable $end
       $var wire 1 t testHarness_setup_setup $end
       $var wire 1 "& clock $end
       $var wire 32 "+ testHarness_setup_dataIn $end
       $var wire 32 "9 io_dataOut $end
        $scope module data $end
          $scope module _T_26 $end
           $var wire 1 ! clk $end
           $var wire 12 B addr $end
           $var wire 32 G pipeline_data_0 $end
           $var wire 1 \ pipeline_valid_0 $end
           $var wire 32 c data $end
           $var wire 1 "# en $end
           $var wire 12 "' pipeline_addr_0 $end
           $var wire 1 "- valid $end
           $var wire 1 "< mask $end
          $upscope $end
          $scope module _T_24 $end
           $var wire 32 5 data $end
           $var wire 1 h clk $end
           $var wire 1 "% en $end
           $var wire 12 "( addr $end
          $upscope $end
        $upscope $end
      $upscope $end
    $upscope $end
    $scope module ID $end
     $var wire 1 " testHarness_registerSetup_writeEnable $end
     $var wire 32 = testHarness_registerPeek $end
     $var wire 1 C testHarness_testUpdates_writeEnable $end
     $var wire 32 H testHarness_registerSetup_writeData $end
     $var wire 5 N testHarness_testUpdates_writeAddress $end
     $var wire 5 k testHarness_registerSetup_readAddress $end
     $var wire 1 o registers $end
     $var wire 1 "3 testHarness_registerSetup_setup $end
     $var wire 32 "5 testHarness_testUpdates_writeData $end
     $var wire 1 ": clock $end
      $scope module registers $end
       $var wire 1 % testHarness_testUpdates_writeEnable $end
       $var wire 1 ' testHarness_setup_setup $end
       $var wire 32 , testHarness_testUpdates_writeData $end
       $var wire 5 . readAddress1 $end
       $var wire 1 0 clock $end
       $var wire 32 1 io_readData1 $end
       $var wire 32 3 registerFile $end
       $var wire 1 7 testHarness_setup_writeEnable $end
       $var wire 1 @ writeEnable $end
       $var wire 5 O testHarness_testUpdates_writeAddress $end
       $var wire 32 ` testHarness_setup_writeData $end
       $var wire 5 y testHarness_setup_readAddress $end
        $scope module registerFile $end
          $scope module _T_33 $end
           $var wire 1 # en $end
           $var wire 1 ( pipeline_valid_0 $end
           $var wire 1 / clk $end
           $var wire 5 S pipeline_addr_0 $end
           $var wire 1 V mask $end
           $var wire 1 e valid $end
           $var wire 5 w addr $end
           $var wire 32 "$ pipeline_data_0 $end
           $var wire 32 "8 data $end
          $upscope $end
          $scope module _T_41 $end
           $var wire 32 A data $end
           $var wire 1 R en $end
           $var wire 1 n clk $end
           $var wire 5 "1 addr $end
          $upscope $end
          $scope module _T_38 $end
           $var wire 1 E clk $end
           $var wire 1 b en $end
           $var wire 5 j addr $end
           $var wire 32 ". data $end
          $upscope $end
        $upscope $end
      $upscope $end
    $upscope $end
    $scope module IF $end
     $var wire 1 $ testHarness_IMEMsetup_setup $end
     $var wire 1 9 IMEM $end
     $var wire 32 Q PC $end
     $var wire 1 X clock $end
     $var wire 32 Y testHarness_PC $end
     $var wire 1 | reset $end
     $var wire 32 "? _GEN_0 $end
      $scope module IMEM $end
       $var wire 32 "/ testHarness_requestedAddress $end
       $var wire 32 "; io_instructionAddress $end
      $upscope $end
    $upscope $end
  $upscope $end
  $scope module CPU.ID $end
  $upscope $end
$upscope $end
$enddefinitions $end
$dumpvars
0X
0C
0"7
1"<
0""
b00000000000000000000000000000000 Y
b00000000000000000000000000000000 ">
0o
0R
b00000000000000000000000000000000 "8
b00000000000000000000000000000000 l
b00000000000000000000000000000000 :
b00000000000000000000000000000000 Q
b00000000000000000000000000000000 }
0g
b00000000000000000000000000000000 `
b00000000000000000000000000000000 K
b00000000000000000000000000000000 ".
b000000000000 "(
0"@
0D
0/
0"#
0x
0":
b00000 S
0z
b00000000000000000000000000000000 s
0]
1)
0r
b00000 j
b00000000000000000000000000000000 A
0@
0W
b00000000000000000000000000000000 ;
0%
b00000 O
b000000000000 -
b00000000000000000000000000000000 "=
b00000000000000000000000000000000 Z
0p
b00000000000000000000000000000000 T
0>
0"2
b00000000000000000000000000000000 ?
06
0!
b00000 .
b00000000000000000000000000000000 "9
0"4
b00000 y
b00000000000000000000000000000000 P
b00000000000000000000000000000000 3
0{
b00000000000000000000000000000000 "5
b00000000000000000000000000000000 J
b000000000000 "'
b00000000000000000000000000000000 "/
0"*
0b
0E
00
0(
b00000000000000000000000000000000 "+
b00000000000000000000000000000000 _
0u
1V
b00000000000000000000000000000000 [
b00000000000000000000000000000000 "6
b00000000000000000000000000000000 "!
0q
0i
b00000000000000000000000000000000 U
0"3
b00000 a
b00000 L
0"
07
09
0"-
0e
b00000000000000000000000000000000 f
b00000 "1
b00000000000000000000000000000000 I
b00000000000000000000000000000000 4
0|
b00000000000000000000000000000000 "0
b00000000000000000000000000000000 d
0"B
b00000000000000000000000000000000 G
b00000000000000000000000000000000 "A
b00000000000000000000000000000000 "$
b00000000000000000000000000000000 ,
b00000 M
0t
b00000000000000000000000000000000 ";
b00000000000000000000000000000000 &
0n
b00000000000000000000000000000000 =
0'
0<
b00000000000000000000000000000000 "?
b00000 w
08
0",
0#
02
b000000000000 B
b00000000000000000000000000000000 5
b00000000000000000000000000000000 ~
0h
b00000 m
b00000000000000000000000000000000 c
b00000000000000000000000000000000 ")
b00000000000000000000000000000000 F
b00000000000000000000000000000000 1
0\
b00000000000000000000000000000000 H
0"&
b00000000000000000000000000000000 +
0*
0^
b00000 k
1"%
0$
b00000 N
b00000000000000000000000000000000 v
$end
#0
1",
1"@
1|
#1
1q
1X
1/
1n
1!
1i
1"4
1":
1E
1"&
10
1h
#6
0i
0q
0/
0"&
00
0!
0":
0X
0n
0h
0"4
0E
#11
1q
1X
1/
1n
1!
1i
1"4
1":
1E
1"&
10
1h
#16
0i
0q
0/
0"&
00
0!
0":
0X
0n
0h
0"4
0E
#21
1q
1X
1/
1n
1!
1i
1"4
1":
1E
1"&
10
1h
#26
0i
0q
0/
0"&
00
0!
0":
0X
0n
0h
0"4
0E
#31
1q
1X
1/
1n
1!
1i
1"4
1":
1E
1"&
10
1h
#36
0i
0q
0/
0"&
00
0!
0":
0X
0n
0h
0"4
0E
#41
1q
1X
1/
1n
1!
1i
1"4
1":
1E
1"&
10
1h
#46
1"2
0i
1"*
1t
1g
0"&
0",
1"3
0h
0E
1^
0q
1x
0|
0/
00
0!
0":
1$
0X
0n
0"4
0"@
b00000000011000101000001010110011 ~
1'
#51
1q
1X
1/
1n
1!
1i
1"4
1":
1E
1"&
10
1h
#56
0i
0"&
0h
0E
b00000000011000101000001110110011 ~
0q
0/
00
0!
0":
b00000000000000000000000000000100 4
0X
0n
0"4
#61
1q
1X
1/
1n
1!
1i
1"4
1":
1E
1"&
10
1h
#66
0i
b00000000011000101000000000110011 ~
0"&
0h
0E
0q
0/
00
0!
0":
b00000000000000000000000000001000 4
0X
0n
0"4
#71
1q
1X
1/
1n
1!
1i
1"4
1":
1E
1"&
10
1h
#76
0i
b00000000000000000000000000001100 4
0"&
0h
b00000000011000111000001110110011 ~
0E
0q
0/
00
0!
0":
0X
0n
0"4
#81
1q
1X
1/
1n
1!
1i
1"4
1":
1E
1"&
10
1h
#86
0i
0"&
b00000000000000000000000000010000 4
0h
0E
0q
0/
00
0!
0":
0X
0n
0"4
b00000001110011100000111000110011 ~
#91
1q
1X
1/
1n
1!
1i
1"4
1":
1E
1"&
10
1h
#96
0i
0q
b00000000000000000000000000010100 4
0/
0"&
00
0!
0":
0X
0n
0h
0"4
0E
#101
1q
1X
1/
1n
1!
1i
1"4
1":
1E
1"&
10
1h
#106
0i
0q
0/
0"&
00
0!
0":
b00000000000000000000000000011000 4
0X
0n
0h
0"4
0E
#111
1q
1X
1/
1n
1!
1i
1"4
1":
1E
1"&
10
1h
#116
0i
0"&
b00000000000000000000000000110011 ~
0h
b00000000000000000000000000011100 4
0E
0q
0/
00
0!
0":
0X
0n
0"4
#121
1q
1X
1/
1n
1!
1i
1"4
1":
1E
1"&
10
1h
#126
0i
0"&
0h
0E
0q
0/
00
0!
0":
b00000000000000000000000000010011 ~
0X
0n
0"4
b00000000000000000000000000100000 4
#131
1q
1X
1/
1n
1!
1i
1"4
1":
1E
1"&
10
1h
#136
1<
0"&
1@
1b
b01110 w
b01110 y
1"
b01110 j
1%
0q
b01110 M
0/
00
0":
12
b00000000000000000000000000000000 ~
1*
b01110 k
1""
0X
0n
b01110 a
b01110 N
0"4
1#
0i
1e
b01110 L
0h
b01110 O
1C
0E
b01110 m
0!
b00000000000000000000111111111100 4
b01110 .
17
#141
1(
1X
1!
1i
1"4
b01110 S
1E
10
1q
1/
1n
1":
1"&
1h
#146
0i
b01010 L
0"&
b01010 .
b01010 a
b01010 k
0h
b01010 O
b01010 y
0E
b01010 m
0q
0/
00
0!
0":
b01010 N
b01010 w
b01010 j
0X
0n
0"4
b01010 M
#151
1q
b01010 S
1X
1/
1n
1!
1i
1"4
1":
1E
1"&
10
1h
#156
0i
b10001 w
b10001 m
0"&
b10001 k
b10001 .
b10001 L
b10001 N
0h
b10001 M
0E
0q
0/
00
0!
0":
b10001 y
0X
0n
b10001 j
b10001 O
0"4
b10001 a
#161
1q
b10001 S
1X
1/
1n
1!
1i
1"4
1":
1E
1"&
10
1h
#166
0i
b00000 m
0"&
b00000 .
0h
b00000 N
b00000 k
0E
0q
b00000 w
0/
00
0!
0":
b00000 L
b00000 y
b00000 a
0#
0e
b00000 M
0X
0n
0b
0"4
b00000 j
b00000 O
#171
1X
1!
1i
1"4
1E
10
1q
0(
1/
1n
1":
1"&
b00000 S
1h
#176
0i
b00100 M
b00100 a
b00100 .
0"&
b00100 k
b00100 w
1e
1b
0h
0E
0q
b00100 L
0/
00
0!
0":
b00100 y
b00100 j
0X
0n
b00100 m
b00100 N
1#
0"4
b00100 O
#181
1(
b00100 S
1X
1!
1i
1"4
1E
10
1q
1/
1n
1":
1"&
1h
#186
0i
b11000 k
b11000 N
b11000 w
0"&
b11000 M
0h
b11000 y
b11000 .
b11000 j
b11000 O
0E
0q
0/
b11000 L
00
0!
0":
b11000 m
b11000 a
0X
0n
0"4
#191
1q
1X
1/
b11000 S
1n
1!
1i
1"4
1":
1E
1"&
10
1h
#196
b00000000000000000000000000010111 "8
0"&
b00000000000000000000000000010111 "A
b00110 a
b00110 O
b00110 k
b00110 N
b00110 L
0q
0/
00
0":
0X
0n
0"4
b00000000000000000000000000010111 _
b00000000000000000000000000010111 H
0i
b00000000000000000000000000010111 K
b00000000000000000000000000010111 `
b00110 y
b00110 m
0h
0E
b00000000000000000000000000010111 "=
b00000000000000000000000000010111 ,
b00110 j
0!
b00110 M
b00000000000000000000000000010111 "5
b00110 .
b00110 w
#201
b00000000000000000000000000010111 +
b00110 S
b00000000000000000000000000010111 "$
1X
b00000000000000000000000000010111 1
1!
1i
1"4
1E
b00000000000000000000000000010111 ".
10
b00000000000000000000000000010111 P
1q
1/
1n
1":
b00000000000000000000000000010111 =
1"&
1h
#206
b00000000000000000000000000000000 P
b00000000000000000000000000000000 "=
0"&
b00000000000000000000000000000000 =
b10100 m
0q
b00000000000000000000000000000000 +
0/
00
0":
b10100 O
b00000000000000000000000000000000 1
b00000000000000000000000000000000 H
0X
0n
b00000000000000000000000000000000 ".
0"4
b00000000000000000000000000000000 _
0i
b10100 y
b00000000000000000000000000000000 "8
b10100 .
b00000000000000000000000000000000 `
b10100 M
b10100 k
b00000000000000000000000000000000 K
0h
0E
b10100 j
b10100 N
b10100 w
0!
b00000000000000000000000000000000 ,
b10100 L
b00000000000000000000000000000000 "A
b00000000000000000000000000000000 "5
b10100 a
#211
1X
b10100 S
1!
1i
1"4
1E
10
b00000000000000000000000000000000 "$
1q
1/
1n
1":
1"&
1h
#216
0"&
b00000000000000000000000000101011 ,
b00111 j
b00111 .
b00111 m
b00000000000000000000000000101011 "=
0q
0/
00
0":
0X
0n
0"4
b00000000000000000000000000101011 `
0i
b00111 M
b00000000000000000000000000101011 _
b00000000000000000000000000101011 H
0h
b00111 w
0E
b00000000000000000000000000101011 "A
b00111 a
b00000000000000000000000000101011 "5
b00111 k
b00111 O
0!
b00000000000000000000000000101011 "8
b00111 L
b00111 N
b00000000000000000000000000101011 K
b00111 y
#221
b00111 S
b00000000000000000000000000101011 P
b00000000000000000000000000101011 1
1X
1!
1i
1"4
1E
10
1q
b00000000000000000000000000101011 ".
1/
1n
b00000000000000000000000000101011 "$
1":
b00000000000000000000000000101011 =
1"&
b00000000000000000000000000101011 +
1h
#226
b00001 M
b00001 y
b00000000000000000000000000000000 P
b00000000000000000000000000000000 "=
0"&
b00001 w
b00000000000000000000000000000000 =
b00001 O
0q
b00001 k
b00001 .
b00000000000000000000000000000000 +
0/
00
0":
b00000000000000000000000000000000 1
b00000000000000000000000000000000 H
0X
0n
b00000000000000000000000000000000 ".
0"4
b00000000000000000000000000000000 _
0i
b00000000000000000000000000000000 "8
b00001 N
b00000000000000000000000000000000 `
b00000000000000000000000000000000 K
0h
b00001 a
0E
b00001 j
b00001 L
0!
b00000000000000000000000000000000 ,
b00001 m
b00000000000000000000000000000000 "A
b00000000000000000000000000000000 "5
#231
1X
1!
1i
1"4
1E
10
b00000000000000000000000000000000 "$
1q
1/
1n
b00001 S
1":
1"&
1h
#236
0i
0"&
b11011 k
b11011 M
b11011 O
b11011 y
0h
0E
0q
b11011 L
b11011 a
b11011 j
0/
00
0!
0":
b11011 m
b11011 .
0X
0n
b11011 N
b11011 w
0"4
#241
1h
1q
1X
1/
1n
1!
1i
1"4
1":
1E
1"&
10
b11011 S
#246
b01101 k
0i
b01101 m
b01101 .
0"&
b01101 a
0h
b01101 O
b01101 M
b01101 N
0E
b01101 y
0q
b01101 j
b01101 w
0/
00
0!
0":
b01101 L
0X
0n
0"4
#251
1q
1X
1/
1n
b01101 S
1i
1"4
1!
1":
1E
1"&
10
1h
#256
0i
b01011 k
0"&
b01011 w
0h
b01011 j
b01011 O
b01011 M
0E
0q
b01011 N
b01011 y
b01011 L
0/
b01011 m
00
0!
0":
b01011 .
b01011 a
0X
0n
0"4
#261
b01011 S
1q
1X
1/
1n
1!
1i
1"4
1":
1E
1"&
10
1h
#266
0i
b01100 L
b01100 k
0"&
b01100 a
0h
b01100 M
b01100 y
b01100 w
0E
b01100 N
0q
b01100 O
0/
00
0!
0":
b01100 m
b01100 .
0X
0n
0"4
b01100 j
#271
1q
1X
1/
b01100 S
1!
1i
1"4
1":
1n
1E
1"&
10
1h
#276
0i
0"&
b00011 .
b00011 y
b00011 j
0h
b00011 w
b00011 k
b00011 a
0E
b00011 L
b00011 O
0q
0/
b00011 M
00
0!
0":
0X
0n
0"4
b00011 N
b00011 m
#281
1q
b00011 S
1X
1/
1n
1!
1i
1"4
1":
1E
1"&
10
1h
#286
0"&
b00101 y
b00000000000000000000000000001010 "5
b00000000000000000000000000001010 H
0q
0/
b00101 k
00
0":
b00000000000000000000000000001010 "=
b00101 .
b00101 O
0X
0n
b00101 w
0"4
0i
b00101 j
b00101 N
b00000000000000000000000000001010 `
0h
b00101 M
b00101 L
b00000000000000000000000000001010 "8
0E
b00000000000000000000000000001010 _
b00000000000000000000000000001010 K
0!
b00000000000000000000000000001010 ,
b00101 m
b00000000000000000000000000001010 "A
b00101 a
#291
b00000000000000000000000000001010 ".
b00101 S
b00000000000000000000000000001010 "$
1X
1!
1i
1"4
1E
b00000000000000000000000000001010 +
b00000000000000000000000000001010 =
10
b00000000000000000000000000001010 1
b00000000000000000000000000001010 P
1q
1/
1n
1":
1"&
1h
#296
b00000000000000000000000000000000 P
b00000000000000000000000000000000 "=
0"&
b00000000000000000000000000000000 =
b10011 N
0q
b10011 m
b00000000000000000000000000000000 +
0/
b10011 k
00
0":
b10011 y
b00000000000000000000000000000000 1
b00000000000000000000000000000000 H
0X
0n
b10011 O
b00000000000000000000000000000000 ".
0"4
b00000000000000000000000000000000 _
0i
b00000000000000000000000000000000 "8
b10011 j
b00000000000000000000000000000000 `
b10011 M
b10011 a
b00000000000000000000000000000000 K
0h
b10011 w
0E
0!
b00000000000000000000000000000000 ,
b10011 .
b00000000000000000000000000000000 "A
b10011 L
b00000000000000000000000000000000 "5
#301
1X
b10011 S
1!
1i
1"4
1E
10
b00000000000000000000000000000000 "$
1q
1/
1n
1":
1"&
1h
#306
b10111 j
0i
b10111 w
0"&
b10111 .
b10111 O
b10111 L
0h
b10111 M
b10111 m
0E
0q
b10111 k
0/
00
0!
0":
b10111 y
b10111 a
b10111 N
0X
0n
0"4
#311
1q
1X
1/
1n
b10111 S
1i
1"4
1!
1":
1E
1"&
10
1h
#316
0i
b01111 m
0"&
b01111 N
b01111 w
b01111 O
b01111 a
0h
0E
b01111 L
0q
0/
b01111 j
00
0!
0":
b01111 k
b01111 M
0X
0n
b01111 y
0"4
b01111 .
#321
1q
1X
1/
1n
1!
1i
1"4
1":
1E
b01111 S
1"&
10
1h
#326
0i
0"&
b01000 m
b01000 j
b01000 L
0h
0E
0q
b01000 a
0/
00
0!
0":
b01000 k
b01000 O
b01000 N
b01000 .
b01000 w
0X
0n
b01000 M
0"4
b01000 y
#331
1q
1X
b01000 S
1/
1n
1!
1i
1"4
1":
1E
1"&
10
1h
#336
0i
b01001 O
0"&
0h
b01001 w
b01001 L
b01001 .
0E
0q
0/
00
0!
0":
b01001 j
b01001 M
0X
0n
b01001 y
b01001 k
0"4
b01001 N
b01001 m
b01001 a
#341
1q
1X
1/
1n
b01001 S
1i
1"4
1!
1":
1E
1"&
10
1h
#346
0i
b10101 w
b10101 j
0"&
b10101 L
b10101 .
0h
b10101 y
0E
0q
b10101 M
b10101 O
0/
b10101 k
00
0!
0":
0X
0n
b10101 a
0"4
b10101 m
b10101 N
#351
1q
b10101 S
1X
1/
1n
1!
1i
1"4
1":
1E
1"&
10
1h
#356
b11100 a
b11111111111111111111111111110101 "8
b11100 w
b11111111111111111111111111110101 `
0"&
b11100 y
b11100 O
0q
b11100 j
0/
00
0":
b11100 .
b11111111111111111111111111110101 _
0X
0n
b11100 N
0"4
0i
b11111111111111111111111111110101 "A
b11111111111111111111111111110101 H
b11100 k
b11100 M
0h
b11111111111111111111111111110101 K
0E
0!
b11100 m
b11111111111111111111111111110101 ,
b11111111111111111111111111110101 "5
b11100 L
b11111111111111111111111111110101 "=
#361
b11111111111111111111111111110101 P
b11111111111111111111111111110101 =
b11111111111111111111111111110101 ".
1X
1!
1i
1"4
1E
10
b11100 S
1q
b11111111111111111111111111110101 1
1/
1n
b11111111111111111111111111110101 "$
1":
1"&
b11111111111111111111111111110101 +
1h
#366
b00000000000000000000000000000000 P
b00000000000000000000000000000000 "=
b10000 k
0"&
b00000000000000000000000000000000 =
b10000 j
b10000 N
b10000 L
0q
b00000000000000000000000000000000 +
0/
00
0":
b00000000000000000000000000000000 1
b10000 a
b00000000000000000000000000000000 H
0X
0n
b00000000000000000000000000000000 ".
0"4
b00000000000000000000000000000000 _
b10000 w
0i
b00000000000000000000000000000000 "8
b10000 y
b00000000000000000000000000000000 `
b00000000000000000000000000000000 K
0h
0E
b10000 O
b10000 M
0!
b10000 .
b10000 m
b00000000000000000000000000000000 ,
b00000000000000000000000000000000 "A
b00000000000000000000000000000000 "5
#371
1X
1!
1i
1"4
1E
10
b00000000000000000000000000000000 "$
1q
b10000 S
1/
1n
1":
1"&
1h
#376
0i
0"&
b10010 .
b10010 N
0h
0E
0q
b10010 a
b10010 M
0/
00
0!
0":
b10010 k
b10010 L
0X
0n
b10010 y
b10010 w
0"4
b10010 m
b10010 O
b10010 j
#381
1q
1X
b10010 S
1/
1n
1!
1i
1"4
1":
1E
1"&
10
1h
#386
0i
0"&
b11010 a
b11010 m
b11010 j
b11010 O
0h
b11010 N
0E
0q
0/
00
0!
0":
b11010 w
b11010 M
0X
0n
0"4
b11010 L
b11010 y
b11010 k
b11010 .
#391
1q
1X
1/
b11010 S
1n
1!
1i
1"4
1":
1E
1"&
10
1h
#396
0i
b11111 N
b11111 m
b11111 j
0"&
b11111 y
b11111 M
b11111 a
b11111 L
0h
b11111 .
0E
0q
b11111 w
0/
00
0!
0":
0X
0n
0"4
b11111 O
b11111 k
#401
b11111 S
1q
1X
1/
1n
1!
1i
1"4
1":
1E
1"&
10
1h
#406
0"&
b00000000000000000000010000000000 "5
b00010 a
b00010 y
b00010 w
0q
b00010 .
0/
b00010 j
00
0":
b00000000000000000000010000000000 `
0X
0n
0"4
b00010 O
b00000000000000000000010000000000 K
b00000000000000000000010000000000 "8
0i
b00000000000000000000010000000000 "A
b00010 M
b00000000000000000000010000000000 _
b00010 k
b00000000000000000000010000000000 H
0h
b00010 N
b00010 m
0E
b00000000000000000000010000000000 "=
0!
b00010 L
b00000000000000000000010000000000 ,
#411
b00010 S
b00000000000000000000010000000000 P
1X
b00000000000000000000010000000000 "$
b00000000000000000000010000000000 =
1!
1i
1"4
1E
b00000000000000000000010000000000 +
10
1q
1/
b00000000000000000000010000000000 ".
1n
b00000000000000000000010000000000 1
1":
1"&
1h
#416
b00000000000000000000000000000000 P
b00000000000000000000000000000000 "=
0"&
b11101 O
b00000000000000000000000000000000 =
b11101 w
b11101 m
b11101 k
b11101 L
0q
b00000000000000000000000000000000 +
0/
00
0":
b00000000000000000000000000000000 1
b00000000000000000000000000000000 H
0X
0n
b00000000000000000000000000000000 ".
0"4
b00000000000000000000000000000000 _
b11101 j
b11101 y
0i
b11101 a
b00000000000000000000000000000000 "8
b11101 .
b00000000000000000000000000000000 `
b11101 M
0h
b00000000000000000000000000000000 K
0E
0!
b00000000000000000000000000000000 ,
b11101 N
b00000000000000000000000000000000 "A
b00000000000000000000000000000000 "5
#421
1X
b11101 S
1!
1i
1"4
1E
10
b00000000000000000000000000000000 "$
1q
1/
1n
1":
1"&
1h
#426
0i
b11001 M
b11001 w
0"&
b11001 N
0h
0E
0q
b11001 k
b11001 O
b11001 .
0/
00
0!
0":
b11001 m
b11001 y
b11001 L
b11001 a
0X
0n
0"4
b11001 j
#431
b11001 S
1q
1X
1/
1n
1!
1i
1"4
1":
1E
1"&
10
1h
#436
0i
b10110 O
0"&
b10110 w
b10110 k
b10110 L
0h
0E
0q
0/
b10110 .
00
0!
0":
b10110 j
b10110 a
0X
0n
b10110 M
b10110 m
0"4
b10110 N
b10110 y
#441
1q
1X
1/
1n
1!
1i
1"4
1":
1E
b10110 S
1"&
10
1h
#446
0i
b11110 L
b11110 N
b11110 j
0"&
b11110 a
b11110 k
0h
b11110 m
0E
0q
b11110 .
b11110 O
0/
00
0!
0":
b11110 w
b11110 M
b11110 y
0X
0n
0"4
#451
1q
b11110 S
1X
1/
1n
1!
1i
1"4
1":
1E
1"&
10
1h
#456
b00000 m
0"&
b00000 .
b00000 N
0C
0*
b00000 k
0q
0/
00
0":
b00000 L
b00000 y
0"
0@
0X
0n
b00000 j
0"4
0i
02
0h
0E
b00000 w
0""
b00000 a
0!
0#
0%
0e
b00000 M
07
0b
b00000 O
0<
#461
1X
1!
1i
1"4
1E
10
1q
0(
1/
1n
1":
1"&
b00000 S
1h
#466
0i
0q
0/
0"&
00
0!
0":
0X
0n
0h
0"4
0E
#471
1q
1X
1/
1n
1!
1i
1"4
1":
1E
1"&
10
1h
#476
0i
0q
0/
0"&
00
0!
0":
0X
0n
0h
0"4
0E
#481
1q
1X
1/
1n
1!
1i
1"4
1":
1E
1"&
10
1h
#486
0i
0q
0/
0"&
00
0!
0":
0X
0n
0h
0"4
0E
#491
1q
1X
1/
1n
1!
1i
1"4
1":
1E
1"&
10
1h
#496
0i
0q
0/
0"&
00
0!
0":
0X
0n
0h
0"4
0E
#501
1q
1X
1/
1n
1!
1i
1"4
1":
1E
1"&
10
1h
#506
0i
0q
0/
0"&
00
0!
0":
0X
0n
0h
0"4
0E
#511
1q
1X
1/
1n
1!
1i
1"4
1":
1E
1"&
10
1h
#516
0i
0g
0$
0"&
0h
0"3
0x
0"*
0E
0t
0q
0/
0'
00
0!
0":
0^
0X
0n
0"2
0"4
