waveforms/addi.s.vcd
$date
2021-12-01T12:18+0000
$end
$version
0.2
$end
$comment

$end
$timescale 1ns  $end
$scope module Tile $end
 $var wire 1 * io_regsWriteEnable $end
 $var wire 32 + io_regsReadData $end
 $var wire 32 4 io_IMEMAddress $end
 $var wire 1 < io_regsDeviceWriteEnable $end
 $var wire 32 I io_DMEMAddress $end
 $var wire 32 Z io_DMEMWriteData $end
 $var wire 1 ] CPU $end
 $var wire 32 _ io_regsDeviceWriteData $end
 $var wire 5 a io_regsDeviceWriteAddress $end
 $var wire 1 i clock $end
 $var wire 32 l io_currentPC $end
 $var wire 5 m io_regsAddress $end
 $var wire 1 u io_DMEMWriteEnable $end
 $var wire 32 v io_memDeviceWriteAddress $end
 $var wire 32 ~ io_IMEMWriteData $end
 $var wire 32 "! io_memDeviceWriteData $end
 $var wire 32 ") io_DMEMReadData $end
 $var wire 1 ", reset $end
 $var wire 1 "2 io_setup $end
 $var wire 1 "7 io_memDeviceWriteEnable $end
 $var wire 32 "A io_regsWriteData $end
  $scope module CPU.MEM $end
  $upscope $end
  $scope module CPU.ID.registers $end
  $upscope $end
  $scope module CPU.IF $end
  $upscope $end
  $scope module CPU.IF.IMEM $end
  $upscope $end
  $scope module CPU.MEM.DMEM $end
  $upscope $end
  $scope module CPU $end
   $var wire 1 2 testHarness_regUpdates_writeEnable $end
   $var wire 1 > ID $end
   $var wire 1 D testHarness_memUpdates_writeEnable $end
   $var wire 32 K testHarness_regUpdates_writeData $end
   $var wire 5 L testHarness_regUpdates_writeAddress $end
   $var wire 5 M testHarness_setupSignals_registerSignals_readAddress $end
   $var wire 32 P testHarness_testReadouts_registerRead $end
   $var wire 32 T testHarness_currentPC $end
   $var wire 1 W IF $end
   $var wire 32 [ testHarness_memUpdates_writeAddress $end
   $var wire 1 ^ testHarness_setupSignals_DMEMsignals_setup $end
   $var wire 32 d testHarness_testReadouts_DMEMread $end
   $var wire 32 f testHarness_setupSignals_DMEMsignals_dataIn $end
   $var wire 1 g testHarness_setupSignals_IMEMsignals_setup $end
   $var wire 1 q clock $end
   $var wire 32 s testHarness_setupSignals_DMEMsignals_dataAddress $end
   $var wire 1 x testHarness_setupSignals_registerSignals_setup $end
   $var wire 1 { MEM $end
   $var wire 1 "" testHarness_setupSignals_registerSignals_writeEnable $end
   $var wire 32 "6 testHarness_memUpdates_writeData $end
   $var wire 32 "= testHarness_setupSignals_registerSignals_writeData $end
   $var wire 1 "@ reset $end
   $var wire 1 "B testHarness_setupSignals_DMEMsignals_writeEnable $end
    $scope module MEM $end
     $var wire 1 8 DMEM $end
     $var wire 32 ; testHarness_testUpdates_writeAddress $end
     $var wire 32 U testHarness_DMEMsetup_dataAddress $end
     $var wire 1 p testHarness_testUpdates_writeEnable $end
     $var wire 1 z testHarness_DMEMsetup_writeEnable $end
     $var wire 32 } testHarness_DMEMpeek $end
     $var wire 1 "* testHarness_DMEMsetup_setup $end
     $var wire 32 "0 testHarness_testUpdates_writeData $end
     $var wire 1 "4 clock $end
     $var wire 32 "> testHarness_DMEMsetup_dataIn $end
      $scope module DMEM $end
       $var wire 32 & testHarness_testUpdates_writeData $end
       $var wire 1 ) _GEN_6 $end
       $var wire 12 - data__T_24_addr_pipe_0 $end
       $var wire 1 6 testHarness_testUpdates_writeEnable $end
       $var wire 32 : testHarness_setup_dataAddress $end
       $var wire 32 ? testHarness_testUpdates_writeAddress $end
       $var wire 32 F addressSource $end
       $var wire 32 J data $end
       $var wire 1 r testHarness_setup_writeEnable $end
       $var wire 1 t testHarness_setup_setup $end
       $var wire 1 "& clock $end
       $var wire 32 "+ testHarness_setup_dataIn $end
       $var wire 32 "9 io_dataOut $end
        $scope module data $end
          $scope module _T_26 $end
           $var wire 1 ! clk $end
           $var wire 12 B addr $end
           $var wire 32 G pipeline_data_0 $end
           $var wire 1 \ pipeline_valid_0 $end
           $var wire 32 c data $end
           $var wire 1 "# en $end
           $var wire 12 "' pipeline_addr_0 $end
           $var wire 1 "- valid $end
           $var wire 1 "< mask $end
          $upscope $end
          $scope module _T_24 $end
           $var wire 32 5 data $end
           $var wire 1 h clk $end
           $var wire 1 "% en $end
           $var wire 12 "( addr $end
          $upscope $end
        $upscope $end
      $upscope $end
    $upscope $end
    $scope module ID $end
     $var wire 1 " testHarness_registerSetup_writeEnable $end
     $var wire 32 = testHarness_registerPeek $end
     $var wire 1 C testHarness_testUpdates_writeEnable $end
     $var wire 32 H testHarness_registerSetup_writeData $end
     $var wire 5 N testHarness_testUpdates_writeAddress $end
     $var wire 5 k testHarness_registerSetup_readAddress $end
     $var wire 1 o registers $end
     $var wire 1 "3 testHarness_registerSetup_setup $end
     $var wire 32 "5 testHarness_testUpdates_writeData $end
     $var wire 1 ": clock $end
      $scope module registers $end
       $var wire 1 % testHarness_testUpdates_writeEnable $end
       $var wire 1 ' testHarness_setup_setup $end
       $var wire 32 , testHarness_testUpdates_writeData $end
       $var wire 5 . readAddress1 $end
       $var wire 1 0 clock $end
       $var wire 32 1 io_readData1 $end
       $var wire 32 3 registerFile $end
       $var wire 1 7 testHarness_setup_writeEnable $end
       $var wire 1 @ writeEnable $end
       $var wire 5 O testHarness_testUpdates_writeAddress $end
       $var wire 32 ` testHarness_setup_writeData $end
       $var wire 5 y testHarness_setup_readAddress $end
        $scope module registerFile $end
          $scope module _T_33 $end
           $var wire 1 # en $end
           $var wire 1 ( pipeline_valid_0 $end
           $var wire 1 / clk $end
           $var wire 5 S pipeline_addr_0 $end
           $var wire 1 V mask $end
           $var wire 1 e valid $end
           $var wire 5 w addr $end
           $var wire 32 "$ pipeline_data_0 $end
           $var wire 32 "8 data $end
          $upscope $end
          $scope module _T_41 $end
           $var wire 32 A data $end
           $var wire 1 R en $end
           $var wire 1 n clk $end
           $var wire 5 "1 addr $end
          $upscope $end
          $scope module _T_38 $end
           $var wire 1 E clk $end
           $var wire 1 b en $end
           $var wire 5 j addr $end
           $var wire 32 ". data $end
          $upscope $end
        $upscope $end
      $upscope $end
    $upscope $end
    $scope module IF $end
     $var wire 1 $ testHarness_IMEMsetup_setup $end
     $var wire 1 9 IMEM $end
     $var wire 32 Q PC $end
     $var wire 1 X clock $end
     $var wire 32 Y testHarness_PC $end
     $var wire 1 | reset $end
     $var wire 32 "? _GEN_0 $end
      $scope module IMEM $end
       $var wire 32 "/ testHarness_requestedAddress $end
       $var wire 32 "; io_instructionAddress $end
      $upscope $end
    $upscope $end
  $upscope $end
  $scope module CPU.ID $end
  $upscope $end
$upscope $end
$enddefinitions $end
$dumpvars
b00000000000000000000000000000000 Y
0X
0"7
1"<
0""
0C
b00000000000000000000000000000000 ">
0o
0R
b00000000000000000000000000000000 "8
b00000000000000000000000000000000 l
b00000000000000000000000000000000 :
b00000000000000000000000000000000 Q
b00000000000000000000000000000000 }
0g
b00000000000000000000000000000000 `
b00000000000000000000000000000000 K
b00000000000000000000000000000000 ".
b000000000000 "(
0"@
0D
0/
0"#
0x
0":
b00000 S
0z
b00000000000000000000000000000000 s
0r
1)
0]
b00000 j
b00000000000000000000000000000000 A
0@
0W
b00000000000000000000000000000000 ;
0%
b00000 O
b000000000000 -
b00000000000000000000000000000000 "=
b00000000000000000000000000000000 Z
0p
b00000000000000000000000000000000 T
b00000000000000000000000000000000 ?
0>
0"2
06
0!
b00000 .
b00000000000000000000000000000000 "9
0"4
b00000 y
b00000000000000000000000000000000 P
b00000000000000000000000000000000 3
0{
b00000000000000000000000000000000 "5
b00000000000000000000000000000000 J
b000000000000 "'
b00000000000000000000000000000000 "/
0"*
0b
0E
00
0(
b00000000000000000000000000000000 "+
b00000000000000000000000000000000 _
0u
1V
b00000000000000000000000000000000 [
b00000000000000000000000000000000 "6
b00000000000000000000000000000000 "!
0q
0i
b00000000000000000000000000000000 U
0"3
b00000 a
07
0"
b00000 L
09
0"-
b00000000000000000000000000000000 f
0e
b00000 "1
b00000000000000000000000000000000 I
b00000000000000000000000000000000 4
0|
b00000000000000000000000000000000 "0
b00000000000000000000000000000000 d
0"B
b00000000000000000000000000000000 G
b00000000000000000000000000000000 "A
b00000000000000000000000000000000 "$
b00000000000000000000000000000000 ,
b00000 M
0t
b00000000000000000000000000000000 ";
b00000000000000000000000000000000 &
0n
b00000000000000000000000000000000 =
0'
0<
b00000000000000000000000000000000 "?
b00000 w
08
0#
0",
02
b000000000000 B
b00000000000000000000000000000000 5
b00000000000000000000000000000000 ~
0h
b00000 m
b00000000000000000000000000000000 c
b00000000000000000000000000000000 ")
b00000000000000000000000000000000 F
b00000000000000000000000000000000 1
0\
b00000000000000000000000000000000 H
0"&
0*
b00000000000000000000000000000000 +
0^
b00000 k
1"%
b00000 N
0$
b00000000000000000000000000000000 v
$end
#0
1"@
1|
b00000000000000000000000000000100 "?
1",
#1
1q
1"4
1"&
1!
1h
1/
1E
1X
1i
1n
10
1":
#6
0E
00
0i
0q
0"&
0!
0X
0h
0"4
0/
0n
0":
#11
1q
1"4
1"&
1!
1h
1/
1E
1X
1i
1n
10
1":
#16
0E
00
0i
0q
0"&
0!
0X
0h
0"4
0/
0n
0":
#21
1q
1"4
1"&
1!
1h
1/
1E
1X
1i
1n
10
1":
#26
0E
00
0i
0q
0"&
0!
0X
0h
0"4
0/
0n
0":
#31
1q
1"4
1"&
1!
1h
1/
1E
1X
1i
1n
10
1":
#36
0E
00
0i
0q
0"&
0!
0X
0h
0"4
0/
0n
0":
#41
1q
1"4
1"&
1!
1h
1/
1E
1X
1i
1n
10
1":
#46
00
1"*
0i
1$
0"&
0!
1"2
0X
0h
1g
1t
1x
1'
0n
0"@
0E
0|
0",
b00000000000100001000000000010011 ~
1^
0q
1"3
0"4
0/
b00000000000000000000000000000000 "?
0":
#51
1q
1"4
1"&
1!
1h
1/
1E
1X
1i
1n
10
1":
#56
00
0i
0"&
0!
0X
0h
0n
b00000000001000001000000000010011 ~
b00000000000000000000000000000100 4
0E
0q
0"4
0/
0":
#61
1q
1"4
1"&
1!
1h
1/
1E
1X
1i
1n
10
1":
#66
00
0i
0"&
0!
0X
0h
b00000000001100001000000000010011 ~
0n
0E
0q
0"4
0/
b00000000000000000000000000001000 4
0":
#71
1q
1"4
1"&
1!
1h
1/
1E
1X
1i
1n
10
1":
#76
00
0i
b00000000000000000000000000001100 4
0"&
0!
b00000000011100001000000000010011 ~
0X
0h
0n
0E
0q
0"4
0/
0":
#81
1q
1"4
1"&
1!
1h
1/
1E
1X
1i
1n
10
1":
#86
00
b00000000111000001000000000010011 ~
0i
0"&
0!
b00000000000000000000000000010000 4
0X
0h
0n
0E
0q
0"4
0/
0":
#91
1q
1"4
1"&
1!
1h
1/
1E
1X
1i
1n
10
1":
#96
00
0i
0"&
0!
0X
0h
b00000000000000000000000000010100 4
0n
0E
b00000001110000001000000000010011 ~
0q
0"4
0/
0":
#101
1q
1"4
1"&
1!
1h
1/
1E
1X
1i
1n
10
1":
#106
b00000011100000001000000000010011 ~
00
0i
0"&
0!
0X
0h
b00000000000000000000000000011000 4
0n
0E
0q
0"4
0/
0":
#111
1q
1"4
1"&
1!
1h
1/
1E
1X
1i
1n
10
1":
#116
00
0i
b00000000000100001000111110010011 ~
0"&
0!
0X
0h
0n
0E
0q
0"4
b00000000000000000000000000011100 4
0/
0":
#121
1q
1"4
1"&
1!
1h
1/
1E
1X
1i
1n
10
1":
#126
00
0i
0"&
0!
0X
0h
b00000000001000001000111110010011 ~
0n
0E
0q
b00000000000000000000000000100000 4
0"4
0/
0":
#131
1q
1"4
1"&
1!
1h
1/
1E
1X
1i
1n
10
1":
#136
00
0i
0"&
0!
b00000000001100001000111110010011 ~
0X
0h
b00000000000000000000000000100100 4
0n
0E
0q
0"4
0/
0":
#141
1q
1"4
1"&
1!
1h
1/
1E
1X
1i
1n
10
1":
#146
00
0i
0"&
0!
0X
0h
0n
0E
b00000000011100001000111110010011 ~
0q
0"4
0/
b00000000000000000000000000101000 4
0":
#151
1q
1"4
1"&
1!
1h
1/
1E
1X
1i
1n
10
1":
#156
00
0i
0"&
0!
0X
0h
0n
b00000000000000000000000000101100 4
0E
0q
b00000000111000001000111110010011 ~
0"4
0/
0":
#161
1q
1"4
1"&
1!
1h
1/
1E
1X
1i
1n
10
1":
#166
00
0i
0"&
0!
0X
0h
0n
b00000000000000000000000000110000 4
0E
0q
b00000001110000001000111110010011 ~
0"4
0/
0":
#171
1q
1"4
1"&
1!
1h
1/
1E
1X
1i
1n
10
1":
#176
00
0i
0"&
0!
0X
0h
0n
0E
b00000011100000001000111110010011 ~
0q
b00000000000000000000000000110100 4
0"4
0/
0":
#181
1q
1"4
1"&
1!
1h
1/
1E
1X
1i
1n
10
1":
#186
00
0i
0"&
0!
0X
0h
b00001000010100001000111110010011 ~
0n
0E
0q
0"4
0/
b00000000000000000000000000111000 4
0":
#191
1q
1"4
1"&
1!
1h
1/
1E
1X
1i
1n
10
1":
#196
00
0i
0"&
0!
0X
0h
0n
0E
b00000000000000000000000000111100 4
0q
0"4
0/
b00010000001000001000111110010011 ~
0":
#201
1q
1"4
1"&
1!
1h
1/
1E
1X
1i
1n
10
1":
#206
00
0i
0"&
0!
0X
0h
b00000000000000000000000001000000 4
0n
0E
0q
b00011111111100001000111110010011 ~
0"4
0/
0":
#211
1q
1"4
1"&
1!
1h
1/
1E
1X
1i
1n
10
1":
#216
00
0i
b11111111111100001000111110010011 ~
0"&
0!
0X
0h
0n
0E
0q
b00000000000000000000000001000100 4
0"4
0/
0":
#221
1q
1"4
1"&
1!
1h
1/
1E
1X
1i
1n
10
1":
#226
00
0i
0"&
0!
0X
0h
b00000000000000000000000001001000 4
0n
0E
0q
b11111111110100001000111110010011 ~
0"4
0/
0":
#231
1q
1"4
1"&
1!
1h
1/
1E
1X
1i
1n
10
1":
#236
00
0i
b11111111011100001000111110010011 ~
0"&
0!
0X
0h
b00000000000000000000000001001100 4
0n
0E
0q
0"4
0/
0":
#241
1q
1"4
1"&
1!
1h
1/
1E
1X
1i
1n
10
1":
#246
b11111001111000001000111110010011 ~
00
0i
0"&
0!
0X
0h
b00000000000000000000000001010000 4
0n
0E
0q
0"4
0/
0":
#251
1q
1"4
1"&
1!
1h
1/
1E
1X
1i
1n
10
1":
#256
00
0i
0"&
0!
0X
0h
0n
0E
0q
b11110001100100001000111110010011 ~
b00000000000000000000000001010100 4
0"4
0/
0":
#261
1q
1"4
1"&
1!
1h
1/
1E
1X
1i
1n
10
1":
#266
00
0i
0"&
0!
b11100000001000001000111110010011 ~
0X
0h
b00000000000000000000000001011000 4
0n
0E
0q
0"4
0/
0":
#271
1q
1"4
1"&
1!
1h
1/
1E
1X
1i
1n
10
1":
#276
00
0i
0"&
0!
0X
0h
0n
b00000000000100000000111100010011 ~
0E
b00000000000000000000000001011100 4
0q
0"4
0/
0":
#281
1q
1"4
1"&
1!
1h
1/
1E
1X
1i
1n
10
1":
#286
00
0i
0"&
0!
0X
0h
0n
0E
b00000000000000000000000001100000 4
0q
b00000000001011110000111100010011 ~
0"4
0/
0":
#291
1q
1"4
1"&
1!
1h
1/
1E
1X
1i
1n
10
1":
#296
00
b00000000000000000000000001100100 4
0i
0"&
0!
0X
0h
0n
0E
b00000000001111110000111100010011 ~
0q
0"4
0/
0":
#301
1q
1"4
1"&
1!
1h
1/
1E
1X
1i
1n
10
1":
#306
00
0i
0"&
0!
0X
0h
b00000000011111110000111100010011 ~
0n
0E
0q
b00000000000000000000000001101000 4
0"4
0/
0":
#311
1q
1"4
1"&
1!
1h
1/
1E
1X
1i
1n
10
1":
#316
00
0i
b00000000000000000000000001101100 4
0"&
0!
0X
0h
0n
b00000000111011110000111100010011 ~
0E
0q
0"4
0/
0":
#321
1q
1"4
1"&
1!
1h
1/
1E
1X
1i
1n
10
1":
#326
00
0i
0"&
0!
0X
0h
b00000000000000000000000001110000 4
0n
0E
0q
b00000001110011110000111100010011 ~
0"4
0/
0":
#331
1q
1"4
1"&
1!
1h
1/
1E
1X
1i
1n
10
1":
#336
00
0i
0"&
0!
0X
0h
0n
0E
b00000011100011110000111100010011 ~
0q
0"4
0/
0":
b00000000000000000000000001110100 4
#341
1q
1"4
1"&
1!
1h
1/
1E
1X
1i
1n
10
1":
#346
00
0i
0"&
0!
0X
0h
0n
0E
0q
b00000000000000000000000001111000 4
b00001000010111110000111100010011 ~
0"4
0/
0":
#351
1q
1"4
1"&
1!
1h
1/
1E
1X
1i
1n
10
1":
#356
00
0i
0"&
0!
0X
0h
b00000000000000000000000001111100 4
b00010000001011110000111100010011 ~
0n
0E
0q
0"4
0/
0":
#361
1q
1"4
1"&
1!
1h
1/
1E
1X
1i
1n
10
1":
#366
00
0i
0"&
0!
0X
0h
b00000000000000000000000010000000 4
0n
0E
0q
0"4
b00011111111111110000111100010011 ~
0/
0":
#371
1q
1"4
1"&
1!
1h
1/
1E
1X
1i
1n
10
1":
#376
00
0i
0"&
0!
0X
0h
b11111111111111110000111100010011 ~
0n
b00000000000000000000000010000100 4
0E
0q
0"4
0/
0":
#381
1q
1"4
1"&
1!
1h
1/
1E
1X
1i
1n
10
1":
#386
00
0i
0"&
0!
0X
0h
0n
0E
0q
b00000000000000000000000010001000 4
0"4
b11111111110111110000111100010011 ~
0/
0":
#391
1q
1"4
1"&
1!
1h
1/
1E
1X
1i
1n
10
1":
#396
b11111111011111110000111100010011 ~
00
0i
0"&
0!
0X
0h
0n
0E
b00000000000000000000000010001100 4
0q
0"4
0/
0":
#401
1q
1"4
1"&
1!
1h
1/
1E
1X
1i
1n
10
1":
#406
00
0i
0"&
0!
0X
0h
0n
0E
b00000000000000000000000010010000 4
0q
b11111001111011110000111100010011 ~
0"4
0/
0":
#411
1q
1"4
1"&
1!
1h
1/
1E
1X
1i
1n
10
1":
#416
00
0i
0"&
0!
0X
0h
b00000000000000000000000010010100 4
0n
0E
b11110001100111110000111100010011 ~
0q
0"4
0/
0":
#421
1q
1"4
1"&
1!
1h
1/
1E
1X
1i
1n
10
1":
#426
00
0i
0"&
0!
0X
0h
0n
b11100000001011110000111100010011 ~
0E
0q
0"4
b00000000000000000000000010011000 4
0/
0":
#431
1q
1"4
1"&
1!
1h
1/
1E
1X
1i
1n
10
1":
#436
00
0i
0"&
0!
0X
0h
b00000000000000000000000010011100 4
0n
0E
0q
b00000000000000000000000000010011 ~
0"4
0/
0":
#441
1q
1"4
1"&
1!
1h
1/
1E
1X
1i
1n
10
1":
#446
00
b01110 O
1"
b01110 L
0i
1%
1b
b01110 j
b01110 k
17
0E
b01110 y
b00000000000000000000000000000000 ~
12
0/
1<
0":
1@
b01110 N
0"&
0!
1#
0X
0h
b01110 M
1C
0n
1*
b00000000000000000000111111111100 4
b01110 a
1""
b01110 w
b01110 m
0q
1e
b01110 .
0"4
#451
1q
1"4
1"&
1/
1E
1i
b01110 S
10
1":
1!
1h
1(
1X
1n
#456
b01010 .
b01010 N
00
b01010 L
0i
0"&
0!
0X
0h
b01010 w
0n
b01010 y
b01010 a
0E
b01010 m
b01010 O
0q
b01010 M
b01010 j
0"4
0/
b01010 k
0":
#461
1q
1"4
1"&
1!
1h
1/
1E
1X
1i
b01010 S
1n
10
1":
#466
b10001 L
00
b10001 .
0i
0"&
0!
0X
0h
0n
b10001 N
0E
b10001 m
b10001 k
0q
b10001 w
b10001 j
b10001 O
0"4
0/
b10001 M
b10001 y
b10001 a
0":
#471
1q
1"4
1"&
b10001 S
1!
1h
1/
1X
1E
1i
1n
10
1":
#476
b00000 a
00
0i
0"&
0!
0b
0X
0h
b00000 m
b00000 y
b00000 k
b00000 N
0n
b00000 j
0E
0#
0q
b00000 O
b00000 .
b00000 L
b00000 M
0"4
0/
b00000 w
0":
0e
#481
1q
1"4
1"&
1/
1E
1i
0(
10
b00000 S
1":
1!
1h
1X
1n
#486
00
0i
1b
0"&
0!
1#
0X
0h
b00100 j
b00100 .
0n
b00100 k
b00100 M
b00100 m
0E
b00100 w
b00100 O
0q
b00100 y
b00100 a
1e
b00100 N
0"4
b00100 L
0/
0":
#491
1q
1"4
1"&
1/
1E
1i
10
b00100 S
1":
1!
1h
1(
1X
1n
#496
b11000 M
b11000 y
b11000 j
00
0i
b11000 a
b11000 O
0"&
0!
b11000 k
0X
0h
b11000 L
b11000 w
b11000 N
b11000 .
0n
0E
0q
b11000 m
0"4
0/
0":
#501
1q
1"4
1"&
1!
b11000 S
1h
1/
1X
1E
1i
1n
10
1":
#506
00
b00110 N
b00110 m
0i
b00110 k
0"&
0!
0X
0h
b00110 y
b00110 L
b00110 a
0n
b00110 M
b00110 O
0E
b00110 .
0q
b00110 w
0"4
b00110 j
0/
0":
#511
1q
1"4
1"&
1!
1h
1/
b00110 S
1X
1E
1i
1n
10
1":
#516
00
0i
0"&
0!
b10100 j
0X
0h
b10100 k
b10100 O
0n
b10100 .
0E
b10100 N
b10100 M
b10100 w
0q
b10100 m
b10100 a
0"4
0/
b10100 y
b10100 L
0":
#521
1q
1"4
1"&
1!
1h
1/
1E
1X
1i
1n
10
b10100 S
1":
#526
b00111 k
00
b00111 .
b00111 m
0i
0"&
0!
b00111 w
0X
0h
b00111 L
0n
0E
b00111 y
0q
b00111 M
b00111 O
0"4
0/
b00111 a
b00111 N
0":
b00111 j
#531
1q
1"4
1"&
1!
1h
1/
1E
1X
1i
1n
10
b00111 S
1":
#536
b00001 N
00
0i
b00001 .
0"&
0!
0X
0h
b00001 y
b00001 L
b00001 w
0n
b00001 O
b00001 M
0E
b00001 j
0q
b00001 k
0"4
0/
b00001 a
0":
b00001 m
#541
1q
1"4
1"&
1!
1h
1/
1E
1X
1i
1n
10
1":
b00001 S
#546
b11011 L
b11011 m
00
0i
b11011 O
0"&
0!
0X
0h
b11011 w
0n
b11011 y
b11011 .
0E
b11011 a
b11011 j
0q
b11011 k
b11011 M
0"4
b11011 N
0/
0":
#551
1q
1"4
1"&
b11011 S
1!
1h
1/
1X
1E
1i
1n
10
1":
#556
00
b01101 N
0i
0"&
0!
0X
0h
b01101 m
0n
b01101 O
b01101 j
b01101 L
0E
b01101 y
b01101 k
b01101 w
0q
b01101 .
b01101 a
0"4
0/
0":
b01101 M
#561
1q
1"4
1"&
1!
1h
1/
1E
1X
1i
1n
b01101 S
10
1":
#566
00
0i
0"&
0!
b01011 a
0X
0h
b01011 j
b01011 k
0n
b01011 w
b01011 O
0E
0q
b01011 y
b01011 M
b01011 L
b01011 m
0"4
0/
b01011 .
0":
b01011 N
#571
1q
1"4
1"&
1!
1h
1/
1E
1X
1i
1n
b01011 S
10
1":
#576
b01100 M
b01100 L
00
0i
0"&
0!
b01100 N
0X
0h
b01100 y
b01100 O
0n
0E
b01100 w
b01100 m
0q
b01100 .
b01100 j
b01100 k
0"4
0/
b01100 a
0":
#581
1q
1"4
1"&
1!
1h
1/
1E
1X
1i
1n
10
1":
b01100 S
#586
00
b00011 y
b00011 w
0i
b00011 j
0"&
0!
b00011 L
0X
0h
b00011 M
b00011 N
b00011 k
b00011 O
b00011 a
0n
0E
b00011 .
b00011 m
0q
0"4
0/
0":
#591
1q
1"4
1"&
1!
1h
1/
1E
1X
1i
1n
10
b00011 S
1":
#596
b00101 M
b00101 y
00
0i
b00101 w
b00101 O
0"&
0!
0X
0h
b00101 N
b00101 a
b00101 L
0n
b00101 .
0E
0q
b00101 j
b00101 k
0"4
0/
b00101 m
0":
#601
1q
1"4
1"&
1!
1h
1/
1E
1X
1i
1n
b00101 S
10
1":
#606
00
b10011 k
b10011 N
b10011 a
0i
b10011 L
b10011 m
0"&
0!
b10011 O
0X
0h
b10011 w
0n
0E
0q
b10011 M
0"4
0/
b10011 j
b10011 .
b10011 y
0":
#611
1q
1"4
1"&
1!
1h
1/
1E
1X
1i
1n
b10011 S
10
1":
#616
b10111 .
00
b10111 O
0i
0"&
0!
0X
0h
0n
b10111 L
0E
b10111 m
b10111 a
b10111 M
0q
b10111 y
b10111 w
0"4
b10111 N
0/
b10111 k
b10111 j
0":
#621
b10111 S
1q
1"4
1"&
1!
1h
1/
1X
1E
1i
1n
10
1":
#626
b01111 O
b01111 M
00
b01111 a
0i
b01111 m
b01111 w
0"&
0!
0X
0h
0n
b01111 j
0E
b01111 .
b01111 y
0q
b01111 k
b01111 L
0"4
0/
0":
b01111 N
#631
1q
1"4
1"&
1!
1h
1/
1E
1X
1i
1n
b01111 S
10
1":
#636
00
0i
0"&
0!
b01000 m
0X
0h
b01000 O
b01000 N
b01000 .
b01000 w
b01000 L
0n
0E
b01000 y
0q
b01000 j
b01000 a
b01000 M
b01000 k
0"4
0/
0":
#641
1q
1"4
1"&
1!
1h
1/
1E
1X
b01000 S
1i
1n
10
1":
#646
00
0i
b01001 M
0"&
0!
b01001 y
0X
0h
b01001 k
b01001 N
b01001 .
0n
b01001 m
b01001 O
0E
b01001 w
b01001 j
0q
b01001 a
b01001 L
0"4
0/
0":
#651
1q
1"4
1"&
1!
1h
b01001 S
1/
1X
1E
1i
1n
10
1":
#656
00
b10101 m
0i
b10101 a
0"&
0!
0X
0h
b10101 k
b10101 .
b10101 w
b10101 j
0n
b10101 L
0E
b10101 M
b10101 y
b10101 O
b10101 N
0q
0"4
0/
0":
#661
1q
1"4
1"&
1!
1h
1/
1E
1X
1i
1n
10
1":
b10101 S
#666
00
0i
b11100 y
0"&
0!
b11100 M
0X
0h
b11100 k
b11100 L
b11100 j
0n
b11100 N
b11100 .
b11100 O
0E
b11100 w
0q
b11100 a
0"4
0/
b11100 m
0":
#671
1q
1"4
1"&
1!
1h
1/
1E
1X
1i
1n
b11100 S
10
1":
#676
b10000 L
00
b10000 k
b10000 y
0i
0"&
0!
0X
0h
b10000 w
b10000 m
0n
b10000 N
0E
b10000 a
b10000 .
0q
b10000 j
b10000 M
b10000 O
0"4
0/
0":
#681
1q
1"4
1"&
1!
1h
1/
1E
1X
1i
1n
10
b10000 S
1":
#686
00
0i
0"&
0!
0X
0h
b10010 N
b10010 O
0n
b10010 .
b10010 j
b10010 w
0E
b10010 y
b10010 M
0q
b10010 k
b10010 a
b10010 m
b10010 L
0"4
0/
0":
#691
1q
1"4
1"&
1!
1h
1/
1E
1X
1i
1n
10
1":
b10010 S
#696
b11010 k
00
0i
0"&
0!
b11010 L
0X
0h
b11010 M
b11010 .
0n
b11010 O
b11010 j
0E
b11010 m
b11010 w
b11010 N
0q
b11010 y
b11010 a
0"4
0/
0":
#701
1q
1"4
1"&
1!
1h
1/
1E
1X
b11010 S
1i
1n
10
1":
#706
00
0i
0"&
0!
b11111 .
0X
0h
b11111 L
b11111 a
b11111 M
0n
b11111 m
b11111 k
0E
b11111 y
0q
b11111 N
b11111 j
0"4
b11111 O
0/
b11111 w
0":
#711
1q
b11111 S
1"4
1"&
1!
1h
1/
1X
1E
1i
1n
10
1":
#716
b00000000000000000000010000000000 H
00
b00010 k
0i
b00010 y
b00000000000000000000010000000000 ,
b00000000000000000000010000000000 "=
0E
b00010 a
b00000000000000000000010000000000 K
b00000000000000000000010000000000 "A
0/
b00000000000000000000010000000000 `
b00010 w
0":
b00010 O
b00010 .
b00000000000000000000010000000000 "8
0"&
0!
b00010 N
0X
0h
0n
0q
b00010 L
b00000000000000000000010000000000 _
b00010 j
b00000000000000000000010000000000 "5
0"4
b00010 m
b00010 M
#721
1q
1"4
1"&
1/
1E
1i
b00010 S
b00000000000000000000010000000000 "$
b00000000000000000000010000000000 P
10
1":
1!
1h
b00000000000000000000010000000000 =
1X
b00000000000000000000010000000000 ".
1n
b00000000000000000000010000000000 +
b00000000000000000000010000000000 1
#726
b00000000000000000000000000000000 "A
00
b11101 .
b00000000000000000000000000000000 P
0i
b11101 m
b11101 L
b00000000000000000000000000000000 "5
b11101 a
0E
b00000000000000000000000000000000 _
b00000000000000000000000000000000 `
b11101 y
0/
b00000000000000000000000000000000 H
b11101 j
0":
b00000000000000000000000000000000 K
b00000000000000000000000000000000 =
b11101 w
0"&
0!
0X
0h
b00000000000000000000000000000000 ".
0n
b00000000000000000000000000000000 "=
b11101 k
b11101 O
b00000000000000000000000000000000 ,
b00000000000000000000000000000000 1
0q
b11101 N
0"4
b00000000000000000000000000000000 "8
b00000000000000000000000000000000 +
b11101 M
#731
1q
1"4
1"&
1/
b00000000000000000000000000000000 "$
b11101 S
1E
1i
10
1":
1!
1h
1X
1n
#736
b11001 k
00
0i
b11001 L
0"&
0!
0X
0h
b11001 a
b11001 N
b11001 j
0n
b11001 O
b11001 w
0E
b11001 y
0q
b11001 .
b11001 M
b11001 m
0"4
0/
0":
#741
1q
1"4
1"&
1!
b11001 S
1h
1/
1X
1E
1i
1n
10
1":
#746
b10110 O
b10110 .
b10110 a
00
0i
0"&
0!
0X
0h
b10110 M
b10110 L
b10110 w
0n
b10110 k
0E
b10110 y
b10110 j
0q
b10110 N
0"4
0/
0":
b10110 m
#751
1q
1"4
1"&
1!
1h
1/
1E
1X
1i
1n
10
1":
b10110 S
#756
00
0i
b11110 y
b11110 M
0"&
0!
b11110 a
0X
0h
b11110 .
b11110 L
0n
b11110 w
0E
0q
b11110 O
b11110 j
b11110 N
b11110 k
0"4
b11110 m
0/
0":
#761
b11110 S
1q
1"4
1"&
1!
1h
1/
1X
1E
1i
1n
10
1":
#766
b00000 a
00
0i
b00000 y
0*
b00000 k
0@
0<
b00000 j
0E
0"
0#
b00000 .
0/
b00000 w
0":
0"&
0!
0b
0X
0h
b00000 m
02
b00000 N
0n
0C
07
0%
0q
b00000 O
b00000 L
b00000 M
0"4
0""
0e
#771
1q
1"4
1"&
1/
1E
1i
0(
10
b00000 S
1":
1!
1h
1X
1n
#776
0E
00
0i
0q
0"&
0!
0X
0h
0"4
0/
0n
0":
#781
1q
1"4
1"&
1!
1h
1/
1E
1X
1i
1n
10
1":
#786
0E
00
0i
0q
0"&
0!
0X
0h
0"4
0/
0n
0":
