waveforms/arith.s.vcd
$date
2021-12-01T09:31+0000
$end
$version
0.2
$end
$comment

$end
$timescale 1ns  $end
$scope module Tile $end
 $var wire 1 * io_regsWriteEnable $end
 $var wire 32 + io_regsReadData $end
 $var wire 32 4 io_IMEMAddress $end
 $var wire 1 < io_regsDeviceWriteEnable $end
 $var wire 32 I io_DMEMAddress $end
 $var wire 32 Z io_DMEMWriteData $end
 $var wire 1 ] CPU $end
 $var wire 32 _ io_regsDeviceWriteData $end
 $var wire 5 a io_regsDeviceWriteAddress $end
 $var wire 1 i clock $end
 $var wire 32 l io_currentPC $end
 $var wire 5 m io_regsAddress $end
 $var wire 1 u io_DMEMWriteEnable $end
 $var wire 32 v io_memDeviceWriteAddress $end
 $var wire 32 ~ io_IMEMWriteData $end
 $var wire 32 "! io_memDeviceWriteData $end
 $var wire 32 ") io_DMEMReadData $end
 $var wire 1 ", reset $end
 $var wire 1 "2 io_setup $end
 $var wire 1 "7 io_memDeviceWriteEnable $end
 $var wire 32 "A io_regsWriteData $end
  $scope module CPU.MEM $end
  $upscope $end
  $scope module CPU.ID.registers $end
  $upscope $end
  $scope module CPU.IF $end
  $upscope $end
  $scope module CPU.IF.IMEM $end
  $upscope $end
  $scope module CPU.MEM.DMEM $end
  $upscope $end
  $scope module CPU $end
   $var wire 1 2 testHarness_regUpdates_writeEnable $end
   $var wire 1 > ID $end
   $var wire 1 D testHarness_memUpdates_writeEnable $end
   $var wire 32 K testHarness_regUpdates_writeData $end
   $var wire 5 L testHarness_regUpdates_writeAddress $end
   $var wire 5 M testHarness_setupSignals_registerSignals_readAddress $end
   $var wire 32 P testHarness_testReadouts_registerRead $end
   $var wire 32 T testHarness_currentPC $end
   $var wire 1 W IF $end
   $var wire 32 [ testHarness_memUpdates_writeAddress $end
   $var wire 1 ^ testHarness_setupSignals_DMEMsignals_setup $end
   $var wire 32 d testHarness_testReadouts_DMEMread $end
   $var wire 32 f testHarness_setupSignals_DMEMsignals_dataIn $end
   $var wire 1 g testHarness_setupSignals_IMEMsignals_setup $end
   $var wire 1 q clock $end
   $var wire 32 s testHarness_setupSignals_DMEMsignals_dataAddress $end
   $var wire 1 x testHarness_setupSignals_registerSignals_setup $end
   $var wire 1 { MEM $end
   $var wire 1 "" testHarness_setupSignals_registerSignals_writeEnable $end
   $var wire 32 "6 testHarness_memUpdates_writeData $end
   $var wire 32 "= testHarness_setupSignals_registerSignals_writeData $end
   $var wire 1 "@ reset $end
   $var wire 1 "B testHarness_setupSignals_DMEMsignals_writeEnable $end
    $scope module MEM $end
     $var wire 1 8 DMEM $end
     $var wire 32 ; testHarness_testUpdates_writeAddress $end
     $var wire 32 U testHarness_DMEMsetup_dataAddress $end
     $var wire 1 p testHarness_testUpdates_writeEnable $end
     $var wire 1 z testHarness_DMEMsetup_writeEnable $end
     $var wire 32 } testHarness_DMEMpeek $end
     $var wire 1 "* testHarness_DMEMsetup_setup $end
     $var wire 32 "0 testHarness_testUpdates_writeData $end
     $var wire 1 "4 clock $end
     $var wire 32 "> testHarness_DMEMsetup_dataIn $end
      $scope module DMEM $end
       $var wire 32 & testHarness_testUpdates_writeData $end
       $var wire 1 ) _GEN_6 $end
       $var wire 12 - data__T_24_addr_pipe_0 $end
       $var wire 1 6 testHarness_testUpdates_writeEnable $end
       $var wire 32 : testHarness_setup_dataAddress $end
       $var wire 32 ? testHarness_testUpdates_writeAddress $end
       $var wire 32 F addressSource $end
       $var wire 32 J data $end
       $var wire 1 r testHarness_setup_writeEnable $end
       $var wire 1 t testHarness_setup_setup $end
       $var wire 1 "& clock $end
       $var wire 32 "+ testHarness_setup_dataIn $end
       $var wire 32 "9 io_dataOut $end
        $scope module data $end
          $scope module _T_26 $end
           $var wire 1 ! clk $end
           $var wire 12 B addr $end
           $var wire 32 G pipeline_data_0 $end
           $var wire 1 \ pipeline_valid_0 $end
           $var wire 32 c data $end
           $var wire 1 "# en $end
           $var wire 12 "' pipeline_addr_0 $end
           $var wire 1 "- valid $end
           $var wire 1 "< mask $end
          $upscope $end
          $scope module _T_24 $end
           $var wire 32 5 data $end
           $var wire 1 h clk $end
           $var wire 1 "% en $end
           $var wire 12 "( addr $end
          $upscope $end
        $upscope $end
      $upscope $end
    $upscope $end
    $scope module ID $end
     $var wire 1 " testHarness_registerSetup_writeEnable $end
     $var wire 32 = testHarness_registerPeek $end
     $var wire 1 C testHarness_testUpdates_writeEnable $end
     $var wire 32 H testHarness_registerSetup_writeData $end
     $var wire 5 N testHarness_testUpdates_writeAddress $end
     $var wire 5 k testHarness_registerSetup_readAddress $end
     $var wire 1 o registers $end
     $var wire 1 "3 testHarness_registerSetup_setup $end
     $var wire 32 "5 testHarness_testUpdates_writeData $end
     $var wire 1 ": clock $end
      $scope module registers $end
       $var wire 1 % testHarness_testUpdates_writeEnable $end
       $var wire 1 ' testHarness_setup_setup $end
       $var wire 32 , testHarness_testUpdates_writeData $end
       $var wire 5 . readAddress1 $end
       $var wire 1 0 clock $end
       $var wire 32 1 io_readData1 $end
       $var wire 32 3 registerFile $end
       $var wire 1 7 testHarness_setup_writeEnable $end
       $var wire 1 @ writeEnable $end
       $var wire 5 O testHarness_testUpdates_writeAddress $end
       $var wire 32 ` testHarness_setup_writeData $end
       $var wire 5 y testHarness_setup_readAddress $end
        $scope module registerFile $end
          $scope module _T_33 $end
           $var wire 1 # en $end
           $var wire 1 ( pipeline_valid_0 $end
           $var wire 1 / clk $end
           $var wire 5 S pipeline_addr_0 $end
           $var wire 1 V mask $end
           $var wire 1 e valid $end
           $var wire 5 w addr $end
           $var wire 32 "$ pipeline_data_0 $end
           $var wire 32 "8 data $end
          $upscope $end
          $scope module _T_41 $end
           $var wire 32 A data $end
           $var wire 1 R en $end
           $var wire 1 n clk $end
           $var wire 5 "1 addr $end
          $upscope $end
          $scope module _T_38 $end
           $var wire 1 E clk $end
           $var wire 1 b en $end
           $var wire 5 j addr $end
           $var wire 32 ". data $end
          $upscope $end
        $upscope $end
      $upscope $end
    $upscope $end
    $scope module IF $end
     $var wire 1 $ testHarness_IMEMsetup_setup $end
     $var wire 1 9 IMEM $end
     $var wire 32 Q PC $end
     $var wire 1 X clock $end
     $var wire 32 Y testHarness_PC $end
     $var wire 1 | reset $end
     $var wire 32 "? _GEN_0 $end
      $scope module IMEM $end
       $var wire 32 "/ testHarness_requestedAddress $end
       $var wire 32 "; io_instructionAddress $end
      $upscope $end
    $upscope $end
  $upscope $end
  $scope module CPU.ID $end
  $upscope $end
$upscope $end
$enddefinitions $end
$dumpvars
b00000000000000000000000000000000 Y
0C
0X
0""
1"<
0"7
b00000000000000000000000000000000 ">
0o
0R
b00000000000000000000000000000000 "8
b00000000000000000000000000000000 l
b00000000000000000000000000000000 :
b00000000000000000000000000000000 Q
b00000000000000000000000000000000 }
0g
b00000000000000000000000000000000 ".
b00000000000000000000000000000000 K
b00000000000000000000000000000000 `
b000000000000 "(
0"@
0D
0/
0"#
0x
0":
b00000 S
0z
0r
b00000000000000000000000000000000 s
1)
0]
b00000 j
0@
b00000000000000000000000000000000 A
0W
b00000000000000000000000000000000 ;
0%
b00000 O
b000000000000 -
b00000000000000000000000000000000 "=
b00000000000000000000000000000000 Z
0p
b00000000000000000000000000000000 T
b00000000000000000000000000000000 ?
0"2
0>
06
0!
b00000 .
b00000000000000000000000000000000 "9
0"4
b00000 y
b00000000000000000000000000000000 P
b00000000000000000000000000000000 3
0{
b00000000000000000000000000000000 "5
b00000000000000000000000000000000 J
b000000000000 "'
b00000000000000000000000000000000 "/
0"*
0b
0E
00
0(
b00000000000000000000000000000000 "+
b00000000000000000000000000000000 _
1V
0u
b00000000000000000000000000000000 [
b00000000000000000000000000000000 "6
b00000000000000000000000000000000 "!
0q
0i
b00000000000000000000000000000000 U
0"3
b00000 a
b00000 L
07
0"
09
0"-
0e
b00000000000000000000000000000000 f
b00000 "1
b00000000000000000000000000000000 I
b00000000000000000000000000000000 4
0|
b00000000000000000000000000000000 "0
b00000000000000000000000000000000 d
0"B
b00000000000000000000000000000000 G
b00000000000000000000000000000000 "A
b00000000000000000000000000000000 "$
b00000000000000000000000000000000 ,
b00000 M
0t
b00000000000000000000000000000000 ";
b00000000000000000000000000000000 &
0n
0<
0'
b00000000000000000000000000000000 =
b00000000000000000000000000000000 "?
b00000 w
08
0#
0",
02
b000000000000 B
b00000000000000000000000000000000 5
b00000000000000000000000000000000 ~
0h
b00000 m
b00000000000000000000000000000000 c
b00000000000000000000000000000000 ")
b00000000000000000000000000000000 F
b00000000000000000000000000000000 1
0\
b00000000000000000000000000000000 H
0"&
0*
b00000000000000000000000000000000 +
0^
b00000 k
1"%
0$
b00000 N
b00000000000000000000000000000000 v
$end
#0
1|
1",
1"@
#1
1":
1X
10
1E
1q
1h
1n
1"&
1/
1i
1!
1"4
#6
0h
0X
0"&
0"4
0!
00
0i
0E
0/
0q
0":
0n
#11
1":
1X
10
1E
1q
1h
1n
1"&
1/
1i
1!
1"4
#16
0h
0X
0"&
0"4
0!
00
0i
0E
0/
0q
0":
0n
#21
1":
1X
10
1E
1q
1h
1n
1"&
1/
1i
1!
1"4
#26
0h
0X
0"&
0"4
0!
00
0i
0E
0/
0q
0":
0n
#31
1":
1X
10
1E
1q
1h
1n
1"&
1/
1i
1!
1"4
#36
0h
0X
0"&
0"4
0!
00
0i
0E
0/
0q
0":
0n
#41
1":
1X
10
1E
1q
1h
1n
1"&
1/
1i
1!
1"4
#46
b00000000000100000000000010010011 ~
0h
0"&
0"4
0E
0q
0"@
1x
1t
0":
1'
0n
1"2
0X
1"*
0!
00
1^
0i
0/
1g
1"3
1$
0|
0",
#51
1":
1X
10
1E
1q
1h
1n
1"&
1/
1i
1!
1"4
#56
0h
0"&
0"4
0E
0q
0":
0n
b11111111111100000000000100010011 ~
0X
0!
00
0i
0/
b00000000000000000000000000000100 4
#61
1":
1X
10
1E
1q
1h
1n
1"&
1/
1i
1!
1"4
#66
0h
0"&
0"4
0E
0q
0":
0n
0X
0!
00
0i
0/
b00000000000000000000000000001000 4
b00000000001100000000000110010011 ~
#71
1":
1X
10
1E
1q
1h
1n
1"&
1/
1i
1!
1"4
#76
0h
0"&
0"4
0E
0q
0":
b00000000000000000000000000001100 4
b00000000011100000000001000010011 ~
0n
0X
0!
00
0i
0/
#81
1":
1X
10
1E
1q
1h
1n
1"&
1/
1i
1!
1"4
#86
0h
b00000000000000000000000000010000 4
0"&
0"4
0E
0q
0":
b00000000111000000000001010010011 ~
0n
0X
0!
00
0i
0/
#91
1":
1X
10
1E
1q
1h
1n
1"&
1/
1i
1!
1"4
#96
0h
0"&
0"4
b00000001110000000000001100010011 ~
0E
0q
0":
0n
0X
b00000000000000000000000000010100 4
0!
00
0i
0/
#101
1":
1X
10
1E
1q
1h
1n
1"&
1/
1i
1!
1"4
#106
b00000011100000000000001110010011 ~
0h
0"&
0"4
0E
0q
b00000000000000000000000000011000 4
0":
0n
0X
0!
00
0i
0/
#111
1":
1X
10
1E
1q
1h
1n
1"&
1/
1i
1!
1"4
#116
0h
0"&
0"4
0E
0q
0":
0n
0X
0!
00
b00000000000000000000000000011100 4
0i
0/
b00001000010100000000010000010011 ~
#121
1":
1X
10
1E
1q
1h
1n
1"&
1/
1i
1!
1"4
#126
0h
0"&
0"4
0E
0q
0":
0n
b00000000000000000000000000100000 4
0X
b00010000001000000000010010010011 ~
0!
00
0i
0/
#131
1":
1X
10
1E
1q
1h
1n
1"&
1/
1i
1!
1"4
#136
0h
0"&
0"4
0E
0q
0":
0n
b11110001100100001000010100010011 ~
0X
0!
00
0i
0/
b00000000000000000000000000100100 4
#141
1":
1X
10
1E
1q
1h
1n
1"&
1/
1i
1!
1"4
#146
b00000000000000000000000000101000 4
0h
0"&
0"4
b11100000001000001000010110010011 ~
0E
0q
0":
0n
0X
0!
00
0i
0/
#151
1":
1X
10
1E
1q
1h
1n
1"&
1/
1i
1!
1"4
#156
0h
0"&
0"4
b00000000000100001010011000110011 ~
0E
0q
0":
b00000000000000000000000000101100 4
0n
0X
0!
00
0i
0/
#161
1":
1X
10
1E
1q
1h
1n
1"&
1/
1i
1!
1"4
#166
0h
0"&
0"4
0E
0q
0":
b00000000000000000000000000110000 4
0n
0X
0!
00
0i
0/
b00000000001000001010011000110011 ~
#171
1":
1X
10
1E
1q
1h
1n
1"&
1/
1i
1!
1"4
#176
0h
0"&
0"4
0E
0q
0":
0n
0X
0!
00
0i
0/
b00000000001100001010011000110011 ~
b00000000000000000000000000110100 4
#181
1":
1X
10
1E
1q
1h
1n
1"&
1/
1i
1!
1"4
#186
0h
0"&
0"4
0E
0q
0":
b00000000000000000000000000111000 4
0n
0X
0!
00
0i
0/
b00000000000100010010011000110011 ~
#191
1":
1X
10
1E
1q
1h
1n
1"&
1/
1i
1!
1"4
#196
0h
0"&
0"4
0E
b00000000001000010010011000110011 ~
0q
0":
b00000000000000000000000000111100 4
0n
0X
0!
00
0i
0/
#201
1":
1X
10
1E
1q
1h
1n
1"&
1/
1i
1!
1"4
#206
0h
b00000000000000000000000001000000 4
0"&
0"4
0E
b00000000001100010010011000110011 ~
0q
0":
0n
0X
0!
00
0i
0/
#211
1":
1X
10
1E
1q
1h
1n
1"&
1/
1i
1!
1"4
#216
0h
0"&
0"4
0E
0q
0":
b00000000000000000000000001000100 4
0n
0X
0!
00
0i
0/
b00000000000100001011011000110011 ~
#221
1":
1X
10
1E
1q
1h
1n
1"&
1/
1i
1!
1"4
#226
0h
0"&
0"4
b00000000000000000000000001001000 4
0E
b00000000001000001011011000110011 ~
0q
0":
0n
0X
0!
00
0i
0/
#231
1":
1X
10
1E
1q
1h
1n
1"&
1/
1i
1!
1"4
#236
0h
0"&
0"4
0E
0q
0":
b00000000000000000000000001001100 4
b00000000001100001011011000110011 ~
0n
0X
0!
00
0i
0/
#241
1":
1X
10
1E
1q
1h
1n
1"&
1/
1i
1!
1"4
#246
0h
0"&
0"4
b00000000000100010011011000110011 ~
0E
0q
0":
0n
0X
0!
00
0i
0/
b00000000000000000000000001010000 4
#251
1":
1X
10
1E
1q
1h
1n
1"&
1/
1i
1!
1"4
#256
0h
0"&
0"4
b00000000000000000000000001010100 4
0E
0q
b00000000001000010011011000110011 ~
0":
0n
0X
0!
00
0i
0/
#261
1":
1X
10
1E
1q
1h
1n
1"&
1/
1i
1!
1"4
#266
0h
0"&
0"4
b00000000001100010011011000110011 ~
0E
0q
0":
0n
0X
0!
00
0i
0/
b00000000000000000000000001011000 4
#271
1":
1X
10
1E
1q
1h
1n
1"&
1/
1i
1!
1"4
#276
0h
0"&
0"4
b00000000000000000000000001011100 4
0E
0q
0":
0n
0X
0!
00
0i
0/
b00000000000100001001011100110011 ~
#281
1":
1X
10
1E
1q
1h
1n
1"&
1/
1i
1!
1"4
#286
0h
0"&
0"4
b00000000000000000000000001100000 4
0E
0q
0":
0n
b00000000001000001001011100110011 ~
0X
0!
00
0i
0/
#291
1":
1X
10
1E
1q
1h
1n
1"&
1/
1i
1!
1"4
#296
b00000000001100001001011100110011 ~
0h
0"&
0"4
b00000000000000000000000001100100 4
0E
0q
0":
0n
0X
0!
00
0i
0/
#301
1":
1X
10
1E
1q
1h
1n
1"&
1/
1i
1!
1"4
#306
0h
0"&
0"4
0E
0q
b00000000000000000000000001101000 4
0":
0n
0X
b00000000000100001101011100110011 ~
0!
00
0i
0/
#311
1":
1X
10
1E
1q
1h
1n
1"&
1/
1i
1!
1"4
#316
0h
0"&
0"4
0E
b00000000001000001101011100110011 ~
0q
0":
0n
0X
b00000000000000000000000001101100 4
0!
00
0i
0/
#321
1":
1X
10
1E
1q
1h
1n
1"&
1/
1i
1!
1"4
#326
0h
0"&
0"4
0E
0q
0":
0n
b00000000001100001101011100110011 ~
0X
0!
00
0i
0/
b00000000000000000000000001110000 4
#331
1":
1X
10
1E
1q
1h
1n
1"&
1/
1i
1!
1"4
#336
0h
b01000000000100001101011100110011 ~
0"&
0"4
0E
0q
0":
0n
0X
0!
00
b00000000000000000000000001110100 4
0i
0/
#341
1":
1X
10
1E
1q
1h
1n
1"&
1/
1i
1!
1"4
#346
0h
0"&
0"4
0E
0q
b01000000001000001101011100110011 ~
0":
0n
0X
0!
00
0i
0/
b00000000000000000000000001111000 4
#351
1":
1X
10
1E
1q
1h
1n
1"&
1/
1i
1!
1"4
#356
0h
0"&
0"4
0E
0q
0":
0n
0X
b01000000001100001101011100110011 ~
0!
00
0i
0/
b00000000000000000000000001111100 4
#361
1":
1X
10
1E
1q
1h
1n
1"&
1/
1i
1!
1"4
#366
0h
0"&
0"4
b00000000000000000000000010000000 4
0E
0q
0":
0n
0X
0!
00
0i
0/
b00000000100101000111011110110011 ~
#371
1":
1X
10
1E
1q
1h
1n
1"&
1/
1i
1!
1"4
#376
0h
0"&
0"4
b00000000101001001111011110110011 ~
0E
0q
0":
0n
0X
0!
00
0i
0/
b00000000000000000000000010000100 4
#381
1":
1X
10
1E
1q
1h
1n
1"&
1/
1i
1!
1"4
#386
0h
0"&
0"4
0E
0q
0":
b00000000100101000110011110110011 ~
0n
b00000000000000000000000010001000 4
0X
0!
00
0i
0/
#391
1":
1X
10
1E
1q
1h
1n
1"&
1/
1i
1!
1"4
#396
0h
0"&
0"4
0E
0q
0":
0n
0X
0!
b00000000000000000000000010001100 4
00
b00000000101001001110011110110011 ~
0i
0/
#401
1":
1X
10
1E
1q
1h
1n
1"&
1/
1i
1!
1"4
#406
0h
0"&
0"4
0E
0q
b00000000100101000100011110110011 ~
0":
0n
0X
0!
00
0i
0/
b00000000000000000000000010010000 4
#411
1":
1X
10
1E
1q
1h
1n
1"&
1/
1i
1!
1"4
#416
0h
b00000000101001001100011110110011 ~
0"&
0"4
b00000000000000000000000010010100 4
0E
0q
0":
0n
0X
0!
00
0i
0/
#421
1":
1X
10
1E
1q
1h
1n
1"&
1/
1i
1!
1"4
#426
0h
0"&
0"4
0E
0q
b00000000000000000000000010011000 4
0":
0n
0X
0!
00
0i
0/
b00000000010100001000100000110011 ~
#431
1":
1X
10
1E
1q
1h
1n
1"&
1/
1i
1!
1"4
#436
0h
0"&
0"4
0E
0q
0":
0n
b00000000011100010000100000110011 ~
0X
0!
00
0i
0/
b00000000000000000000000010011100 4
#441
1":
1X
10
1E
1q
1h
1n
1"&
1/
1i
1!
1"4
#446
0h
0"&
0"4
0E
b00000000011000011000100000110011 ~
b00000000000000000000000010100000 4
0q
0":
0n
0X
0!
00
0i
0/
#451
1":
1X
10
1E
1q
1h
1n
1"&
1/
1i
1!
1"4
#456
0h
0"&
0"4
0E
b00000000101000100000100000110011 ~
0q
0":
0n
0X
b00000000000000000000000010100100 4
0!
00
0i
0/
#461
1":
1X
10
1E
1q
1h
1n
1"&
1/
1i
1!
1"4
#466
0h
0"&
0"4
0E
0q
0":
0n
0X
0!
00
0i
0/
b00000000000000000000000010101000 4
b00000000111000101000100000110011 ~
#471
1":
1X
10
1E
1q
1h
1n
1"&
1/
1i
1!
1"4
#476
0h
0"&
0"4
0E
0q
b00000000000000000000000010101100 4
0":
b00000000111100110000100000110011 ~
0n
0X
0!
00
0i
0/
#481
1":
1X
10
1E
1q
1h
1n
1"&
1/
1i
1!
1"4
#486
0h
0"&
0"4
0E
0q
0":
0n
0X
0!
00
0i
0/
b00000000011100111000100000110011 ~
b00000000000000000000000010110000 4
#491
1":
1X
10
1E
1q
1h
1n
1"&
1/
1i
1!
1"4
#496
0h
b00000000000000000000000010110100 4
0"&
0"4
0E
0q
0":
0n
0X
0!
00
0i
0/
b00000000100101000000100000110011 ~
#501
1":
1X
10
1E
1q
1h
1n
1"&
1/
1i
1!
1"4
#506
0h
0"&
0"4
0E
0q
b00000000000101001000100000110011 ~
0":
0n
b00000000000000000000000010111000 4
0X
0!
00
0i
0/
#511
1":
1X
10
1E
1q
1h
1n
1"&
1/
1i
1!
1"4
#516
0h
0"&
0"4
0E
0q
0":
b00000000000000000000000010111100 4
0n
0X
0!
00
0i
0/
b00000000100001010000100000110011 ~
#521
1":
1X
10
1E
1q
1h
1n
1"&
1/
1i
1!
1"4
#526
0h
0"&
0"4
0E
0q
0":
0n
b00000000100101011000100000110011 ~
0X
0!
b00000000000000000000000011000000 4
00
0i
0/
#531
1":
1X
10
1E
1q
1h
1n
1"&
1/
1i
1!
1"4
#536
0h
0"&
0"4
0E
0q
0":
0n
b00000000101001100000100000110011 ~
b00000000000000000000000011000100 4
0X
0!
00
0i
0/
#541
1":
1X
10
1E
1q
1h
1n
1"&
1/
1i
1!
1"4
#546
0h
0"&
0"4
0E
0q
0":
0n
b00000000000000000000000000010011 ~
0X
0!
00
0i
0/
b00000000000000000000000011001000 4
#551
1":
1X
10
1E
1q
1h
1n
1"&
1/
1i
1!
1"4
#556
b01110 O
0"4
1*
b01110 j
0E
b01110 M
12
0q
1e
1<
0n
1"
1#
b00000000000000000000000000000000 ~
b01110 k
0!
b00000000000000000000111111111100 4
17
1""
b01110 .
b01110 w
0h
0"&
b01110 a
0":
b01110 L
1b
b01110 y
0X
1@
1%
00
0i
0/
b01110 m
b01110 N
1C
#561
10
1(
1n
1"&
1/
1!
1":
1X
1E
b01110 S
1q
1h
1i
1"4
#566
0h
0"&
0"4
0E
b01010 j
b01010 L
0q
b01010 m
0":
0n
b01010 a
b01010 M
0X
b01010 k
b01010 y
0!
00
0i
0/
b01010 O
b01010 N
b01010 .
b01010 w
#571
1":
1X
10
1E
1q
1h
1n
1"&
1/
1i
b01010 S
1!
1"4
#576
0h
0"&
0"4
b10001 k
b10001 N
0E
b10001 O
0q
0":
b10001 M
0n
b10001 a
b10001 .
0X
0!
b10001 m
00
b10001 L
0i
0/
b10001 w
b10001 j
b10001 y
#581
1":
1X
10
1E
1q
1h
1n
b10001 S
1"&
1/
1i
1!
1"4
#586
0h
0"&
0"4
b00000 L
b00000 k
b00000 y
b00000 j
0E
0q
0#
b00000 .
b00000 m
b00000 w
0":
b00000 M
0b
0n
0e
0X
0!
00
0i
0/
b00000 O
b00000 N
b00000 a
#591
0(
10
1n
1"&
1/
1!
1":
1X
1E
1q
b00000 S
1h
1i
1"4
#596
0h
0"&
0"4
b00100 L
0E
0q
b00100 N
b00100 m
0":
1e
1b
b00100 j
0n
b00100 a
1#
b00100 M
0X
0!
00
0i
0/
b00100 k
b00100 .
b00100 O
b00100 y
b00100 w
#601
10
1(
1n
b00100 S
1"&
1/
1!
1":
1X
1E
1q
1h
1i
1"4
#606
0h
0"&
0"4
0E
b11000 L
0q
0":
b11000 N
b11000 O
b11000 j
0n
b11000 M
b11000 a
0X
b11000 .
0!
00
0i
0/
b11000 y
b11000 w
b11000 k
b11000 m
#611
1":
1X
10
1E
1q
1h
1n
b11000 S
1"&
1/
1i
1!
1"4
#616
0h
b00110 .
0"&
0"4
0E
0q
b00110 N
b00110 L
0":
0n
b00110 w
b00110 k
0X
b00110 y
0!
b00110 j
00
b00110 M
0i
0/
b00110 m
b00110 O
b00110 a
#621
1":
1X
10
1E
1q
1h
b00110 S
1"&
1n
1/
1i
1!
1"4
#626
0h
b10100 L
0"&
0"4
b10100 j
0E
0q
0":
b10100 k
b10100 N
b10100 a
0n
b10100 .
0X
0!
b10100 m
00
0i
0/
b10100 M
b10100 y
b10100 w
b10100 O
#631
1":
1X
10
1E
1q
1h
1n
1"&
1/
1i
b10100 S
1!
1"4
#636
0h
b00111 N
0"&
0"4
0E
b00111 a
0q
b00111 w
0":
b00111 y
b00111 L
0n
b00111 m
b00111 O
0X
0!
b00111 M
00
b00111 k
0i
0/
b00111 .
b00111 j
#641
1":
1X
10
1E
1q
1h
1n
1"&
1/
1i
b00111 S
1!
1"4
#646
b00001 M
b00001 y
0h
b00001 m
0"&
0"4
b00001 k
0E
b00001 j
0q
0":
b00001 O
0n
b00001 a
0X
0!
b00001 .
00
0i
0/
b00001 w
b00001 N
b00001 L
#651
1"4
1":
1X
10
1E
1q
1h
1n
1"&
1/
1i
1!
b00001 S
#656
0h
b11011 m
0"&
0"4
b11011 O
0E
b11011 .
0q
b11011 L
0":
b11011 a
0n
b11011 M
b11011 y
b11011 w
0X
0!
b11011 j
00
b11011 N
0i
0/
b11011 k
#661
1"4
1":
1X
10
1E
1q
1h
1n
1"&
1/
1i
1!
b11011 S
#666
0h
0"&
0"4
b01101 y
b01101 L
0E
b01101 k
b01101 M
b01101 j
0q
0":
b01101 w
0n
0X
b01101 a
0!
00
b01101 .
0i
0/
b01101 O
b01101 N
b01101 m
#671
1":
1X
10
1E
1q
1h
1n
1"&
1/
1i
b01101 S
1!
1"4
#676
b01011 j
0h
0"&
0"4
0E
0q
b01011 O
b01011 m
b01011 M
0":
0n
b01011 L
b01011 N
b01011 w
0X
0!
00
b01011 k
0i
0/
b01011 a
b01011 .
b01011 y
#681
1":
1X
10
1E
1q
1h
1n
1"&
1/
1i
b01011 S
1!
1"4
#686
0h
0"&
0"4
b01100 m
b01100 a
0E
0q
b01100 k
b01100 j
b01100 M
0":
0n
b01100 y
b01100 O
0X
0!
b01100 w
00
0i
0/
b01100 N
b01100 L
b01100 .
#691
1":
1X
10
1E
1q
1h
1n
b01100 S
1"&
1/
1i
1!
1"4
#696
0h
0"&
0"4
b00011 a
b00011 m
b00011 k
0E
b00011 N
b00011 y
b00011 j
0q
0":
b00011 L
0n
b00011 .
0X
b00011 O
0!
00
0i
0/
b00011 w
b00011 M
#701
1":
1X
10
1E
1q
1h
1n
1"&
b00011 S
1/
1i
1!
1"4
#706
b00101 O
0h
0"&
0"4
b00101 y
0E
0q
b00101 m
0":
b00101 .
b00101 w
0n
b00101 L
b00101 k
0X
0!
00
0i
0/
b00101 M
b00101 N
b00101 a
b00101 j
#711
1":
1X
10
1E
1q
b00101 S
1h
1n
1"&
1/
1i
1!
1"4
#716
0h
b10011 .
0"&
0"4
b10011 k
0E
b10011 m
b10011 L
0q
0":
b10011 O
0n
b10011 y
0X
0!
b10011 N
00
b10011 M
0i
0/
b10011 j
b10011 a
b10011 w
#721
1":
1X
10
1E
1q
b10011 S
1h
1n
1"&
1/
1i
1!
1"4
#726
0h
b10111 N
0"&
0"4
b10111 M
b10111 m
b10111 k
0E
b10111 L
0q
b10111 .
0":
b10111 y
b10111 a
0n
0X
b10111 w
0!
00
0i
0/
b10111 j
b10111 O
#731
1":
1X
10
b10111 S
1E
1q
1h
1n
1"&
1/
1i
1!
1"4
#736
b01111 a
b01111 N
0h
0"&
0"4
0E
0q
b01111 y
0":
0n
b01111 O
0X
0!
00
b01111 k
0i
0/
b01111 w
b01111 L
b01111 m
b01111 M
b01111 j
b01111 .
#741
1":
1X
10
1E
1q
1h
b01111 S
1"&
1n
1/
1i
1!
1"4
#746
0h
b01000 j
0"&
0"4
0E
b01000 k
0q
b01000 O
b01000 .
0":
b01000 L
0n
b01000 M
b01000 y
0X
b01000 a
0!
b01000 m
00
b01000 w
0i
0/
b01000 N
#751
1":
1X
10
1E
1q
b01000 S
1h
1n
1"&
1/
1i
1!
1"4
#756
0h
b01001 O
0"&
0"4
b01001 j
0E
0q
0":
b01001 M
0n
b01001 k
0X
b01001 L
0!
b01001 y
00
0i
0/
b01001 .
b01001 m
b01001 N
b01001 w
b01001 a
#761
1":
1X
10
1E
1q
b01001 S
1h
1n
1"&
1/
1i
1!
1"4
#766
0h
0"&
0"4
b10101 L
b10101 .
b10101 y
b10101 j
0E
0q
b10101 m
0":
0n
b10101 k
0X
0!
00
0i
0/
b10101 N
b10101 w
b10101 O
b10101 a
b10101 M
#771
1":
b10101 S
1X
10
1E
1q
1h
1n
1"&
1/
1i
1!
1"4
#776
0h
0"&
0"4
0E
0q
b11100 m
0":
b11100 a
b11100 L
b11100 j
0n
b11100 k
0X
b11100 y
0!
00
0i
0/
b11100 O
b11100 w
b11100 .
b11100 N
b11100 M
#781
1":
1X
10
1E
1q
1h
b11100 S
1n
1"&
1/
1i
1!
1"4
#786
b10000 .
0h
0"&
0"4
b10000 y
0E
0q
b10000 w
0":
b10000 O
b10000 k
0n
b10000 m
b10000 L
b10000 j
0X
b10000 a
0!
b10000 M
00
0i
0/
b10000 N
#791
1":
1X
10
1E
1q
1h
1n
1"&
1/
1i
b10000 S
1!
1"4
#796
b10010 M
b10010 L
0h
0"&
0"4
0E
b10010 N
0q
b10010 k
0":
b10010 O
b10010 .
0n
b10010 m
b10010 j
0X
0!
00
b10010 y
0i
0/
b10010 w
b10010 a
#801
1":
1X
10
1E
b10010 S
1q
1h
1n
1"&
1/
1i
1!
1"4
#806
b11010 m
b11010 w
b11010 k
0h
0"&
0"4
0E
b11010 a
0q
0":
0n
b11010 L
b11010 .
0X
b11010 N
0!
b11010 y
00
b11010 j
0i
0/
b11010 M
b11010 O
#811
1":
1X
10
b11010 S
1E
1q
1h
1n
1"&
1/
1i
1!
1"4
#816
0h
0"&
0"4
b11111 y
b11111 N
b11111 a
0E
b11111 j
b11111 M
0q
b11111 O
b11111 w
0":
b11111 m
0n
0X
0!
00
b11111 k
0i
0/
b11111 L
b11111 .
#821
1":
1X
10
1E
1q
1h
b11111 S
1n
1"&
1/
1i
1!
1"4
#826
0"4
b00010 O
b00010 L
b00010 y
0E
0q
b00000000000000000000010000000000 "A
b00000000000000000000010000000000 _
b00010 m
b00000000000000000000010000000000 K
0n
b00010 .
0!
b00000000000000000000010000000000 `
b00000000000000000000010000000000 "8
b00010 w
b00010 a
0h
0"&
b00010 N
0":
b00000000000000000000010000000000 H
0X
b00010 k
00
b00010 j
0i
0/
b00000000000000000000010000000000 "5
b00000000000000000000010000000000 "=
b00010 M
b00000000000000000000010000000000 ,
