waveforms/arithImm.s.vcd
$date
2021-12-01T09:31+0000
$end
$version
0.2
$end
$comment

$end
$timescale 1ns  $end
$scope module Tile $end
 $var wire 1 * io_regsWriteEnable $end
 $var wire 32 + io_regsReadData $end
 $var wire 32 4 io_IMEMAddress $end
 $var wire 1 < io_regsDeviceWriteEnable $end
 $var wire 32 I io_DMEMAddress $end
 $var wire 32 Z io_DMEMWriteData $end
 $var wire 1 ] CPU $end
 $var wire 32 _ io_regsDeviceWriteData $end
 $var wire 5 a io_regsDeviceWriteAddress $end
 $var wire 1 i clock $end
 $var wire 32 l io_currentPC $end
 $var wire 5 m io_regsAddress $end
 $var wire 1 u io_DMEMWriteEnable $end
 $var wire 32 v io_memDeviceWriteAddress $end
 $var wire 32 ~ io_IMEMWriteData $end
 $var wire 32 "! io_memDeviceWriteData $end
 $var wire 32 ") io_DMEMReadData $end
 $var wire 1 ", reset $end
 $var wire 1 "2 io_setup $end
 $var wire 1 "7 io_memDeviceWriteEnable $end
 $var wire 32 "A io_regsWriteData $end
  $scope module CPU.MEM $end
  $upscope $end
  $scope module CPU.ID.registers $end
  $upscope $end
  $scope module CPU.IF $end
  $upscope $end
  $scope module CPU.IF.IMEM $end
  $upscope $end
  $scope module CPU.MEM.DMEM $end
  $upscope $end
  $scope module CPU $end
   $var wire 1 2 testHarness_regUpdates_writeEnable $end
   $var wire 1 > ID $end
   $var wire 1 D testHarness_memUpdates_writeEnable $end
   $var wire 32 K testHarness_regUpdates_writeData $end
   $var wire 5 L testHarness_regUpdates_writeAddress $end
   $var wire 5 M testHarness_setupSignals_registerSignals_readAddress $end
   $var wire 32 P testHarness_testReadouts_registerRead $end
   $var wire 32 T testHarness_currentPC $end
   $var wire 1 W IF $end
   $var wire 32 [ testHarness_memUpdates_writeAddress $end
   $var wire 1 ^ testHarness_setupSignals_DMEMsignals_setup $end
   $var wire 32 d testHarness_testReadouts_DMEMread $end
   $var wire 32 f testHarness_setupSignals_DMEMsignals_dataIn $end
   $var wire 1 g testHarness_setupSignals_IMEMsignals_setup $end
   $var wire 1 q clock $end
   $var wire 32 s testHarness_setupSignals_DMEMsignals_dataAddress $end
   $var wire 1 x testHarness_setupSignals_registerSignals_setup $end
   $var wire 1 { MEM $end
   $var wire 1 "" testHarness_setupSignals_registerSignals_writeEnable $end
   $var wire 32 "6 testHarness_memUpdates_writeData $end
   $var wire 32 "= testHarness_setupSignals_registerSignals_writeData $end
   $var wire 1 "@ reset $end
   $var wire 1 "B testHarness_setupSignals_DMEMsignals_writeEnable $end
    $scope module MEM $end
     $var wire 1 8 DMEM $end
     $var wire 32 ; testHarness_testUpdates_writeAddress $end
     $var wire 32 U testHarness_DMEMsetup_dataAddress $end
     $var wire 1 p testHarness_testUpdates_writeEnable $end
     $var wire 1 z testHarness_DMEMsetup_writeEnable $end
     $var wire 32 } testHarness_DMEMpeek $end
     $var wire 1 "* testHarness_DMEMsetup_setup $end
     $var wire 32 "0 testHarness_testUpdates_writeData $end
     $var wire 1 "4 clock $end
     $var wire 32 "> testHarness_DMEMsetup_dataIn $end
      $scope module DMEM $end
       $var wire 32 & testHarness_testUpdates_writeData $end
       $var wire 1 ) _GEN_6 $end
       $var wire 12 - data__T_24_addr_pipe_0 $end
       $var wire 1 6 testHarness_testUpdates_writeEnable $end
       $var wire 32 : testHarness_setup_dataAddress $end
       $var wire 32 ? testHarness_testUpdates_writeAddress $end
       $var wire 32 F addressSource $end
       $var wire 32 J data $end
       $var wire 1 r testHarness_setup_writeEnable $end
       $var wire 1 t testHarness_setup_setup $end
       $var wire 1 "& clock $end
       $var wire 32 "+ testHarness_setup_dataIn $end
       $var wire 32 "9 io_dataOut $end
        $scope module data $end
          $scope module _T_26 $end
           $var wire 1 ! clk $end
           $var wire 12 B addr $end
           $var wire 32 G pipeline_data_0 $end
           $var wire 1 \ pipeline_valid_0 $end
           $var wire 32 c data $end
           $var wire 1 "# en $end
           $var wire 12 "' pipeline_addr_0 $end
           $var wire 1 "- valid $end
           $var wire 1 "< mask $end
          $upscope $end
          $scope module _T_24 $end
           $var wire 32 5 data $end
           $var wire 1 h clk $end
           $var wire 1 "% en $end
           $var wire 12 "( addr $end
          $upscope $end
        $upscope $end
      $upscope $end
    $upscope $end
    $scope module ID $end
     $var wire 1 " testHarness_registerSetup_writeEnable $end
     $var wire 32 = testHarness_registerPeek $end
     $var wire 1 C testHarness_testUpdates_writeEnable $end
     $var wire 32 H testHarness_registerSetup_writeData $end
     $var wire 5 N testHarness_testUpdates_writeAddress $end
     $var wire 5 k testHarness_registerSetup_readAddress $end
     $var wire 1 o registers $end
     $var wire 1 "3 testHarness_registerSetup_setup $end
     $var wire 32 "5 testHarness_testUpdates_writeData $end
     $var wire 1 ": clock $end
      $scope module registers $end
       $var wire 1 % testHarness_testUpdates_writeEnable $end
       $var wire 1 ' testHarness_setup_setup $end
       $var wire 32 , testHarness_testUpdates_writeData $end
       $var wire 5 . readAddress1 $end
       $var wire 1 0 clock $end
       $var wire 32 1 io_readData1 $end
       $var wire 32 3 registerFile $end
       $var wire 1 7 testHarness_setup_writeEnable $end
       $var wire 1 @ writeEnable $end
       $var wire 5 O testHarness_testUpdates_writeAddress $end
       $var wire 32 ` testHarness_setup_writeData $end
       $var wire 5 y testHarness_setup_readAddress $end
        $scope module registerFile $end
          $scope module _T_33 $end
           $var wire 1 # en $end
           $var wire 1 ( pipeline_valid_0 $end
           $var wire 1 / clk $end
           $var wire 5 S pipeline_addr_0 $end
           $var wire 1 V mask $end
           $var wire 1 e valid $end
           $var wire 5 w addr $end
           $var wire 32 "$ pipeline_data_0 $end
           $var wire 32 "8 data $end
          $upscope $end
          $scope module _T_41 $end
           $var wire 32 A data $end
           $var wire 1 R en $end
           $var wire 1 n clk $end
           $var wire 5 "1 addr $end
          $upscope $end
          $scope module _T_38 $end
           $var wire 1 E clk $end
           $var wire 1 b en $end
           $var wire 5 j addr $end
           $var wire 32 ". data $end
          $upscope $end
        $upscope $end
      $upscope $end
    $upscope $end
    $scope module IF $end
     $var wire 1 $ testHarness_IMEMsetup_setup $end
     $var wire 1 9 IMEM $end
     $var wire 32 Q PC $end
     $var wire 1 X clock $end
     $var wire 32 Y testHarness_PC $end
     $var wire 1 | reset $end
     $var wire 32 "? _GEN_0 $end
      $scope module IMEM $end
       $var wire 32 "/ testHarness_requestedAddress $end
       $var wire 32 "; io_instructionAddress $end
      $upscope $end
    $upscope $end
  $upscope $end
  $scope module CPU.ID $end
  $upscope $end
$upscope $end
$enddefinitions $end
$dumpvars
0X
0C
0"7
1"<
0""
b00000000000000000000000000000000 Y
b00000000000000000000000000000000 ">
0o
0R
b00000000000000000000000000000000 "8
b00000000000000000000000000000000 l
b00000000000000000000000000000000 :
b00000000000000000000000000000000 Q
b00000000000000000000000000000000 }
0g
b00000000000000000000000000000000 ".
b00000000000000000000000000000000 K
b00000000000000000000000000000000 `
b000000000000 "(
0"@
0D
0/
0"#
0x
0":
b00000 S
0z
b00000000000000000000000000000000 s
0]
1)
0r
b00000 j
b00000000000000000000000000000000 A
0@
0W
b00000000000000000000000000000000 ;
b00000 O
0%
b000000000000 -
b00000000000000000000000000000000 "=
b00000000000000000000000000000000 Z
0p
b00000000000000000000000000000000 T
0>
b00000000000000000000000000000000 ?
0"2
06
0!
b00000 .
b00000000000000000000000000000000 "9
0"4
b00000 y
b00000000000000000000000000000000 P
b00000000000000000000000000000000 3
0{
b00000000000000000000000000000000 "5
b00000000000000000000000000000000 J
b000000000000 "'
b00000000000000000000000000000000 "/
0"*
0b
0E
00
0(
b00000000000000000000000000000000 "+
b00000000000000000000000000000000 _
1V
0u
b00000000000000000000000000000000 [
b00000000000000000000000000000000 "6
b00000000000000000000000000000000 "!
0q
0i
b00000000000000000000000000000000 U
0"3
b00000 a
07
b00000 L
0"
09
0"-
0e
b00000000000000000000000000000000 f
b00000 "1
b00000000000000000000000000000000 I
b00000000000000000000000000000000 4
0|
b00000000000000000000000000000000 "0
b00000000000000000000000000000000 d
0"B
b00000000000000000000000000000000 G
b00000000000000000000000000000000 "A
b00000000000000000000000000000000 "$
b00000000000000000000000000000000 ,
b00000 M
0t
b00000000000000000000000000000000 ";
b00000000000000000000000000000000 &
0n
0<
0'
b00000000000000000000000000000000 =
b00000000000000000000000000000000 "?
b00000 w
08
0#
0",
02
b000000000000 B
b00000000000000000000000000000000 5
b00000000000000000000000000000000 ~
0h
b00000 m
b00000000000000000000000000000000 c
b00000000000000000000000000000000 ")
b00000000000000000000000000000000 F
b00000000000000000000000000000000 1
0\
b00000000000000000000000000000000 H
0"&
b00000000000000000000000000000000 +
0*
0^
b00000 k
b00000 N
0$
1"%
b00000000000000000000000000000000 v
$end
#0
1|
1",
1"@
#1
1"4
1E
1":
1n
1h
1q
1"&
1/
1i
10
1!
1X
#6
0!
0"4
0n
0i
0":
0q
00
0E
0X
0/
0"&
0h
#11
1"4
1E
1":
1n
1h
1q
1"&
1/
1i
10
1!
1X
#16
0!
0"4
0n
0i
0":
0q
00
0E
0X
0/
0"&
0h
#21
1"4
1E
1":
1n
1h
1q
1"&
1/
1i
10
1!
1X
#26
0!
0"4
0n
0i
0":
0q
00
0E
0X
0/
0"&
0h
#31
1"4
1E
1":
1n
1h
1q
1"&
1/
1i
10
1!
1X
#36
0!
0"4
0n
0i
0":
0q
00
0E
0X
0/
0"&
0h
#41
1"4
1E
1":
1n
1h
1q
1"&
1/
1i
10
1!
1X
#46
0!
1x
0n
1"2
1'
0i
0":
0",
1"3
00
0E
0/
1^
0h
1g
1$
1"*
0"4
0|
0"@
0q
0X
1t
0"&
b00000000000100000000000010010011 ~
#51
1"4
1E
1":
1n
1h
1q
1"&
1/
1i
10
1!
1X
#56
0!
0n
0i
b11111111111100000000000100010011 ~
0":
00
0E
0/
0h
0"4
b00000000000000000000000000000100 4
0q
0X
0"&
#61
1"4
1E
1":
1n
1h
1q
1"&
1/
1i
10
1!
1X
#66
0!
0n
0i
0":
00
0E
0/
0h
b00000000001100000000000110010011 ~
0"4
0q
0X
0"&
b00000000000000000000000000001000 4
#71
1"4
1E
1":
1n
1h
1q
1"&
1/
1i
10
1!
1X
#76
0!
0n
0i
0":
00
0E
0/
b00000000000000000000000000001100 4
0h
0"4
b00000000011100000000001000010011 ~
0q
0X
0"&
#81
1"4
1E
1":
1n
1h
1q
1"&
1/
1i
10
1!
1X
#86
0!
0n
0i
0":
00
0E
0/
b00000000000000000000000000010000 4
0h
0"4
b00000000111000000000001010010011 ~
0q
0X
0"&
#91
1"4
1E
1":
1n
1h
1q
1"&
1/
1i
10
1!
1X
#96
0!
b00000000000000000000000000010100 4
0n
0i
0":
00
0E
0/
0h
b00000001110000000000001100010011 ~
0"4
0q
0X
0"&
#101
1"4
1E
1":
1n
1h
1q
1"&
1/
1i
10
1!
1X
#106
0!
0n
0i
0":
b00000011100000000000001110010011 ~
00
0E
0/
b00000000000000000000000000011000 4
0h
0"4
0q
0X
0"&
#111
1"4
1E
1":
1n
1h
1q
1"&
1/
1i
10
1!
1X
#116
0!
b00001000010100000000010000010011 ~
0n
b00000000000000000000000000011100 4
0i
0":
00
0E
0/
0h
0"4
0q
0X
0"&
#121
1"4
1E
1":
1n
1h
1q
1"&
1/
1i
10
1!
1X
#126
0!
b00000000000000000000000000100000 4
0n
0i
0":
b00010000001000000000010010010011 ~
00
0E
0/
0h
0"4
0q
0X
0"&
#131
1"4
1E
1":
1n
1h
1q
1"&
1/
1i
10
1!
1X
#136
0!
0n
0i
0":
00
0E
0/
0h
0"4
b11110001100100001000010100010011 ~
0q
0X
b00000000000000000000000000100100 4
0"&
#141
1"4
1E
1":
1n
1h
1q
1"&
1/
1i
10
1!
1X
#146
0!
b11100000001000001000010110010011 ~
0n
0i
0":
00
0E
0/
b00000000000000000000000000101000 4
0h
0"4
0q
0X
0"&
#151
1"4
1E
1":
1n
1h
1q
1"&
1/
1i
10
1!
1X
#156
0!
0n
0i
0":
00
0E
b00000000000000000000000000101100 4
0/
0h
0"4
b00000000000100001010011000010011 ~
0q
0X
0"&
#161
1"4
1E
1":
1n
1h
1q
1"&
1/
1i
10
1!
1X
#166
0!
0n
0i
0":
00
0E
0/
0h
0"4
b00000000000000000000000000110000 4
0q
b00000000101000001010011000010011 ~
0X
0"&
#171
1"4
1E
1":
1n
1h
1q
1"&
1/
1i
10
1!
1X
#176
0!
0n
0i
0":
00
0E
0/
b11111111011000001010011000010011 ~
0h
b00000000000000000000000000110100 4
0"4
0q
0X
0"&
#181
1"4
1E
1":
1n
1h
1q
1"&
1/
1i
10
1!
1X
#186
0!
0n
b00000000000100001011011010010011 ~
0i
0":
00
0E
0/
b00000000000000000000000000111000 4
0h
0"4
0q
0X
0"&
#191
1"4
1E
1":
1n
1h
1q
1"&
1/
1i
10
1!
1X
#196
0!
0n
0i
0":
b00000000101000001011011010010011 ~
00
0E
0/
0h
0"4
0q
b00000000000000000000000000111100 4
0X
0"&
#201
1"4
1E
1":
1n
1h
1q
1"&
1/
1i
10
1!
1X
#206
0!
0n
0i
0":
b11111111011000001011011010010011 ~
00
0E
0/
0h
0"4
0q
b00000000000000000000000001000000 4
0X
0"&
#211
1"4
1E
1":
1n
1h
1q
1"&
1/
1i
10
1!
1X
#216
0!
0n
0i
0":
00
0E
0/
0h
0"4
b00000000000000000000000001000100 4
0q
0X
0"&
b00000000000100010010011000010011 ~
#221
1"4
1E
1":
1n
1h
1q
1"&
1/
1i
10
1!
1X
#226
0!
0n
0i
b00000000101000010010011000010011 ~
0":
b00000000000000000000000001001000 4
00
0E
0/
0h
0"4
0q
0X
0"&
#231
1"4
1E
1":
1n
1h
1q
1"&
1/
1i
10
1!
1X
#236
b11111111011000010010011000010011 ~
0!
0n
0i
0":
b00000000000000000000000001001100 4
00
0E
0/
0h
0"4
0q
0X
0"&
#241
1"4
1E
1":
1n
1h
1q
1"&
1/
1i
10
1!
1X
#246
0!
0n
0i
b00000000000100010011011010010011 ~
0":
b00000000000000000000000001010000 4
00
0E
0/
0h
0"4
0q
0X
0"&
#251
1"4
1E
1":
1n
1h
1q
1"&
1/
1i
10
1!
1X
#256
0!
0n
0i
0":
00
0E
b00000000000000000000000001010100 4
0/
0h
0"4
b00000000101000010011011010010011 ~
0q
0X
0"&
#261
1"4
1E
1":
1n
1h
1q
1"&
1/
1i
10
1!
1X
#266
0!
0n
0i
0":
b11111111011000010011011010010011 ~
00
0E
0/
b00000000000000000000000001011000 4
0h
0"4
0q
0X
0"&
#271
1"4
1E
1":
1n
1h
1q
1"&
1/
1i
10
1!
1X
#276
0!
0n
0i
0":
b00000001000000001001011100010011 ~
00
0E
0/
0h
b00000000000000000000000001011100 4
0"4
0q
0X
0"&
#281
1"4
1E
1":
1n
1h
1q
1"&
1/
1i
10
1!
1X
#286
0!
b00000001000000010001011100010011 ~
0n
b00000000000000000000000001100000 4
0i
0":
00
0E
0/
0h
0"4
0q
0X
0"&
#291
1"4
1E
1":
1n
1h
1q
1"&
1/
1i
10
1!
1X
#296
0!
0n
b01000001000000001101011100010011 ~
0i
0":
b00000000000000000000000001100100 4
00
0E
0/
0h
0"4
0q
0X
0"&
#301
1"4
1E
1":
1n
1h
1q
1"&
1/
1i
10
1!
1X
#306
0!
0n
0i
0":
00
0E
b00000000000000000000000001101000 4
0/
0h
0"4
0q
b01000001000000010101011100010011 ~
0X
0"&
#311
1"4
1E
1":
1n
1h
1q
1"&
1/
1i
10
1!
1X
#316
0!
0n
0i
0":
00
0E
0/
0h
0"4
b00000000000000000000000001101100 4
0q
0X
0"&
b00000001000000001101011100010011 ~
#321
1"4
1E
1":
1n
1h
1q
1"&
1/
1i
10
1!
1X
#326
0!
0n
0i
0":
b00000000000000000000000001110000 4
00
0E
0/
0h
0"4
b00000001000000010101011100010011 ~
0q
0X
0"&
#331
1"4
1E
1":
1n
1h
1q
1"&
1/
1i
10
1!
1X
#336
0!
0n
0i
0":
b00000000000000000000000001110100 4
00
0E
0/
0h
0"4
b00000000001101000111011110010011 ~
0q
0X
0"&
#341
1"4
1E
1":
1n
1h
1q
1"&
1/
1i
10
1!
1X
#346
0!
0n
0i
0":
00
0E
0/
0h
b00000000000000000000000001111000 4
0"4
b11111111111101001111011110010011 ~
0q
0X
0"&
#351
1"4
1E
1":
1n
1h
1q
1"&
1/
1i
10
1!
1X
#356
0!
b00000000001101000110011110010011 ~
0n
0i
0":
b00000000000000000000000001111100 4
00
0E
0/
0h
0"4
0q
0X
0"&
#361
1"4
1E
1":
1n
1h
1q
1"&
1/
1i
10
1!
1X
#366
0!
b11111111111101001110011110010011 ~
0n
0i
0":
00
0E
0/
0h
0"4
0q
b00000000000000000000000010000000 4
0X
0"&
#371
1"4
1E
1":
1n
1h
1q
1"&
1/
1i
10
1!
1X
#376
0!
0n
0i
b00000000000000000000000010000100 4
0":
00
0E
0/
b00000000001101000100011110010011 ~
0h
0"4
0q
0X
0"&
#381
1"4
1E
1":
1n
1h
1q
1"&
1/
1i
10
1!
1X
#386
0!
0n
0i
0":
00
0E
0/
0h
b00000000000000000000000010001000 4
0"4
b11111111111101001100011110010011 ~
0q
0X
0"&
#391
1"4
1E
1":
1n
1h
1q
1"&
1/
1i
10
1!
1X
#396
0!
0n
0i
0":
00
0E
0/
0h
0"4
b00000000000000000000000010001100 4
0q
0X
0"&
b00000000000000000000000000010011 ~
#401
1"4
1E
1":
1n
1h
1q
1"&
1/
1i
10
1!
1X
#406
0!
1@
1"
b01110 m
b01110 .
0E
12
1#
0/
1""
1C
1%
b01110 M
1*
0q
b01110 k
0X
1e
b01110 L
1b
0n
b00000000000000000000111111111100 4
0i
0":
b01110 y
b01110 j
00
b01110 O
0h
b01110 w
17
0"4
1<
b01110 a
b00000000000000000000000000000000 ~
b01110 N
0"&
#411
1"4
1E
1n
1h
10
1!
1X
1":
1q
1"&
1/
1i
b01110 S
1(
#416
0!
b01010 a
0n
b01010 m
0i
0":
b01010 M
b01010 j
00
0E
b01010 L
0/
b01010 N
0h
b01010 .
0"4
b01010 k
b01010 y
b01010 O
b01010 w
0q
0X
0"&
#421
b01010 S
1"4
1E
1":
1n
1h
1q
1"&
1/
1i
10
1!
1X
#426
0!
0n
0i
0":
b10001 O
00
0E
0/
0h
b10001 M
b10001 y
0"4
b10001 L
b10001 a
b10001 k
b10001 .
0q
b10001 N
b10001 j
0X
b10001 w
0"&
b10001 m
#431
1"4
1E
1":
1n
1h
1q
1"&
1/
b10001 S
1i
10
1!
1X
#436
0!
b00000 L
0n
0#
0e
0i
0":
b00000 O
b00000 M
b00000 a
00
0E
b00000 N
0/
0h
b00000 w
0"4
b00000 .
0b
b00000 j
0q
b00000 m
b00000 k
b00000 y
0X
0"&
#441
1"4
1E
1n
1h
b00000 S
10
1!
1X
0(
1":
1q
1"&
1/
1i
#446
b00100 O
0!
b00100 N
b00100 w
1b
0n
b00100 y
b00100 a
b00100 j
0i
0":
b00100 .
00
0E
1#
b00100 m
0/
0h
b00100 k
0"4
b00100 L
b00100 M
0q
0X
0"&
1e
#451
1"4
1E
1n
b00100 S
1h
10
1!
1X
1":
1q
1"&
1/
1i
1(
#456
0!
0n
b11000 O
0i
b11000 k
0":
00
0E
0/
0h
b11000 .
0"4
b11000 M
b11000 N
b11000 m
b11000 L
b11000 w
0q
b11000 j
b11000 y
0X
0"&
b11000 a
#461
1"4
1E
1":
1n
1h
1q
1"&
1/
1i
10
b11000 S
1!
1X
#466
0!
0n
b00110 m
b00110 y
0i
0":
b00110 N
b00110 O
00
0E
0/
0h
b00110 M
b00110 a
0"4
b00110 j
b00110 w
0q
b00110 k
0X
0"&
b00110 L
b00110 .
#471
1"4
1E
1":
1n
1h
1q
1"&
b00110 S
1/
1i
10
1!
1X
#476
0!
0n
b10100 a
0i
b10100 y
0":
b10100 w
b10100 O
00
0E
b10100 j
b10100 L
0/
0h
b10100 m
b10100 M
0"4
b10100 k
0q
b10100 N
b10100 .
0X
0"&
#481
1"4
b10100 S
1E
1":
1n
1h
1q
1"&
1/
1i
10
1!
1X
#486
0!
b00111 j
b00111 k
0n
b00111 m
0i
0":
b00111 L
b00111 y
00
0E
b00111 O
0/
b00111 .
0h
0"4
b00111 w
0q
b00111 a
b00111 N
0X
0"&
b00111 M
#491
1"4
1E
1":
1n
1h
1q
1"&
b00111 S
1/
1i
10
1!
1X
#496
0!
b00001 O
b00001 L
b00001 y
0n
b00001 a
0i
0":
b00001 m
00
0E
0/
b00001 k
0h
b00001 w
0"4
b00001 M
b00001 N
0q
b00001 j
0X
0"&
b00001 .
#501
1"4
b00001 S
1E
1":
1n
1h
1q
1"&
1/
1i
10
1!
1X
#506
0!
b11011 k
b11011 w
b11011 M
b11011 .
0n
b11011 m
0i
0":
00
0E
0/
b11011 O
0h
0"4
b11011 L
b11011 N
b11011 j
0q
b11011 y
b11011 a
0X
0"&
#511
1"4
1E
1":
1n
1h
1q
1"&
1/
1i
10
1!
b11011 S
1X
#516
b01101 j
0!
b01101 k
0n
b01101 N
b01101 w
0i
0":
00
0E
0/
b01101 m
0h
b01101 y
b01101 M
b01101 L
b01101 .
0"4
b01101 a
0q
0X
0"&
b01101 O
#521
1"4
1E
b01101 S
1":
1n
1h
1q
1"&
1/
1i
10
1!
1X
#526
b01011 .
0!
b01011 w
0n
0i
0":
b01011 M
00
0E
b01011 j
0/
0h
b01011 a
b01011 y
0"4
b01011 m
b01011 L
0q
b01011 k
b01011 O
b01011 N
0X
0"&
#531
1"4
1E
b01011 S
1":
1n
1h
1q
1"&
1/
1i
10
1!
1X
#536
0!
0n
0i
b01100 m
0":
b01100 .
00
0E
b01100 M
b01100 N
0/
0h
b01100 k
0"4
b01100 O
b01100 a
b01100 j
b01100 y
0q
b01100 w
0X
0"&
b01100 L
#541
1"4
b01100 S
1E
1":
1n
1h
1q
1"&
1/
1i
10
1!
1X
#546
0!
b00011 a
0n
b00011 M
0i
b00011 m
0":
b00011 L
b00011 y
b00011 k
00
0E
0/
0h
b00011 .
0"4
b00011 j
b00011 O
b00011 w
0q
b00011 N
0X
0"&
#551
1"4
1E
1":
1n
1h
1q
1"&
1/
1i
10
1!
b00011 S
1X
#556
0!
b00101 L
b00101 m
0n
0i
0":
00
0E
0/
0h
0"4
b00101 k
b00101 a
b00101 w
0q
b00101 .
b00101 y
0X
b00101 N
0"&
b00101 M
b00101 O
b00101 j
#561
1"4
1E
b00101 S
1":
1n
1h
1q
1"&
1/
1i
10
1!
1X
#566
0!
b10011 w
0n
0i
0":
b10011 m
b10011 N
00
0E
0/
0h
b10011 M
b10011 k
b10011 L
0"4
b10011 O
b10011 a
b10011 j
0q
0X
b10011 .
0"&
b10011 y
#571
1"4
b10011 S
1E
1":
1n
1h
1q
1"&
1/
1i
10
1!
1X
#576
0!
b10111 k
b10111 O
0n
0i
b10111 a
0":
b10111 w
00
0E
b10111 j
0/
b10111 .
0h
b10111 m
b10111 y
0"4
b10111 M
b10111 N
0q
0X
0"&
b10111 L
#581
1"4
1E
1":
1n
1h
1q
1"&
1/
1i
10
b10111 S
1!
1X
#586
b01111 m
0!
b01111 N
0n
0i
b01111 y
b01111 k
b01111 a
0":
00
0E
0/
0h
0"4
0q
b01111 w
b01111 L
b01111 O
0X
b01111 .
0"&
b01111 j
b01111 M
#591
1"4
1E
1":
1n
1h
1q
1"&
1/
1i
b01111 S
10
1!
1X
#596
0!
b01000 w
b01000 .
0n
0i
0":
00
0E
b01000 O
0/
0h
b01000 k
b01000 a
0"4
b01000 M
b01000 N
0q
b01000 m
0X
0"&
b01000 y
b01000 j
b01000 L
#601
1"4
1X
1E
1":
1n
1h
1q
1"&
1/
1i
10
1!
b01000 S
#606
0!
b01001 N
b01001 w
b01001 O
0n
0i
b01001 .
0":
00
0E
0/
0h
b01001 m
0"4
b01001 a
b01001 M
b01001 j
b01001 k
0q
0X
0"&
b01001 y
b01001 L
#611
1"4
1E
1":
1n
1h
1q
b01001 S
1"&
1/
1i
10
1!
1X
#616
0!
b10101 j
0n
b10101 y
0i
b10101 k
0":
00
0E
0/
b10101 O
0h
b10101 m
0"4
b10101 .
b10101 M
b10101 w
b10101 a
0q
b10101 L
0X
0"&
b10101 N
#621
1"4
1E
b10101 S
1":
1n
1h
1q
1"&
1/
1i
10
1!
1X
#626
b11100 m
0!
0n
0i
0":
00
0E
b11100 O
0/
0h
b11100 a
b11100 y
b11100 w
0"4
b11100 j
b11100 .
b11100 M
b11100 L
0q
0X
0"&
b11100 k
b11100 N
#631
1"4
1E
1":
1n
b11100 S
1h
1q
1"&
1/
1i
10
1!
1X
#636
b10000 k
0!
0n
0i
0":
b10000 a
b10000 m
00
0E
b10000 .
0/
b10000 O
0h
b10000 y
0"4
b10000 N
b10000 L
b10000 j
b10000 w
0q
b10000 M
0X
0"&
#641
1"4
1E
1":
1n
1h
1q
1"&
1/
1i
b10000 S
10
1!
1X
#646
0!
b10010 M
b10010 a
0n
b10010 w
0i
0":
b10010 k
00
0E
b10010 m
0/
b10010 y
0h
b10010 L
0"4
0q
b10010 N
b10010 j
0X
0"&
b10010 O
b10010 .
#651
1"4
b10010 S
1E
1":
1n
1h
1q
1"&
1/
1i
10
1!
1X
#656
0!
0n
b11010 j
b11010 m
0i
0":
b11010 k
00
0E
0/
0h
b11010 M
0"4
b11010 O
b11010 a
b11010 .
b11010 N
b11010 y
0q
b11010 L
b11010 w
0X
0"&
#661
1"4
1E
1":
1n
1h
1q
b11010 S
1"&
1/
1i
10
1!
1X
#666
0!
b11111 k
0n
0i
0":
b11111 y
00
0E
0/
0h
b11111 .
b11111 m
b11111 O
b11111 j
0"4
b11111 L
b11111 w
0q
b11111 M
0X
0"&
b11111 N
b11111 a
#671
1"4
1E
1":
1n
1h
1q
1"&
b11111 S
1/
1i
10
1!
1X
#676
0!
b00010 N
b00010 w
0E
0/
b00010 k
b00010 M
b00010 j
b00010 y
b00000000000000000000010000000000 `
b00000000000000000000010000000000 K
b00010 m
0q
b00000000000000000000010000000000 H
0X
b00010 O
b00000000000000000000010000000000 "5
0n
b00000000000000000000010000000000 "=
b00000000000000000000010000000000 _
0i
0":
b00010 .
b00010 a
00
b00010 L
0h
b00000000000000000000010000000000 "8
0"4
b00000000000000000000010000000000 ,
0"&
b00000000000000000000010000000000 "A
#681
1"4
b00010 S
1E
1n
b00000000000000000000010000000000 1
b00000000000000000000010000000000 +
1h
b00000000000000000000010000000000 =
10
b00000000000000000000010000000000 P
1!
1X
b00000000000000000000010000000000 "$
1":
1q
1"&
1/
1i
b00000000000000000000010000000000 ".
#686
0!
b00000000000000000000000000000000 P
0E
b11101 k
0/
b00000000000000000000000000000000 "5
b11101 L
b11101 w
b11101 j
b00000000000000000000000000000000 ".
b11101 m
b00000000000000000000000000000000 K
0q
0X
0n
b00000000000000000000000000000000 _
0i
b00000000000000000000000000000000 H
0":
00
b11101 O
b00000000000000000000000000000000 1
b11101 y
b00000000000000000000000000000000 "8
b11101 N
0h
b00000000000000000000000000000000 `
0"4
b11101 .
b00000000000000000000000000000000 "A
b00000000000000000000000000000000 =
b00000000000000000000000000000000 "=
b11101 M
b00000000000000000000000000000000 ,
0"&
b00000000000000000000000000000000 +
b11101 a
#691
1"4
b11101 S
1E
1n
1h
10
1!
1X
1":
1q
1"&
1/
1i
b00000000000000000000000000000000 "$
#696
0!
b11001 y
0n
b11001 L
b11001 w
0i
0":
b11001 j
b11001 O
00
0E
b11001 k
0/
0h
b11001 .
b11001 a
0"4
b11001 M
b11001 m
b11001 N
0q
0X
0"&
#701
1"4
1E
1":
1n
1h
1q
1"&
1/
1i
10
1!
b11001 S
1X
#706
0!
b10110 w
0n
b10110 a
0i
b10110 j
0":
b10110 m
b10110 k
00
0E
0/
0h
0"4
b10110 .
b10110 M
b10110 y
0q
b10110 O
b10110 N
0X
0"&
b10110 L
#711
1"4
1E
b10110 S
1":
1n
1h
1q
1"&
1/
1i
10
1!
1X
#716
0!
b11110 w
0n
b11110 O
0i
b11110 .
0":
b11110 L
b11110 k
00
0E
b11110 j
0/
b11110 y
0h
0"4
b11110 m
b11110 M
0q
b11110 N
0X
0"&
b11110 a
#721
1"4
b11110 S
1E
1":
1n
1h
1q
1"&
1/
1i
10
1!
1X
#726
0!
0e
b00000 O
0""
b00000 M
b00000 a
b00000 N
0E
0%
0C
0/
02
0<
0q
b00000 m
0X
07
b00000 L
0n
0*
0#
0i
0":
00
0@
0h
b00000 w
0"4
b00000 .
0"
0b
b00000 j
b00000 k
b00000 y
0"&
#731
1"4
1E
1n
1h
b00000 S
10
1!
1X
0(
1":
1q
1"&
1/
1i
#736
0!
0"4
0n
0i
0":
0q
00
0E
0X
0/
0"&
0h
#741
1"4
1E
1":
1n
1h
1q
1"&
1/
1i
10
1!
1X
#746
0!
0"4
0n
0i
0":
0q
00
0E
0X
0/
0"&
0h
#751
1"4
1E
1":
1n
1h
1q
1"&
1/
1i
10
1!
1X
#756
0!
0"4
0n
0i
0":
0q
00
0E
0X
0/
0"&
0h
#761
1"4
1E
1":
1n
1h
1q
1"&
1/
1i
10
1!
1X
#766
0!
0"4
0n
0i
0":
0q
00
0E
0X
0/
0"&
0h
#771
1"4
1E
1":
1n
1h
1q
1"&
1/
1i
10
1!
1X
#776
0!
0"4
0n
0i
0":
0q
00
0E
0X
0/
0"&
0h
#781
1"4
1E
1":
1n
1h
1q
1"&
1/
1i
10
1!
1X
#786
0^
0!
0$
0n
0"3
0i
0g
0":
0"2
0'
00
0E
0x
0/
0h
0"*
0"4
0t
0q
0X
0"&
