waveforms/branchProfiling.s.vcd
$date
2021-12-01T09:31+0000
$end
$version
0.2
$end
$comment

$end
$timescale 1ns  $end
$scope module Tile $end
 $var wire 1 * io_regsWriteEnable $end
 $var wire 32 + io_regsReadData $end
 $var wire 32 4 io_IMEMAddress $end
 $var wire 1 < io_regsDeviceWriteEnable $end
 $var wire 32 I io_DMEMAddress $end
 $var wire 32 Z io_DMEMWriteData $end
 $var wire 1 ] CPU $end
 $var wire 32 _ io_regsDeviceWriteData $end
 $var wire 5 a io_regsDeviceWriteAddress $end
 $var wire 1 i clock $end
 $var wire 32 l io_currentPC $end
 $var wire 5 m io_regsAddress $end
 $var wire 1 u io_DMEMWriteEnable $end
 $var wire 32 v io_memDeviceWriteAddress $end
 $var wire 32 ~ io_IMEMWriteData $end
 $var wire 32 "! io_memDeviceWriteData $end
 $var wire 32 ") io_DMEMReadData $end
 $var wire 1 ", reset $end
 $var wire 1 "2 io_setup $end
 $var wire 1 "7 io_memDeviceWriteEnable $end
 $var wire 32 "A io_regsWriteData $end
  $scope module CPU.MEM $end
  $upscope $end
  $scope module CPU.ID.registers $end
  $upscope $end
  $scope module CPU.IF $end
  $upscope $end
  $scope module CPU.IF.IMEM $end
  $upscope $end
  $scope module CPU.MEM.DMEM $end
  $upscope $end
  $scope module CPU $end
   $var wire 1 2 testHarness_regUpdates_writeEnable $end
   $var wire 1 > ID $end
   $var wire 1 D testHarness_memUpdates_writeEnable $end
   $var wire 32 K testHarness_regUpdates_writeData $end
   $var wire 5 L testHarness_regUpdates_writeAddress $end
   $var wire 5 M testHarness_setupSignals_registerSignals_readAddress $end
   $var wire 32 P testHarness_testReadouts_registerRead $end
   $var wire 32 T testHarness_currentPC $end
   $var wire 1 W IF $end
   $var wire 32 [ testHarness_memUpdates_writeAddress $end
   $var wire 1 ^ testHarness_setupSignals_DMEMsignals_setup $end
   $var wire 32 d testHarness_testReadouts_DMEMread $end
   $var wire 32 f testHarness_setupSignals_DMEMsignals_dataIn $end
   $var wire 1 g testHarness_setupSignals_IMEMsignals_setup $end
   $var wire 1 q clock $end
   $var wire 32 s testHarness_setupSignals_DMEMsignals_dataAddress $end
   $var wire 1 x testHarness_setupSignals_registerSignals_setup $end
   $var wire 1 { MEM $end
   $var wire 1 "" testHarness_setupSignals_registerSignals_writeEnable $end
   $var wire 32 "6 testHarness_memUpdates_writeData $end
   $var wire 32 "= testHarness_setupSignals_registerSignals_writeData $end
   $var wire 1 "@ reset $end
   $var wire 1 "B testHarness_setupSignals_DMEMsignals_writeEnable $end
    $scope module MEM $end
     $var wire 1 8 DMEM $end
     $var wire 32 ; testHarness_testUpdates_writeAddress $end
     $var wire 32 U testHarness_DMEMsetup_dataAddress $end
     $var wire 1 p testHarness_testUpdates_writeEnable $end
     $var wire 1 z testHarness_DMEMsetup_writeEnable $end
     $var wire 32 } testHarness_DMEMpeek $end
     $var wire 1 "* testHarness_DMEMsetup_setup $end
     $var wire 32 "0 testHarness_testUpdates_writeData $end
     $var wire 1 "4 clock $end
     $var wire 32 "> testHarness_DMEMsetup_dataIn $end
      $scope module DMEM $end
       $var wire 32 & testHarness_testUpdates_writeData $end
       $var wire 1 ) _GEN_6 $end
       $var wire 12 - data__T_24_addr_pipe_0 $end
       $var wire 1 6 testHarness_testUpdates_writeEnable $end
       $var wire 32 : testHarness_setup_dataAddress $end
       $var wire 32 ? testHarness_testUpdates_writeAddress $end
       $var wire 32 F addressSource $end
       $var wire 32 J data $end
       $var wire 1 r testHarness_setup_writeEnable $end
       $var wire 1 t testHarness_setup_setup $end
       $var wire 1 "& clock $end
       $var wire 32 "+ testHarness_setup_dataIn $end
       $var wire 32 "9 io_dataOut $end
        $scope module data $end
          $scope module _T_26 $end
           $var wire 1 ! clk $end
           $var wire 12 B addr $end
           $var wire 32 G pipeline_data_0 $end
           $var wire 1 \ pipeline_valid_0 $end
           $var wire 32 c data $end
           $var wire 1 "# en $end
           $var wire 12 "' pipeline_addr_0 $end
           $var wire 1 "- valid $end
           $var wire 1 "< mask $end
          $upscope $end
          $scope module _T_24 $end
           $var wire 32 5 data $end
           $var wire 1 h clk $end
           $var wire 1 "% en $end
           $var wire 12 "( addr $end
          $upscope $end
        $upscope $end
      $upscope $end
    $upscope $end
    $scope module ID $end
     $var wire 1 " testHarness_registerSetup_writeEnable $end
     $var wire 32 = testHarness_registerPeek $end
     $var wire 1 C testHarness_testUpdates_writeEnable $end
     $var wire 32 H testHarness_registerSetup_writeData $end
     $var wire 5 N testHarness_testUpdates_writeAddress $end
     $var wire 5 k testHarness_registerSetup_readAddress $end
     $var wire 1 o registers $end
     $var wire 1 "3 testHarness_registerSetup_setup $end
     $var wire 32 "5 testHarness_testUpdates_writeData $end
     $var wire 1 ": clock $end
      $scope module registers $end
       $var wire 1 % testHarness_testUpdates_writeEnable $end
       $var wire 1 ' testHarness_setup_setup $end
       $var wire 32 , testHarness_testUpdates_writeData $end
       $var wire 5 . readAddress1 $end
       $var wire 1 0 clock $end
       $var wire 32 1 io_readData1 $end
       $var wire 32 3 registerFile $end
       $var wire 1 7 testHarness_setup_writeEnable $end
       $var wire 1 @ writeEnable $end
       $var wire 5 O testHarness_testUpdates_writeAddress $end
       $var wire 32 ` testHarness_setup_writeData $end
       $var wire 5 y testHarness_setup_readAddress $end
        $scope module registerFile $end
          $scope module _T_33 $end
           $var wire 1 # en $end
           $var wire 1 ( pipeline_valid_0 $end
           $var wire 1 / clk $end
           $var wire 5 S pipeline_addr_0 $end
           $var wire 1 V mask $end
           $var wire 1 e valid $end
           $var wire 5 w addr $end
           $var wire 32 "$ pipeline_data_0 $end
           $var wire 32 "8 data $end
          $upscope $end
          $scope module _T_41 $end
           $var wire 32 A data $end
           $var wire 1 R en $end
           $var wire 1 n clk $end
           $var wire 5 "1 addr $end
          $upscope $end
          $scope module _T_38 $end
           $var wire 1 E clk $end
           $var wire 1 b en $end
           $var wire 5 j addr $end
           $var wire 32 ". data $end
          $upscope $end
        $upscope $end
      $upscope $end
    $upscope $end
    $scope module IF $end
     $var wire 1 $ testHarness_IMEMsetup_setup $end
     $var wire 1 9 IMEM $end
     $var wire 32 Q PC $end
     $var wire 1 X clock $end
     $var wire 32 Y testHarness_PC $end
     $var wire 1 | reset $end
     $var wire 32 "? _GEN_0 $end
      $scope module IMEM $end
       $var wire 32 "/ testHarness_requestedAddress $end
       $var wire 32 "; io_instructionAddress $end
      $upscope $end
    $upscope $end
  $upscope $end
  $scope module CPU.ID $end
  $upscope $end
$upscope $end
$enddefinitions $end
$dumpvars
b00000000000000000000000000000000 Y
0C
0"7
0""
1"<
0X
b00000000000000000000000000000000 ">
0o
0R
b00000000000000000000000000000000 "8
b00000000000000000000000000000000 l
b00000000000000000000000000000000 :
b00000000000000000000000000000000 Q
b00000000000000000000000000000000 }
0g
b00000000000000000000000000000000 ".
b00000000000000000000000000000000 K
b00000000000000000000000000000000 `
b000000000000 "(
0"@
0D
0/
0"#
0x
0":
b00000 S
0z
0r
0]
1)
b00000000000000000000000000000000 s
b00000 j
0@
b00000000000000000000000000000000 A
0W
b00000 O
0%
b00000000000000000000000000000000 ;
b000000000000 -
b00000000000000000000000000000000 "=
b00000000000000000000000000000000 Z
0p
b00000000000000000000000000000000 T
0>
b00000000000000000000000000000000 ?
0"2
06
0!
b00000 .
b00000000000000000000000000000000 "9
0"4
b00000 y
b00000000000000000000000000000000 P
b00000000000000000000000000000000 3
0{
b00000000000000000000000000000000 "5
b00000000000000000000000000000000 J
b000000000000 "'
b00000000000000000000000000000000 "/
0"*
0b
0E
00
0(
b00000000000000000000000000000000 "+
b00000000000000000000000000000000 _
1V
0u
b00000000000000000000000000000000 [
b00000000000000000000000000000000 "6
b00000000000000000000000000000000 "!
0q
0i
b00000000000000000000000000000000 U
0"3
b00000 a
b00000 L
0"
07
09
0"-
b00000000000000000000000000000000 f
0e
b00000 "1
b00000000000000000000000000000000 I
b00000000000000000000000000000000 4
0|
b00000000000000000000000000000000 "0
b00000000000000000000000000000000 d
0"B
b00000000000000000000000000000000 G
b00000000000000000000000000000000 "A
b00000000000000000000000000000000 "$
b00000000000000000000000000000000 ,
b00000 M
0t
b00000000000000000000000000000000 ";
b00000000000000000000000000000000 &
0n
b00000000000000000000000000000000 =
0<
0'
b00000000000000000000000000000000 "?
b00000 w
08
0#
0",
02
b000000000000 B
b00000000000000000000000000000000 5
b00000000000000000000000000000000 ~
0h
b00000 m
b00000000000000000000000000000000 c
b00000000000000000000000000000000 ")
b00000000000000000000000000000000 F
b00000000000000000000000000000000 1
0\
b00000000000000000000000000000000 H
0"&
b00000000000000000000000000000000 +
0*
0^
b00000 k
b00000 N
0$
1"%
b00000000000000000000000000000000 v
$end
#0
1"@
1|
1",
#1
1i
1X
1q
10
1n
1E
1/
1!
1"&
1":
1h
1"4
#6
0X
0i
0"4
0q
0/
0"&
0n
0":
0E
0!
00
0h
#11
1i
1X
1q
10
1n
1E
1/
1!
1"&
1":
1h
1"4
#16
0X
0i
0"4
0q
0/
0"&
0n
0":
0E
0!
00
0h
#21
1i
1X
1q
10
1n
1E
1/
1!
1"&
1":
1h
1"4
#26
0X
0i
0"4
0q
0/
0"&
0n
0":
0E
0!
00
0h
#31
1i
1X
1q
10
1n
1E
1/
1!
1"&
1":
1h
1"4
#36
0X
0i
0"4
0q
0/
0"&
0n
0":
0E
0!
00
0h
#41
1i
1X
1q
10
1n
1E
1/
1!
1"&
1":
1h
1"4
#46
0X
0i
0q
0|
0n
1$
0E
1^
1g
1"3
b11111111000000010000000100010011 ~
0"4
0/
0"&
1x
1"*
0":
0",
0!
1"2
00
1t
1'
0h
0"@
#51
1i
1X
1q
10
1n
1E
1/
1!
1"&
1":
1h
1"4
#56
0X
0i
0q
0n
b00000000000000000000000000000100 4
0E
b00000000000100010010011000100011 ~
0"4
0/
0"&
0":
0!
00
0h
#61
1i
1X
1q
10
1n
1E
1/
1!
1"&
1":
1h
1"4
#66
0X
0i
b00000000000000000000000000001000 4
0q
0n
0E
0"4
0/
0"&
b00011100000000000000000011101111 ~
0":
0!
00
0h
#71
1i
1X
1q
10
1n
1E
1/
1!
1"&
1":
1h
1"4
#76
0X
0i
b00000000000000000000000000001100 4
0q
0n
0E
b00000000110000010010000010000011 ~
0"4
0/
0"&
0":
0!
00
0h
#81
1i
1X
1q
10
1n
1E
1/
1!
1"&
1":
1h
1"4
#86
0X
0i
0q
0n
0E
0"4
b00000001000000010000000100010011 ~
0/
0"&
0":
b00000000000000000000000000010000 4
0!
00
0h
#91
1i
1X
1q
10
1n
1E
1/
1!
1"&
1":
1h
1"4
#96
0X
0i
0q
0n
0E
b00000000000000000000000000010100 4
0"4
0/
0"&
0":
0!
00
0h
b00000000000000001000000001100111 ~
#101
1i
1X
1q
10
1n
1E
1/
1!
1"&
1":
1h
1"4
#106
0X
0i
0q
0n
b00000000101101010101010001100011 ~
0E
0"4
0/
0"&
0":
0!
00
b00000000000000000000000000011000 4
0h
#111
1i
1X
1q
10
1n
1E
1/
1!
1"&
1":
1h
1"4
#116
0X
0i
0q
0n
0E
0"4
0/
0"&
0":
0!
00
0h
b00000000000000000000000000011100 4
b00000000000000001000000001100111 ~
#121
1i
1X
1q
10
1n
1E
1/
1!
1"&
1":
1h
1"4
#126
0X
0i
0q
0n
0E
b11111111000000010000000100010011 ~
0"4
0/
0"&
b00000000000000000000000000100000 4
0":
0!
00
0h
#131
1i
1X
1q
10
1n
1E
1/
1!
1"&
1":
1h
1"4
#136
0X
0i
0q
0n
0E
b00000000000100010010011000100011 ~
0"4
0/
0"&
0":
0!
00
0h
b00000000000000000000000000100100 4
#141
1i
1X
1q
10
1n
1E
1/
1!
1"&
1":
1h
1"4
#146
0X
0i
0q
0n
0E
b01000000101101010000010100110011 ~
0"4
0/
0"&
0":
0!
00
0h
b00000000000000000000000000101000 4
#151
1i
1X
1q
10
1n
1E
1/
1!
1"&
1":
1h
1"4
#156
0X
0i
0q
b00000000000000000000000000101100 4
0n
b11111110110111111111000011101111 ~
0E
0"4
0/
0"&
0":
0!
00
0h
#161
1i
1X
1q
10
1n
1E
1/
1!
1"&
1":
1h
1"4
#166
0X
0i
0q
0n
0E
b00000000000000000000000000110000 4
b00000000110000010010000010000011 ~
0"4
0/
0"&
0":
0!
00
0h
#171
1i
1X
1q
10
1n
1E
1/
1!
1"&
1":
1h
1"4
#176
0X
0i
0q
0n
0E
0"4
b00000001000000010000000100010011 ~
0/
0"&
b00000000000000000000000000110100 4
0":
0!
00
0h
#181
1i
1X
1q
10
1n
1E
1/
1!
1"&
1":
1h
1"4
#186
0X
0i
0q
0n
0E
b00000000000000000000000000111000 4
0"4
0/
0"&
0":
0!
00
0h
b00000000000000001000000001100111 ~
#191
1i
1X
1q
10
1n
1E
1/
1!
1"&
1":
1h
1"4
#196
0X
0i
0q
b00000000000000000000000000111100 4
0n
0E
b11111111000000010000000100010011 ~
0"4
0/
0"&
0":
0!
00
0h
#201
1i
1X
1q
10
1n
1E
1/
1!
1"&
1":
1h
1"4
#206
0X
0i
0q
b00000000000000000000000001000000 4
0n
0E
b00000000000100010010011000100011 ~
0"4
0/
0"&
0":
0!
00
0h
#211
1i
1X
1q
10
1n
1E
1/
1!
1"&
1":
1h
1"4
#216
0X
0i
0q
b00000000100000010010010000100011 ~
0n
0E
0"4
0/
0"&
0":
0!
00
b00000000000000000000000001000100 4
0h
#221
1i
1X
1q
10
1n
1E
1/
1!
1"&
1":
1h
1"4
#226
0X
0i
0q
b00000000100100010010001000100011 ~
0n
0E
b00000000000000000000000001001000 4
0"4
0/
0"&
0":
0!
00
0h
#231
1i
1X
1q
10
1n
1E
1/
1!
1"&
1":
1h
1"4
#236
0X
0i
0q
b00000000000000000000000001001100 4
0n
0E
b00000001001000010010000000100011 ~
0"4
0/
0"&
0":
0!
00
0h
#241
1i
1X
1q
10
1n
1E
1/
1!
1"&
1":
1h
1"4
#246
0X
0i
0q
b00000000000000000000010010010011 ~
0n
0E
b00000000000000000000000001010000 4
0"4
0/
0"&
0":
0!
00
0h
#251
1i
1X
1q
10
1n
1E
1/
1!
1"&
1":
1h
1"4
#256
b00000000000000000000000001010100 4
0X
0i
0q
0n
0E
0"4
0/
0"&
0":
b00001111000100000000100100010011 ~
0!
00
0h
#261
1i
1X
1q
10
1n
1E
1/
1!
1"&
1":
1h
1"4
#266
0X
0i
0q
b00000000000000000000000001011000 4
0n
0E
b00000000100000000000000001101111 ~
0"4
0/
0"&
0":
0!
00
0h
#271
1i
1X
1q
10
1n
1E
1/
1!
1"&
1":
1h
1"4
#276
0X
0i
0q
0n
0E
b00000000000000000000000001011100 4
b00000000000001000000010100110011 ~
0"4
0/
0"&
0":
0!
00
0h
#281
1i
1X
1q
10
1n
1E
1/
1!
1"&
1":
1h
1"4
#286
0X
0i
0q
b11111111111101010000010000010011 ~
0n
0E
b00000000000000000000000001100000 4
0"4
0/
0"&
0":
0!
00
0h
#291
1i
1X
1q
10
1n
1E
1/
1!
1"&
1":
1h
1"4
#296
0X
0i
0q
0n
0E
b00000000000000000000000001100100 4
b00000010101000000101000001100011 ~
0"4
0/
0"&
0":
0!
00
0h
#301
1i
1X
1q
10
1n
1E
1/
1!
1"&
1":
1h
1"4
#306
0X
0i
b00000001001001000000111001100011 ~
0q
0n
b00000000000000000000000001101000 4
0E
0"4
0/
0"&
0":
0!
00
0h
#311
1i
1X
1q
10
1n
1E
1/
1!
1"&
1":
1h
1"4
#316
0X
0i
0q
0n
0E
b00000000000000000000000001101100 4
0"4
0/
0"&
0":
0!
00
0h
b00000000101000000000010110010011 ~
#321
1i
1X
1q
10
1n
1E
1/
1!
1"&
1":
1h
1"4
#326
0X
0i
0q
0n
0E
b00000000000001000000010100110011 ~
0"4
b00000000000000000000000001110000 4
0/
0"&
0":
0!
00
0h
#331
1i
1X
1q
10
1n
1E
1/
1!
1"&
1":
1h
1"4
#336
0X
0i
0q
0n
0E
b00000000000000000000000001110100 4
0"4
0/
0"&
0":
b11111010010111111111000011101111 ~
0!
00
0h
#341
1i
1X
1q
10
1n
1E
1/
1!
1"&
1":
1h
1"4
#346
0X
0i
0q
b00000000000000000000000001111000 4
b11111110000001010001001011100011 ~
0n
0E
0"4
0/
0"&
0":
0!
00
0h
#351
1i
1X
1q
10
1n
1E
1/
1!
1"&
1":
1h
1"4
#356
0X
0i
0q
0n
0E
b00000000100001001000010010110011 ~
0"4
0/
0"&
0":
b00000000000000000000000001111100 4
0!
00
0h
#361
1i
1X
1q
10
1n
1E
1/
1!
1"&
1":
1h
1"4
#366
0X
0i
0q
0n
0E
b11111101110111111111000001101111 ~
0"4
0/
0"&
0":
0!
b00000000000000000000000010000000 4
00
0h
#371
1i
1X
1q
10
1n
1E
1/
1!
1"&
1":
1h
1"4
#376
0X
0i
b00000000000001001000010100110011 ~
0q
0n
0E
b00000000000000000000000010000100 4
0"4
0/
0"&
0":
0!
00
0h
#381
1i
1X
1q
10
1n
1E
1/
1!
1"&
1":
1h
1"4
#386
0X
0i
0q
0n
0E
b00000000110000010010000010000011 ~
b00000000000000000000000010001000 4
0"4
0/
0"&
0":
0!
00
0h
#391
1i
1X
1q
10
1n
1E
1/
1!
1"&
1":
1h
1"4
#396
0X
0i
0q
0n
0E
b00000000100000010010010000000011 ~
0"4
b00000000000000000000000010001100 4
0/
0"&
0":
0!
00
0h
#401
1i
1X
1q
10
1n
1E
1/
1!
1"&
1":
1h
1"4
#406
0X
0i
0q
b00000000000000000000000010010000 4
0n
0E
b00000000010000010010010010000011 ~
0"4
0/
0"&
0":
0!
00
0h
#411
1i
1X
1q
10
1n
1E
1/
1!
1"&
1":
1h
1"4
#416
0X
0i
0q
b00000000000000010010100100000011 ~
0n
0E
0"4
0/
0"&
b00000000000000000000000010010100 4
0":
0!
00
0h
#421
1i
1X
1q
10
1n
1E
1/
1!
1"&
1":
1h
1"4
#426
0X
0i
0q
0n
0E
b00000000000000000000000010011000 4
0"4
b00000001000000010000000100010011 ~
0/
0"&
0":
0!
00
0h
#431
1i
1X
1q
10
1n
1E
1/
1!
1"&
1":
1h
1"4
#436
0X
0i
0q
0n
0E
b00000000000000000000000010011100 4
0"4
0/
0"&
0":
0!
00
0h
b00000000000000001000000001100111 ~
#441
1i
1X
1q
10
1n
1E
1/
1!
1"&
1":
1h
1"4
#446
b00000000000000000000000010100000 4
0X
0i
0q
0n
0E
b11111110000000010000000100010011 ~
0"4
0/
0"&
0":
0!
00
0h
#451
1i
1X
1q
10
1n
1E
1/
1!
1"&
1":
1h
1"4
#456
0X
0i
0q
0n
0E
0"4
b00000000000100010010111000100011 ~
0/
0"&
0":
0!
00
b00000000000000000000000010100100 4
0h
#461
1i
1X
1q
10
1n
1E
1/
1!
1"&
1":
1h
1"4
#466
0X
0i
0q
b00000000100000010010110000100011 ~
0n
0E
b00000000000000000000000010101000 4
0"4
0/
0"&
0":
0!
00
0h
#471
1i
1X
1q
10
1n
1E
1/
1!
1"&
1":
1h
1"4
#476
0X
0i
0q
0n
0E
b00000000100100010010101000100011 ~
0"4
0/
0"&
0":
b00000000000000000000000010101100 4
0!
00
0h
#481
1i
1X
1q
10
1n
1E
1/
1!
1"&
1":
1h
1"4
#486
0X
0i
0q
b00000000000000000000000010110000 4
0n
0E
b00000001001000010010100000100011 ~
0"4
0/
0"&
0":
0!
00
0h
#491
1i
1X
1q
10
1n
1E
1/
1!
1"&
1":
1h
1"4
#496
0X
0i
0q
0n
0E
b00000001001100010010011000100011 ~
b00000000000000000000000010110100 4
0"4
0/
0"&
0":
0!
00
0h
#501
1i
1X
1q
10
1n
1E
1/
1!
1"&
1":
1h
1"4
#506
0X
0i
0q
0n
b00000000000000000000000010111000 4
0E
0"4
0/
0"&
0":
b00000001010000010010010000100011 ~
0!
00
0h
#511
1i
1X
1q
10
1n
1E
1/
1!
1"&
1":
1h
1"4
#516
b00000000000001010000100110110011 ~
0X
0i
b00000000000000000000000010111100 4
0q
0n
0E
0"4
0/
0"&
0":
0!
00
0h
#521
1i
1X
1q
10
1n
1E
1/
1!
1"&
1":
1h
1"4
#526
0X
0i
0q
0n
0E
0"4
0/
0"&
0":
0!
b00000000000000000000000011000000 4
00
0h
b00000000000000000000100100010011 ~
#531
1i
1X
1q
10
1n
1E
1/
1!
1"&
1":
1h
1"4
#536
0X
0i
0q
0n
0E
b00000000000000000000010000010011 ~
0"4
b00000000000000000000000011000100 4
0/
0"&
0":
0!
00
0h
#541
1i
1X
1q
10
1n
1E
1/
1!
1"&
1":
1h
1"4
#546
0X
0i
0q
b00000000000000000000000011001000 4
0n
0E
0"4
0/
0"&
0":
b00000000001100000000101000010011 ~
0!
00
0h
#551
1i
1X
1q
10
1n
1E
1/
1!
1"&
1":
1h
1"4
#556
0X
0i
b00000000000000000000000011001100 4
0q
0n
0E
b01000000100010011000010100110011 ~
0"4
0/
0"&
0":
0!
00
0h
#561
1i
1X
1q
10
1n
1E
1/
1!
1"&
1":
1h
1"4
#566
0X
0i
0q
0n
b11110110110111111111000011101111 ~
0E
0"4
b00000000000000000000000011010000 4
0/
0"&
0":
0!
00
0h
#571
1i
1X
1q
10
1n
1E
1/
1!
1"&
1":
1h
1"4
#576
0X
0i
0q
0n
0E
0"4
b00000000000000000000000011010100 4
0/
0"&
0":
0!
00
b00000000000001010000010010110011 ~
0h
#581
1i
1X
1q
10
1n
1E
1/
1!
1"&
1":
1h
1"4
#586
0X
0i
0q
0n
0E
b00000001001101000000010100110011 ~
0"4
0/
0"&
0":
0!
00
0h
b00000000000000000000000011011000 4
#591
1i
1X
1q
10
1n
1E
1/
1!
1"&
1":
1h
1"4
#596
0X
0i
0q
0n
0E
b00000000000000000000000011011100 4
0"4
0/
0"&
0":
b11110110000111111111000011101111 ~
0!
00
0h
#601
1i
1X
1q
10
1n
1E
1/
1!
1"&
1":
1h
1"4
#606
0X
0i
0q
0n
b00000000101001001000010100110011 ~
0E
b00000000000000000000000011100000 4
0"4
0/
0"&
0":
0!
00
0h
#611
1i
1X
1q
10
1n
1E
1/
1!
1"&
1":
1h
1"4
#616
0X
0i
0q
0n
0E
b00000000101010010000100100110011 ~
b00000000000000000000000011100100 4
0"4
0/
0"&
0":
0!
00
0h
#621
1i
1X
1q
10
1n
1E
1/
1!
1"&
1":
1h
1"4
#626
0X
0i
0q
0n
0E
0"4
0/
0"&
0":
b00000000000000000000000011101000 4
0!
00
b00000000000101000000010000010011 ~
0h
#631
1i
1X
1q
10
1n
1E
1/
1!
1"&
1":
1h
1"4
#636
0X
0i
0q
0n
0E
b00000000000000000000000011101100 4
b11111111010001000001000011100011 ~
0"4
0/
0"&
0":
0!
00
0h
#641
1i
1X
1q
10
1n
1E
1/
1!
1"&
1":
1h
1"4
#646
b00000000000000000000000011110000 4
0X
0i
0q
0n
0E
0"4
0/
0"&
b00000000000010010000010100110011 ~
0":
0!
00
0h
#651
1i
1X
1q
10
1n
1E
1/
1!
1"&
1":
1h
1"4
#656
0X
0i
0q
b00000000000000000000000011110100 4
0n
0E
0"4
0/
0"&
0":
b00000001110000010010000010000011 ~
0!
00
0h
#661
1i
1X
1q
10
1n
1E
1/
1!
1"&
1":
1h
1"4
#666
0X
0i
0q
0n
0E
b00000001100000010010010000000011 ~
0"4
0/
0"&
0":
0!
00
b00000000000000000000000011111000 4
0h
#671
1i
1X
1q
10
1n
1E
1/
1!
1"&
1":
1h
1"4
#676
0X
0i
0q
0n
b00000000000000000000000011111100 4
0E
0"4
0/
0"&
b00000001010000010010010010000011 ~
0":
0!
00
0h
#681
1i
1X
1q
10
1n
1E
1/
1!
1"&
1":
1h
1"4
#686
0X
0i
0q
0n
0E
b00000001000000010010100100000011 ~
b00000000000000000000000100000000 4
0"4
0/
0"&
0":
0!
00
0h
#691
1i
1X
1q
10
1n
1E
1/
1!
1"&
1":
1h
1"4
#696
0X
0i
b00000000110000010010100110000011 ~
0q
0n
0E
b00000000000000000000000100000100 4
0"4
0/
0"&
0":
0!
00
0h
#701
1i
1X
1q
10
1n
1E
1/
1!
1"&
1":
1h
1"4
#706
0X
0i
0q
0n
0E
b00000000100000010010101000000011 ~
b00000000000000000000000100001000 4
0"4
0/
0"&
0":
0!
00
0h
#711
1i
1X
1q
10
1n
1E
1/
1!
1"&
1":
1h
1"4
#716
0X
0i
0q
b00000010000000010000000100010011 ~
0n
0E
0"4
b00000000000000000000000100001100 4
0/
0"&
0":
0!
00
0h
#721
1i
1X
1q
10
1n
1E
1/
1!
1"&
1":
1h
1"4
#726
0X
0i
0q
0n
b00000000000000000000000100010000 4
0E
0"4
0/
0"&
0":
0!
00
0h
b00000000000000001000000001100111 ~
#731
1i
1X
1q
10
1n
1E
1/
1!
1"&
1":
1h
1"4
#736
0X
0i
0q
0n
0E
b00000000000000000000000100010100 4
b11111111000000010000000100010011 ~
0"4
0/
0"&
0":
0!
00
0h
#741
1i
1X
1q
10
1n
1E
1/
1!
1"&
1":
1h
1"4
#746
0X
b00000000000000000000000100011000 4
0i
0q
0n
0E
b00000000000100010010011000100011 ~
0"4
0/
0"&
0":
0!
00
0h
#751
1i
1X
1q
10
1n
1E
1/
1!
1"&
1":
1h
1"4
#756
0X
0i
0q
b00000000100000010010010000100011 ~
0n
0E
0"4
0/
0"&
0":
b00000000000000000000000100011100 4
0!
00
0h
#761
1i
1X
1q
10
1n
1E
1/
1!
1"&
1":
1h
1"4
#766
0X
0i
0q
b00000000100100010010001000100011 ~
0n
0E
0"4
0/
0"&
0":
0!
00
0h
b00000000000000000000000100100000 4
#771
1i
1X
1q
10
1n
1E
1/
1!
1"&
1":
1h
1"4
#776
0X
0i
b00000000000001010000010000110011 ~
0q
0n
0E
0"4
0/
0"&
b00000000000000000000000100100100 4
0":
0!
00
0h
#781
1i
1X
1q
10
1n
1E
1/
1!
1"&
1":
1h
1"4
#786
0X
0i
0q
0n
0E
0"4
b00000000000000000000000100101000 4
0/
0"&
0":
0!
00
0h
b00000000101000000000010110010011 ~
#791
1i
1X
1q
10
1n
1E
1/
1!
1"&
1":
1h
1"4
#796
0X
0i
0q
0n
0E
0"4
0/
0"&
0":
0!
00
0h
b00000000000000000000000100101100 4
b11101110110111111111000011101111 ~
#801
1i
1X
1q
10
1n
1E
1/
1!
1"&
1":
1h
1"4
#806
0X
0i
b00000000000000000000000100110000 4
b00000100000001010000000001100011 ~
0q
0n
0E
0"4
0/
0"&
0":
0!
00
0h
#811
1i
1X
1q
10
1n
1E
1/
1!
1"&
1":
1h
1"4
#816
0X
0i
0q
b00000001010000000000010110010011 ~
0n
0E
0"4
0/
0"&
0":
0!
00
b00000000000000000000000100110100 4
0h
#821
1i
1X
1q
10
1n
1E
1/
1!
1"&
1":
1h
1"4
#826
0X
0i
0q
0n
0E
b00000000000000000000000100111000 4
b00000000000001000000010100110011 ~
0"4
0/
0"&
0":
0!
00
0h
#831
1i
1X
1q
10
1n
1E
1/
1!
1"&
1":
1h
1"4
#836
0X
0i
0q
0n
0E
0"4
0/
0"&
b00000000000000000000000100111100 4
0":
0!
00
b11101101110111111111000011101111 ~
0h
#841
1i
1X
1q
10
1n
1E
1/
1!
1"&
1":
1h
1"4
#846
0X
0i
0q
0n
0E
0"4
b00000010000001010000111001100011 ~
0/
0"&
0":
b00000000000000000000000101000000 4
0!
00
0h
#851
1i
1X
1q
10
1n
1E
1/
1!
1"&
1":
1h
1"4
#856
0X
0i
0q
0n
0E
b00000000000001000000010100110011 ~
0"4
0/
0"&
0":
0!
b00000000000000000000000101000100 4
00
0h
#861
1i
1X
1q
10
1n
1E
1/
1!
1"&
1":
1h
1"4
#866
0X
0i
0q
0n
0E
0"4
0/
0"&
0":
0!
00
b11101111010111111111000011101111 ~
b00000000000000000000000101001000 4
0h
#871
1i
1X
1q
10
1n
1E
1/
1!
1"&
1":
1h
1"4
#876
0X
0i
0q
0n
0E
0"4
b00000000000000000000000101001100 4
0/
0"&
0":
0!
00
b00000000000001010000010010110011 ~
0h
#881
1i
1X
1q
10
1n
1E
1/
1!
1"&
1":
1h
1"4
#886
0X
0i
0q
0n
0E
b00000000000001000000010100110011 ~
0"4
0/
0"&
0":
b00000000000000000000000101010000 4
0!
00
0h
#891
1i
1X
1q
10
1n
1E
1/
1!
1"&
1":
1h
1"4
#896
0X
0i
0q
0n
0E
0"4
0/
0"&
b11110100110111111111000011101111 ~
0":
b00000000000000000000000101010100 4
0!
00
0h
#901
1i
1X
1q
10
1n
1E
1/
1!
1"&
1":
1h
1"4
#906
0X
0i
0q
0n
b00000000101001001000010100110011 ~
0E
b00000000000000000000000101011000 4
0"4
0/
0"&
0":
0!
00
0h
#911
1i
1X
1q
10
1n
1E
1/
1!
1"&
1":
1h
1"4
#916
0X
0i
0q
0n
0E
b00000000000000000000000101011100 4
b00000000110000010010000010000011 ~
0"4
0/
0"&
0":
0!
00
0h
#921
1i
1X
1q
10
1n
1E
1/
1!
1"&
1":
1h
1"4
#926
0X
0i
0q
0n
0E
b00000000100000010010010000000011 ~
b00000000000000000000000101100000 4
0"4
0/
0"&
0":
0!
00
0h
#931
1i
1X
1q
10
1n
1E
1/
1!
1"&
1":
1h
1"4
#936
0X
0i
0q
b00000000000000000000000101100100 4
0n
0E
b00000000010000010010010010000011 ~
0"4
0/
0"&
0":
0!
00
0h
#941
1i
1X
1q
10
1n
1E
1/
1!
1"&
1":
1h
1"4
#946
0X
0i
0q
0n
0E
0"4
b00000001000000010000000100010011 ~
0/
0"&
0":
0!
b00000000000000000000000101101000 4
00
0h
#951
1i
1X
1q
10
1n
1E
1/
1!
1"&
1":
1h
1"4
#956
0X
0i
0q
b00000000000000000000000101101100 4
0n
0E
0"4
0/
0"&
0":
0!
00
0h
b00000000000000001000000001100111 ~
