waveforms/BTreeManyO3.s.vcd
$date
2021-12-01T09:31+0000
$end
$version
0.2
$end
$comment

$end
$timescale 1ns  $end
$scope module Tile $end
 $var wire 1 * io_regsWriteEnable $end
 $var wire 32 + io_regsReadData $end
 $var wire 32 4 io_IMEMAddress $end
 $var wire 1 < io_regsDeviceWriteEnable $end
 $var wire 32 I io_DMEMAddress $end
 $var wire 32 Z io_DMEMWriteData $end
 $var wire 1 ] CPU $end
 $var wire 32 _ io_regsDeviceWriteData $end
 $var wire 5 a io_regsDeviceWriteAddress $end
 $var wire 1 i clock $end
 $var wire 32 l io_currentPC $end
 $var wire 5 m io_regsAddress $end
 $var wire 1 u io_DMEMWriteEnable $end
 $var wire 32 v io_memDeviceWriteAddress $end
 $var wire 32 ~ io_IMEMWriteData $end
 $var wire 32 "! io_memDeviceWriteData $end
 $var wire 32 ") io_DMEMReadData $end
 $var wire 1 ", reset $end
 $var wire 1 "2 io_setup $end
 $var wire 1 "7 io_memDeviceWriteEnable $end
 $var wire 32 "A io_regsWriteData $end
  $scope module CPU.MEM $end
  $upscope $end
  $scope module CPU.ID.registers $end
  $upscope $end
  $scope module CPU.IF $end
  $upscope $end
  $scope module CPU.IF.IMEM $end
  $upscope $end
  $scope module CPU.MEM.DMEM $end
  $upscope $end
  $scope module CPU $end
   $var wire 1 2 testHarness_regUpdates_writeEnable $end
   $var wire 1 > ID $end
   $var wire 1 D testHarness_memUpdates_writeEnable $end
   $var wire 32 K testHarness_regUpdates_writeData $end
   $var wire 5 L testHarness_regUpdates_writeAddress $end
   $var wire 5 M testHarness_setupSignals_registerSignals_readAddress $end
   $var wire 32 P testHarness_testReadouts_registerRead $end
   $var wire 32 T testHarness_currentPC $end
   $var wire 1 W IF $end
   $var wire 32 [ testHarness_memUpdates_writeAddress $end
   $var wire 1 ^ testHarness_setupSignals_DMEMsignals_setup $end
   $var wire 32 d testHarness_testReadouts_DMEMread $end
   $var wire 32 f testHarness_setupSignals_DMEMsignals_dataIn $end
   $var wire 1 g testHarness_setupSignals_IMEMsignals_setup $end
   $var wire 1 q clock $end
   $var wire 32 s testHarness_setupSignals_DMEMsignals_dataAddress $end
   $var wire 1 x testHarness_setupSignals_registerSignals_setup $end
   $var wire 1 { MEM $end
   $var wire 1 "" testHarness_setupSignals_registerSignals_writeEnable $end
   $var wire 32 "6 testHarness_memUpdates_writeData $end
   $var wire 32 "= testHarness_setupSignals_registerSignals_writeData $end
   $var wire 1 "@ reset $end
   $var wire 1 "B testHarness_setupSignals_DMEMsignals_writeEnable $end
    $scope module MEM $end
     $var wire 1 8 DMEM $end
     $var wire 32 ; testHarness_testUpdates_writeAddress $end
     $var wire 32 U testHarness_DMEMsetup_dataAddress $end
     $var wire 1 p testHarness_testUpdates_writeEnable $end
     $var wire 1 z testHarness_DMEMsetup_writeEnable $end
     $var wire 32 } testHarness_DMEMpeek $end
     $var wire 1 "* testHarness_DMEMsetup_setup $end
     $var wire 32 "0 testHarness_testUpdates_writeData $end
     $var wire 1 "4 clock $end
     $var wire 32 "> testHarness_DMEMsetup_dataIn $end
      $scope module DMEM $end
       $var wire 32 & testHarness_testUpdates_writeData $end
       $var wire 1 ) _GEN_6 $end
       $var wire 12 - data__T_24_addr_pipe_0 $end
       $var wire 1 6 testHarness_testUpdates_writeEnable $end
       $var wire 32 : testHarness_setup_dataAddress $end
       $var wire 32 ? testHarness_testUpdates_writeAddress $end
       $var wire 32 F addressSource $end
       $var wire 32 J data $end
       $var wire 1 r testHarness_setup_writeEnable $end
       $var wire 1 t testHarness_setup_setup $end
       $var wire 1 "& clock $end
       $var wire 32 "+ testHarness_setup_dataIn $end
       $var wire 32 "9 io_dataOut $end
        $scope module data $end
          $scope module _T_26 $end
           $var wire 1 ! clk $end
           $var wire 12 B addr $end
           $var wire 32 G pipeline_data_0 $end
           $var wire 1 \ pipeline_valid_0 $end
           $var wire 32 c data $end
           $var wire 1 "# en $end
           $var wire 12 "' pipeline_addr_0 $end
           $var wire 1 "- valid $end
           $var wire 1 "< mask $end
          $upscope $end
          $scope module _T_24 $end
           $var wire 32 5 data $end
           $var wire 1 h clk $end
           $var wire 1 "% en $end
           $var wire 12 "( addr $end
          $upscope $end
        $upscope $end
      $upscope $end
    $upscope $end
    $scope module ID $end
     $var wire 1 " testHarness_registerSetup_writeEnable $end
     $var wire 32 = testHarness_registerPeek $end
     $var wire 1 C testHarness_testUpdates_writeEnable $end
     $var wire 32 H testHarness_registerSetup_writeData $end
     $var wire 5 N testHarness_testUpdates_writeAddress $end
     $var wire 5 k testHarness_registerSetup_readAddress $end
     $var wire 1 o registers $end
     $var wire 1 "3 testHarness_registerSetup_setup $end
     $var wire 32 "5 testHarness_testUpdates_writeData $end
     $var wire 1 ": clock $end
      $scope module registers $end
       $var wire 1 % testHarness_testUpdates_writeEnable $end
       $var wire 1 ' testHarness_setup_setup $end
       $var wire 32 , testHarness_testUpdates_writeData $end
       $var wire 5 . readAddress1 $end
       $var wire 1 0 clock $end
       $var wire 32 1 io_readData1 $end
       $var wire 32 3 registerFile $end
       $var wire 1 7 testHarness_setup_writeEnable $end
       $var wire 1 @ writeEnable $end
       $var wire 5 O testHarness_testUpdates_writeAddress $end
       $var wire 32 ` testHarness_setup_writeData $end
       $var wire 5 y testHarness_setup_readAddress $end
        $scope module registerFile $end
          $scope module _T_33 $end
           $var wire 1 # en $end
           $var wire 1 ( pipeline_valid_0 $end
           $var wire 1 / clk $end
           $var wire 5 S pipeline_addr_0 $end
           $var wire 1 V mask $end
           $var wire 1 e valid $end
           $var wire 5 w addr $end
           $var wire 32 "$ pipeline_data_0 $end
           $var wire 32 "8 data $end
          $upscope $end
          $scope module _T_41 $end
           $var wire 32 A data $end
           $var wire 1 R en $end
           $var wire 1 n clk $end
           $var wire 5 "1 addr $end
          $upscope $end
          $scope module _T_38 $end
           $var wire 1 E clk $end
           $var wire 1 b en $end
           $var wire 5 j addr $end
           $var wire 32 ". data $end
          $upscope $end
        $upscope $end
      $upscope $end
    $upscope $end
    $scope module IF $end
     $var wire 1 $ testHarness_IMEMsetup_setup $end
     $var wire 1 9 IMEM $end
     $var wire 32 Q PC $end
     $var wire 1 X clock $end
     $var wire 32 Y testHarness_PC $end
     $var wire 1 | reset $end
     $var wire 32 "? _GEN_0 $end
      $scope module IMEM $end
       $var wire 32 "/ testHarness_requestedAddress $end
       $var wire 32 "; io_instructionAddress $end
      $upscope $end
    $upscope $end
  $upscope $end
  $scope module CPU.ID $end
  $upscope $end
$upscope $end
$enddefinitions $end
$dumpvars
b00000000000000000000000000000000 Y
0X
0"7
1"<
0""
0C
b00000000000000000000000000000000 ">
0o
0R
b00000000000000000000000000000000 "8
b00000000000000000000000000000000 l
b00000000000000000000000000000000 :
b00000000000000000000000000000000 Q
b00000000000000000000000000000000 }
0g
b00000000000000000000000000000000 ".
b00000000000000000000000000000000 K
b00000000000000000000000000000000 `
b000000000000 "(
0"@
0D
0/
0"#
0x
0":
b00000 S
0z
0r
b00000000000000000000000000000000 s
1)
0]
b00000 j
0@
b00000000000000000000000000000000 A
0W
b00000 O
b00000000000000000000000000000000 ;
0%
b000000000000 -
b00000000000000000000000000000000 "=
b00000000000000000000000000000000 Z
0p
b00000000000000000000000000000000 T
b00000000000000000000000000000000 ?
0"2
0>
06
0!
b00000 .
b00000000000000000000000000000000 "9
0"4
b00000 y
b00000000000000000000000000000000 P
b00000000000000000000000000000000 3
0{
b00000000000000000000000000000000 "5
b00000000000000000000000000000000 J
b000000000000 "'
b00000000000000000000000000000000 "/
0"*
0b
0E
00
0(
b00000000000000000000000000000000 "+
b00000000000000000000000000000000 _
0u
1V
b00000000000000000000000000000000 [
b00000000000000000000000000000000 "6
b00000000000000000000000000000000 "!
0q
0i
b00000000000000000000000000000000 U
0"3
b00000 a
07
b00000 L
0"
09
0"-
0e
b00000000000000000000000000000000 f
b00000 "1
b00000000000000000000000000000000 I
b00000000000000000000000000000000 4
0|
b00000000000000000000000000000000 "0
b00000000000000000000000000000000 d
0"B
b00000000000000000000000000000000 G
b00000000000000000000000000000000 "A
b00000000000000000000000000000000 "$
b00000000000000000000000000000000 ,
b00000 M
0t
b00000000000000000000000000000000 ";
b00000000000000000000000000000000 &
0n
b00000000000000000000000000000000 =
0'
0<
b00000000000000000000000000000000 "?
b00000 w
08
0",
0#
02
b000000000000 B
b00000000000000000000000000000000 5
b00000000000000000000000000000000 ~
0h
b00000 m
b00000000000000000000000000000000 c
b00000000000000000000000000000000 ")
b00000000000000000000000000000000 F
b00000000000000000000000000000000 1
0\
b00000000000000000000000000000000 H
0"&
b00000000000000000000000000000000 +
0*
0^
b00000 k
1"%
0$
b00000 N
b00000000000000000000000000000000 v
$end
#0
1",
1|
1"@
#1
1X
1"&
1/
1q
1h
1i
1"4
10
1!
1":
1n
1E
#6
0h
0"4
0q
0E
0n
0i
0/
0X
00
0!
0":
0"&
#11
1X
1"&
1/
1q
1h
1i
1"4
10
1!
1":
1n
1E
#16
0h
0"4
0q
0E
0n
0i
0/
0X
00
0!
0":
0"&
#21
1X
1"&
1/
1q
1h
1i
1"4
10
1!
1":
1n
1E
#26
0h
0"4
0q
0E
0n
0i
0/
0X
00
0!
0":
0"&
#31
1X
1"&
1/
1q
1h
1i
1"4
10
1!
1":
1n
1E
#36
0h
0"4
0q
0E
0n
0i
0/
0X
00
0!
0":
0"&
#41
1X
1"&
1/
1q
1h
1i
1"4
10
1!
1":
1n
1E
#46
1t
1g
0"4
1"*
0q
0n
0",
1$
00
b11111111000000010000000100010011 ~
0!
1"3
0h
0|
1"2
1'
0E
0"@
1x
0i
0/
1^
0X
0":
0"&
#51
1X
1"&
1/
1q
1h
1i
1"4
10
1!
1":
1n
1E
#56
0"4
0q
0n
00
0!
0h
0E
0i
0/
0X
b00000000000000000000000000000100 4
b00000000000100010010011000100011 ~
0":
0"&
#61
1X
1"&
1/
1q
1h
1i
1"4
10
1!
1":
1n
1E
#66
0"4
0q
0n
b00000000100000010010010000100011 ~
00
0!
0h
0E
0i
0/
b00000000000000000000000000001000 4
0X
0":
0"&
#71
1X
1"&
1/
1q
1h
1i
1"4
10
1!
1":
1n
1E
#76
0"4
0q
0n
b00000000000000000000000000001100 4
b00000000100100010010001000100011 ~
00
0!
0h
0E
0i
0/
0X
0":
0"&
#81
1X
1"&
1/
1q
1h
1i
1"4
10
1!
1":
1n
1E
#86
0"4
0q
0n
b00000001001000010010000000100011 ~
00
0!
b00000000000000000000000000010000 4
0h
0E
0i
0/
0X
0":
0"&
#91
1X
1"&
1/
1q
1h
1i
1"4
10
1!
1":
1n
1E
#96
0"4
0q
0n
00
0!
0h
0E
0i
0/
b00000000000000000000000000010100 4
b00000000000000000010100100000011 ~
0X
0":
0"&
#101
1X
1"&
1/
1q
1h
1i
1"4
10
1!
1":
1n
1E
#106
0"4
0q
0n
b00000000000000000000000000011000 4
00
0!
0h
0E
b00000000000010010010011110000011 ~
0i
0/
0X
0":
0"&
#111
1X
1"&
1/
1q
1h
1i
1"4
10
1!
1":
1n
1E
#116
0"4
0q
0n
b00000100111100000101001001100011 ~
00
b00000000000000000000000000011100 4
0!
0h
0E
0i
0/
0X
0":
0"&
#121
1X
1"&
1/
1q
1h
1i
1"4
10
1!
1":
1n
1E
#126
b00000000010010010000010000010011 ~
0"4
0q
0n
00
0!
b00000000000000000000000000100000 4
0h
0E
0i
0/
0X
0":
0"&
#131
1X
1"&
1/
1q
1h
1i
1"4
10
1!
1":
1n
1E
#136
0"4
0q
0n
b00000000001001111001011110010011 ~
b00000000000000000000000000100100 4
00
0!
0h
0E
0i
0/
0X
0":
0"&
#141
1X
1"&
1/
1q
1h
1i
1"4
10
1!
1":
1n
1E
#146
0"4
0q
0n
00
0!
0h
b00000000100001111000100100110011 ~
0E
0i
0/
0X
b00000000000000000000000000101000 4
0":
0"&
#151
1X
1"&
1/
1q
1h
1i
1"4
10
1!
1":
1n
1E
#156
0"4
0q
0n
00
0!
0h
b00000000000000000000010010010011 ~
b00000000000000000000000000101100 4
0E
0i
0/
0X
0":
0"&
#161
1X
1"&
1/
1q
1h
1i
1"4
10
1!
1":
1n
1E
#166
b00000000010001000000010000010011 ~
0"4
0q
0n
00
0!
0h
b00000000000000000000000000110000 4
0E
0i
0/
0X
0":
0"&
#171
1X
1"&
1/
1q
1h
1i
1"4
10
1!
1":
1n
1E
#176
b00000000000000000000000000110100 4
0"4
0q
0n
00
0!
0h
0E
0i
0/
b00000000000001000010010100000011 ~
0X
0":
0"&
#181
1X
1"&
1/
1q
1h
1i
1"4
10
1!
1":
1n
1E
#186
0"4
0q
0n
00
0!
0h
b00000011000000000000000011101111 ~
b00000000000000000000000000111000 4
0E
0i
0/
0X
0":
0"&
#191
1X
1"&
1/
1q
1h
1i
1"4
10
1!
1":
1n
1E
#196
0"4
0q
0n
00
0!
0h
b00000000000000000000000000111100 4
0E
0i
0/
0X
0":
0"&
b00000000101001001000010010110011 ~
#201
1X
1"&
1/
1q
1h
1i
1"4
10
1!
1":
1n
1E
#206
0"4
0q
0n
00
0!
b00000000000000000000000001000000 4
0h
0E
0i
0/
0X
0":
b11111111001001000001100011100011 ~
0"&
#211
1X
1"&
1/
1q
1h
1i
1"4
10
1!
1":
1n
1E
#216
0"4
0q
0n
00
0!
0h
b00000000000000000000000001000100 4
0E
0i
0/
0X
0":
0"&
b00000000000001001000010100110011 ~
#221
1X
1"&
1/
1q
1h
1i
1"4
10
1!
1":
1n
1E
#226
b00000000110000010010000010000011 ~
0"4
0q
0n
00
0!
0h
0E
0i
0/
0X
b00000000000000000000000001001000 4
0":
0"&
#231
1X
1"&
1/
1q
1h
1i
1"4
10
1!
1":
1n
1E
#236
0"4
b00000000000000000000000001001100 4
0q
0n
b00000000100000010010010000000011 ~
00
0!
0h
0E
0i
0/
0X
0":
0"&
#241
1X
1"&
1/
1q
1h
1i
1"4
10
1!
1":
1n
1E
#246
0"4
0q
0n
b00000000000000000000000001010000 4
00
0!
0h
0E
0i
0/
0X
b00000000010000010010010010000011 ~
0":
0"&
#251
1X
1"&
1/
1q
1h
1i
1"4
10
1!
1":
1n
1E
#256
0"4
0q
0n
00
b00000000000000000000000001010100 4
0!
0h
0E
0i
0/
b00000000000000010010100100000011 ~
0X
0":
0"&
#261
1X
1"&
1/
1q
1h
1i
1"4
10
1!
1":
1n
1E
#266
0"4
0q
0n
00
0!
0h
0E
0i
0/
b00000000000000000000000001011000 4
0X
0":
b00000001000000010000000100010011 ~
0"&
#271
1X
1"&
1/
1q
1h
1i
1"4
10
1!
1":
1n
1E
#276
0"4
0q
0n
b00000000000000000000000001011100 4
00
0!
0h
b00000000000000001000000001100111 ~
0E
0i
0/
0X
0":
0"&
#281
1X
1"&
1/
1q
1h
1i
1"4
10
1!
1":
1n
1E
#286
0"4
0q
0n
00
0!
0h
b00000000000000000000010010010011 ~
0E
0i
0/
0X
b00000000000000000000000001100000 4
0":
0"&
#291
1X
1"&
1/
1q
1h
1i
1"4
10
1!
1":
1n
1E
#296
0"4
0q
0n
00
b00000000000000000000000001100100 4
0!
b11111110000111111111000001101111 ~
0h
0E
0i
0/
0X
0":
0"&
#301
1X
1"&
1/
1q
1h
1i
1"4
10
1!
1":
1n
1E
#306
0"4
0q
0n
b00000000000000000000000001101000 4
b00000000010000000000011110010011 ~
00
0!
0h
0E
0i
0/
0X
0":
0"&
#311
1X
1"&
1/
1q
1h
1i
1"4
10
1!
1":
1n
1E
#316
0"4
0q
0n
00
0!
0h
b00000000000000000000000001101100 4
0E
0i
0/
b00000100000000000000000001101111 ~
0X
0":
0"&
#321
1X
1"&
1/
1q
1h
1i
1"4
10
1!
1":
1n
1E
#326
0"4
0q
0n
00
b00000000000001111000010100110011 ~
0!
b00000000000000000000000001110000 4
0h
0E
0i
0/
0X
0":
0"&
#331
1X
1"&
1/
1q
1h
1i
1"4
10
1!
1":
1n
1E
#336
0"4
0q
0n
00
0!
0h
b00000000000000001000000001100111 ~
0E
0i
0/
b00000000000000000000000001110100 4
0X
0":
0"&
#341
1X
1"&
1/
1q
1h
1i
1"4
10
1!
1":
1n
1E
#346
b00000000000000000000000001111000 4
0"4
0q
0n
00
0!
0h
0E
0i
0/
0X
b00000000000001111010011110000011 ~
0":
0"&
#351
1X
1"&
1/
1q
1h
1i
1"4
10
1!
1":
1n
1E
#356
0"4
b00000000000101111001011110010011 ~
0q
0n
00
0!
b00000000000000000000000001111100 4
0h
0E
0i
0/
0X
0":
0"&
#361
1X
1"&
1/
1q
1h
1i
1"4
10
1!
1":
1n
1E
#366
b00000000000000000000000010000000 4
0"4
0q
0n
00
0!
0h
0E
0i
0/
b00011111110001111111011110010011 ~
0X
0":
0"&
#371
1X
1"&
1/
1q
1h
1i
1"4
10
1!
1":
1n
1E
#376
0"4
0q
0n
00
0!
0h
0E
b00000000000000000000000010000100 4
0i
0/
b00000000010001111000011110010011 ~
0X
0":
0"&
#381
1X
1"&
1/
1q
1h
1i
1"4
10
1!
1":
1n
1E
#386
0"4
0q
0n
b00000000000000000000000010001000 4
00
0!
0h
b00000010010000000000000001101111 ~
0E
0i
0/
0X
0":
0"&
#391
1X
1"&
1/
1q
1h
1i
1"4
10
1!
1":
1n
1E
#396
0"4
0q
0n
00
0!
0h
b00000100101001110101001001100011 ~
0E
0i
0/
0X
b00000000000000000000000010001100 4
0":
0"&
#401
1X
1"&
1/
1q
1h
1i
1"4
10
1!
1":
1n
1E
#406
b00000000000001111010011100000011 ~
0"4
0q
0n
00
0!
0h
b00000000000000000000000010010000 4
0E
0i
0/
0X
0":
0"&
#411
1X
1"&
1/
1q
1h
1i
1"4
10
1!
1":
1n
1E
#416
0"4
0q
0n
00
0!
b00000000000000000000000010010100 4
0h
0E
0i
0/
0X
0":
b00010000000001110111011100010011 ~
0"&
#421
1X
1"&
1/
1q
1h
1i
1"4
10
1!
1":
1n
1E
#426
0"4
0q
0n
00
0!
b00000000000000000000000010011000 4
0h
0E
0i
0/
0X
0":
b00000100000001110000000001100011 ~
0"&
#431
1X
1"&
1/
1q
1h
1i
1"4
10
1!
1":
1n
1E
#436
0"4
0q
0n
00
0!
0h
0E
0i
0/
b00000000000000000000000010011100 4
0X
b00000000000001111010011110000011 ~
0":
0"&
#441
1X
1"&
1/
1q
1h
1i
1"4
10
1!
1":
1n
1E
#446
0"4
0q
0n
b00000000000000000000000010100000 4
b00000000011101111101011110010011 ~
00
0!
0h
0E
0i
0/
0X
0":
0"&
#451
1X
1"&
1/
1q
1h
1i
1"4
10
1!
1":
1n
1E
#456
0"4
0q
0n
00
0!
b00000000000000000000000010100100 4
0h
0E
0i
0/
b00011111110001111111011110010011 ~
0X
0":
0"&
#461
1X
1"&
1/
1q
1h
1i
1"4
10
1!
1":
1n
1E
#466
b00000000000000000000000010101000 4
0"4
0q
0n
00
0!
0h
0E
0i
0/
b00000000010001111000011110010011 ~
0X
0":
0"&
#471
1X
1"&
1/
1q
1h
1i
1"4
10
1!
1":
1n
1E
#476
b00000000000001111010011100000011 ~
0"4
0q
0n
00
0!
b00000000000000000000000010101100 4
0h
0E
0i
0/
0X
0":
0"&
#481
1X
1"&
1/
1q
1h
1i
1"4
10
1!
1":
1n
1E
#486
0"4
0q
0n
00
0!
0h
0E
0i
0/
b01000001000001110101011100010011 ~
b00000000000000000000000010110000 4
0X
0":
0"&
#491
1X
1"&
1/
1q
1h
1i
1"4
10
1!
1":
1n
1E
#496
0"4
0q
0n
00
0!
0h
0E
0i
0/
b11111010101001110000111011100011 ~
b00000000000000000000000010110100 4
0X
0":
0"&
#501
1X
1"&
1/
1q
1h
1i
1"4
10
1!
1":
1n
1E
#506
0"4
0q
0n
b00000000000000000000000010111000 4
00
0!
0h
0E
0i
0/
0X
0":
b11111100111001010101101011100011 ~
0"&
#511
1X
1"&
1/
1q
1h
1i
1"4
10
1!
1":
1n
1E
#516
b00000000000001111010011100000011 ~
b00000000000000000000000010111100 4
0"4
0q
0n
00
0!
0h
0E
0i
0/
0X
0":
0"&
#521
1X
1"&
1/
1q
1h
1i
1"4
10
1!
1":
1n
1E
#526
0"4
b00000000000101110111011100010011 ~
0q
0n
00
0!
0h
0E
b00000000000000000000000011000000 4
0i
0/
0X
0":
0"&
#531
1X
1"&
1/
1q
1h
1i
1"4
10
1!
1":
1n
1E
#536
0"4
0q
0n
00
0!
0h
b11111010000001110001101011100011 ~
b00000000000000000000000011000100 4
0E
0i
0/
0X
0":
0"&
#541
1X
1"&
1/
1q
1h
1i
1"4
10
1!
1":
1n
1E
#546
0"4
0q
0n
00
0!
b11111111111100000000010100010011 ~
0h
0E
0i
0/
0X
0":
b00000000000000000000000011001000 4
0"&
#551
1X
1"&
1/
1q
1h
1i
1"4
10
1!
1":
1n
1E
#556
0"4
0q
0n
00
0!
0h
b00000000000000001000000001100111 ~
0E
0i
0/
b00000000000000000000000011001100 4
0X
0":
0"&
#561
1X
1"&
1/
1q
1h
1i
1"4
10
1!
1":
1n
1E
#566
b00000000000000000000000011010000 4
0"4
0q
0n
00
0!
b11111111111100000000010100010011 ~
0h
0E
0i
0/
0X
0":
0"&
#571
1X
1"&
1/
1q
1h
1i
1"4
10
1!
1":
1n
1E
#576
0"4
0q
0n
00
0!
0h
b00000000000000001000000001100111 ~
b00000000000000000000000011010100 4
0E
0i
0/
0X
0":
0"&
#581
1X
1"&
1/
1q
1h
1i
1"4
10
1!
1":
1n
1E
#586
b00000000000000000000000011011000 4
0"4
0q
0n
00
0!
b11111111111100000000010100010011 ~
0h
0E
0i
0/
0X
0":
0"&
#591
1X
1"&
1/
1q
1h
1i
1"4
10
1!
1":
1n
1E
#596
0"4
0q
0n
00
0!
0h
b00000000000000001000000001100111 ~
0E
0i
0/
b00000000000000000000000011011100 4
0X
0":
0"&
#601
1X
1"&
1/
1q
1h
1i
1"4
10
1!
1":
1n
1E
#606
b01110 L
b01110 .
1<
b01110 N
0n
17
b01110 O
b01110 j
1b
00
b01110 k
1C
1#
b01110 w
1*
b01110 a
b00000000000000000000000000000000 ~
b01110 m
0"4
b01110 M
0q
1e
1""
1%
b00000000000000000000111111111100 4
0!
1@
1"
0h
0E
b01110 y
0i
0/
12
0X
0":
0"&
#611
1X
1"&
1/
1i
1(
1"4
1!
1":
1E
1q
1h
10
b01110 S
1n
#616
b01010 L
0"4
b01010 a
0q
0n
b01010 y
b01010 m
b01010 N
b01010 j
00
0!
0h
b01010 w
b01010 M
b01010 .
b01010 O
0E
0i
0/
b01010 k
0X
0":
0"&
#621
1X
1"&
1/
1q
1h
1i
b01010 S
1"4
10
1!
1":
1n
1E
#626
b10001 M
0"4
b10001 .
0q
0n
b10001 w
b10001 j
b10001 L
00
b10001 y
0!
0h
b10001 k
0E
b10001 O
0i
0/
0X
b10001 a
b10001 N
b10001 m
0":
0"&
#631
1X
b10001 S
1"&
1/
1q
1h
1i
1"4
10
1!
1":
1n
1E
#636
0e
b00000 m
0"4
0q
0n
b00000 k
00
0!
0#
0h
b00000 j
b00000 a
0E
0b
0i
0/
b00000 O
b00000 L
b00000 M
0X
b00000 w
b00000 N
b00000 y
0":
b00000 .
0"&
#641
1X
1"&
1/
1i
1"4
1!
1":
1E
b00000 S
1q
1h
0(
10
1n
#646
0"4
1e
0q
0n
1b
00
b00100 w
0!
b00100 a
b00100 O
0h
b00100 m
b00100 L
b00100 N
0E
0i
0/
b00100 M
1#
b00100 j
0X
b00100 y
0":
b00100 .
0"&
b00100 k
#651
1X
1"&
1/
1i
1(
1"4
1!
1":
1E
b00100 S
1q
1h
10
1n
#656
b11000 k
b11000 O
0"4
0q
0n
00
0!
b11000 .
0h
b11000 y
b11000 L
0E
0i
0/
b11000 N
b11000 w
b11000 m
b11000 j
0X
b11000 M
0":
b11000 a
0"&
#661
1X
1"&
1/
1q
b11000 S
1i
1"4
1h
10
1!
1":
1n
1E
#666
b00110 L
0"4
0q
0n
b00110 m
b00110 M
b00110 w
00
b00110 k
b00110 a
0!
b00110 .
b00110 y
0h
0E
0i
0/
b00110 j
b00110 O
0X
b00110 N
0":
0"&
#671
1X
1"&
1/
1q
1h
1i
1"4
b00110 S
10
1!
1":
1n
1E
#676
0"4
0q
0n
b10100 a
b10100 O
00
b10100 L
0!
b10100 y
0h
b10100 j
b10100 M
0E
b10100 m
0i
0/
b10100 k
b10100 w
0X
b10100 N
0":
b10100 .
0"&
#681
1X
1"&
1/
1q
1h
1i
1"4
10
1!
1":
b10100 S
1n
1E
#686
b00111 y
b00111 k
0"4
b00111 m
0q
0n
b00111 O
00
b00111 M
0!
b00111 w
b00111 j
0h
b00111 .
0E
0i
0/
b00111 a
b00111 N
0X
b00111 L
0":
0"&
#691
1X
1"&
1/
1q
1h
1i
1"4
10
1!
b00111 S
1":
1n
1E
#696
b00001 w
b11101011000111001110101100011100 "=
0n
b11101011000111001110101100011100 "A
b00001 k
b11101011000111001110101100011100 "5
00
b11101011000111001110101100011100 H
b11101011000111001110101100011100 _
b00001 .
b11101011000111001110101100011100 "8
b00001 y
b11101011000111001110101100011100 K
b11101011000111001110101100011100 ,
b00001 j
0"4
0q
b00001 m
b00001 O
b00001 a
0!
b11101011000111001110101100011100 `
b00001 M
0h
b00001 L
0E
0i
0/
b00001 N
0X
0":
0"&
#701
1X
b00001 S
1"&
1/
1i
1"4
b11101011000111001110101100011100 ".
1!
b11101011000111001110101100011100 +
1":
1E
b11101011000111001110101100011100 P
b11101011000111001110101100011100 =
b11101011000111001110101100011100 1
1q
1h
10
b11101011000111001110101100011100 "$
1n
#706
b11011 M
b11011 N
0n
b00000000000000000000000000000000 _
b00000000000000000000000000000000 "=
00
b00000000000000000000000000000000 "5
b11011 O
b00000000000000000000000000000000 ,
b00000000000000000000000000000000 +
b00000000000000000000000000000000 1
b11011 L
b11011 y
b00000000000000000000000000000000 K
b11011 m
b00000000000000000000000000000000 H
b11011 w
b11011 a
0"4
0q
b00000000000000000000000000000000 "A
b00000000000000000000000000000000 P
0!
b11011 j
0h
b00000000000000000000000000000000 ".
b11011 k
0E
b00000000000000000000000000000000 `
0i
0/
b11011 .
0X
b00000000000000000000000000000000 "8
0":
0"&
b00000000000000000000000000000000 =
#711
1X
1"&
1/
b00000000000000000000000000000000 "$
1i
1"4
1!
1":
1E
b11011 S
1q
1h
10
1n
#716
b01101 k
b01101 a
b01101 w
b01101 m
b01101 y
0"4
b01101 O
0q
0n
b01101 .
b01101 j
00
0!
b01101 M
0h
b01101 L
0E
0i
0/
0X
b01101 N
0":
0"&
#721
1X
1"&
1/
1q
1h
1i
1"4
b01101 S
10
1!
1":
1n
1E
#726
b01011 N
b01011 .
0"4
0q
0n
b01011 y
00
b01011 w
0!
b01011 M
b01011 a
0h
b01011 L
0E
0i
0/
b01011 j
0X
b01011 m
b01011 k
0":
0"&
b01011 O
#731
1X
1"&
1/
1q
1h
1i
1"4
10
1!
1":
b01011 S
1n
1E
#736
b01100 O
b01100 L
b01100 w
0"4
0q
0n
b01100 k
b01100 j
b01100 M
00
b01100 y
0!
b01100 a
0h
0E
b01100 .
0i
0/
b01100 N
b01100 m
0X
0":
0"&
#741
b01100 S
1X
1"&
1/
1q
1h
1i
1"4
10
1!
1":
1n
1E
#746
0"4
b00011 y
0q
0n
b00011 j
b00011 k
b00011 a
00
b00011 w
0!
b00011 O
0h
b00011 M
b00011 .
0E
0i
0/
b00011 L
b00011 N
0X
0":
0"&
b00011 m
#751
b00011 S
1X
1"&
1/
1q
1h
1i
1"4
10
1!
1":
1n
1E
#756
b00101 k
b00101 j
0"4
b00101 L
0q
0n
b00101 O
b00101 N
00
b00101 .
0!
0h
b00101 a
0E
0i
0/
b00101 y
b00101 w
0X
b00101 M
0":
0"&
b00101 m
#761
1X
b00101 S
1"&
1/
1q
1h
1i
1"4
10
1!
1":
1n
1E
#766
b10011 m
b10011 M
0"4
0q
0n
b10011 .
b10011 L
b10011 O
b10011 a
b10011 k
00
b10011 w
0!
0h
b10011 N
b10011 j
0E
0i
0/
0X
b10011 y
0":
0"&
#771
1X
b10011 S
1"&
1/
1q
1h
1i
1"4
10
1!
1":
1n
1E
#776
b10111 N
b10111 L
0"4
0q
0n
b10111 k
b10111 M
b10111 O
b10111 w
00
0!
b10111 m
b10111 j
0h
b10111 .
0E
0i
0/
b10111 y
b10111 a
0X
0":
0"&
#781
1X
b10111 S
1"&
1/
1q
1h
1i
1"4
10
1!
1":
1n
1E
#786
0"4
0q
0n
b01111 y
b01111 L
b01111 j
b01111 M
b01111 m
b01111 .
00
b01111 w
0!
b01111 a
0h
0E
b01111 N
0i
0/
b01111 O
0X
0":
0"&
b01111 k
#791
b01111 S
1X
1"&
1/
1q
1h
1i
1"4
10
1!
1":
1n
1E
#796
b01000 w
b01000 O
0"4
0q
0n
b01000 k
b01000 .
b01000 j
00
0!
b01000 m
b01000 M
b01000 N
0h
b01000 a
b01000 y
0E
0i
0/
0X
0":
b01000 L
0"&
#801
1X
b01000 S
1"&
1/
1q
1h
1i
1"4
10
1!
1":
1n
1E
#806
b01001 a
b01001 O
b01001 .
b01001 j
0"4
0q
0n
b01001 L
00
0!
b01001 M
b01001 y
b01001 m
b01001 w
0h
0E
b01001 N
0i
0/
b01001 k
0X
0":
0"&
#811
1X
1"&
1/
1q
1h
1i
1"4
b01001 S
1!
10
1":
1n
1E
#816
b10101 .
b10101 k
0"4
b10101 m
0q
0n
b10101 y
b10101 O
00
0!
b10101 a
0h
b10101 M
0E
0i
0/
b10101 N
0X
b10101 w
0":
b10101 L
0"&
b10101 j
#821
1X
b10101 S
1"&
1/
1q
1h
1i
1"4
10
1!
1":
1n
1E
