waveforms/BTreeO3.s.vcd
$date
2021-12-01T09:31+0000
$end
$version
0.2
$end
$comment

$end
$timescale 1ns  $end
$scope module Tile $end
 $var wire 1 * io_regsWriteEnable $end
 $var wire 32 + io_regsReadData $end
 $var wire 32 4 io_IMEMAddress $end
 $var wire 1 < io_regsDeviceWriteEnable $end
 $var wire 32 I io_DMEMAddress $end
 $var wire 32 Z io_DMEMWriteData $end
 $var wire 1 ] CPU $end
 $var wire 32 _ io_regsDeviceWriteData $end
 $var wire 5 a io_regsDeviceWriteAddress $end
 $var wire 1 i clock $end
 $var wire 32 l io_currentPC $end
 $var wire 5 m io_regsAddress $end
 $var wire 1 u io_DMEMWriteEnable $end
 $var wire 32 v io_memDeviceWriteAddress $end
 $var wire 32 ~ io_IMEMWriteData $end
 $var wire 32 "! io_memDeviceWriteData $end
 $var wire 32 ") io_DMEMReadData $end
 $var wire 1 ", reset $end
 $var wire 1 "2 io_setup $end
 $var wire 1 "7 io_memDeviceWriteEnable $end
 $var wire 32 "A io_regsWriteData $end
  $scope module CPU.MEM $end
  $upscope $end
  $scope module CPU.ID.registers $end
  $upscope $end
  $scope module CPU.IF $end
  $upscope $end
  $scope module CPU.IF.IMEM $end
  $upscope $end
  $scope module CPU.MEM.DMEM $end
  $upscope $end
  $scope module CPU $end
   $var wire 1 2 testHarness_regUpdates_writeEnable $end
   $var wire 1 > ID $end
   $var wire 1 D testHarness_memUpdates_writeEnable $end
   $var wire 32 K testHarness_regUpdates_writeData $end
   $var wire 5 L testHarness_regUpdates_writeAddress $end
   $var wire 5 M testHarness_setupSignals_registerSignals_readAddress $end
   $var wire 32 P testHarness_testReadouts_registerRead $end
   $var wire 32 T testHarness_currentPC $end
   $var wire 1 W IF $end
   $var wire 32 [ testHarness_memUpdates_writeAddress $end
   $var wire 1 ^ testHarness_setupSignals_DMEMsignals_setup $end
   $var wire 32 d testHarness_testReadouts_DMEMread $end
   $var wire 32 f testHarness_setupSignals_DMEMsignals_dataIn $end
   $var wire 1 g testHarness_setupSignals_IMEMsignals_setup $end
   $var wire 1 q clock $end
   $var wire 32 s testHarness_setupSignals_DMEMsignals_dataAddress $end
   $var wire 1 x testHarness_setupSignals_registerSignals_setup $end
   $var wire 1 { MEM $end
   $var wire 1 "" testHarness_setupSignals_registerSignals_writeEnable $end
   $var wire 32 "6 testHarness_memUpdates_writeData $end
   $var wire 32 "= testHarness_setupSignals_registerSignals_writeData $end
   $var wire 1 "@ reset $end
   $var wire 1 "B testHarness_setupSignals_DMEMsignals_writeEnable $end
    $scope module MEM $end
     $var wire 1 8 DMEM $end
     $var wire 32 ; testHarness_testUpdates_writeAddress $end
     $var wire 32 U testHarness_DMEMsetup_dataAddress $end
     $var wire 1 p testHarness_testUpdates_writeEnable $end
     $var wire 1 z testHarness_DMEMsetup_writeEnable $end
     $var wire 32 } testHarness_DMEMpeek $end
     $var wire 1 "* testHarness_DMEMsetup_setup $end
     $var wire 32 "0 testHarness_testUpdates_writeData $end
     $var wire 1 "4 clock $end
     $var wire 32 "> testHarness_DMEMsetup_dataIn $end
      $scope module DMEM $end
       $var wire 32 & testHarness_testUpdates_writeData $end
       $var wire 1 ) _GEN_6 $end
       $var wire 12 - data__T_24_addr_pipe_0 $end
       $var wire 1 6 testHarness_testUpdates_writeEnable $end
       $var wire 32 : testHarness_setup_dataAddress $end
       $var wire 32 ? testHarness_testUpdates_writeAddress $end
       $var wire 32 F addressSource $end
       $var wire 32 J data $end
       $var wire 1 r testHarness_setup_writeEnable $end
       $var wire 1 t testHarness_setup_setup $end
       $var wire 1 "& clock $end
       $var wire 32 "+ testHarness_setup_dataIn $end
       $var wire 32 "9 io_dataOut $end
        $scope module data $end
          $scope module _T_26 $end
           $var wire 1 ! clk $end
           $var wire 12 B addr $end
           $var wire 32 G pipeline_data_0 $end
           $var wire 1 \ pipeline_valid_0 $end
           $var wire 32 c data $end
           $var wire 1 "# en $end
           $var wire 12 "' pipeline_addr_0 $end
           $var wire 1 "- valid $end
           $var wire 1 "< mask $end
          $upscope $end
          $scope module _T_24 $end
           $var wire 32 5 data $end
           $var wire 1 h clk $end
           $var wire 1 "% en $end
           $var wire 12 "( addr $end
          $upscope $end
        $upscope $end
      $upscope $end
    $upscope $end
    $scope module ID $end
     $var wire 1 " testHarness_registerSetup_writeEnable $end
     $var wire 32 = testHarness_registerPeek $end
     $var wire 1 C testHarness_testUpdates_writeEnable $end
     $var wire 32 H testHarness_registerSetup_writeData $end
     $var wire 5 N testHarness_testUpdates_writeAddress $end
     $var wire 5 k testHarness_registerSetup_readAddress $end
     $var wire 1 o registers $end
     $var wire 1 "3 testHarness_registerSetup_setup $end
     $var wire 32 "5 testHarness_testUpdates_writeData $end
     $var wire 1 ": clock $end
      $scope module registers $end
       $var wire 1 % testHarness_testUpdates_writeEnable $end
       $var wire 1 ' testHarness_setup_setup $end
       $var wire 32 , testHarness_testUpdates_writeData $end
       $var wire 5 . readAddress1 $end
       $var wire 1 0 clock $end
       $var wire 32 1 io_readData1 $end
       $var wire 32 3 registerFile $end
       $var wire 1 7 testHarness_setup_writeEnable $end
       $var wire 1 @ writeEnable $end
       $var wire 5 O testHarness_testUpdates_writeAddress $end
       $var wire 32 ` testHarness_setup_writeData $end
       $var wire 5 y testHarness_setup_readAddress $end
        $scope module registerFile $end
          $scope module _T_33 $end
           $var wire 1 # en $end
           $var wire 1 ( pipeline_valid_0 $end
           $var wire 1 / clk $end
           $var wire 5 S pipeline_addr_0 $end
           $var wire 1 V mask $end
           $var wire 1 e valid $end
           $var wire 5 w addr $end
           $var wire 32 "$ pipeline_data_0 $end
           $var wire 32 "8 data $end
          $upscope $end
          $scope module _T_41 $end
           $var wire 32 A data $end
           $var wire 1 R en $end
           $var wire 1 n clk $end
           $var wire 5 "1 addr $end
          $upscope $end
          $scope module _T_38 $end
           $var wire 1 E clk $end
           $var wire 1 b en $end
           $var wire 5 j addr $end
           $var wire 32 ". data $end
          $upscope $end
        $upscope $end
      $upscope $end
    $upscope $end
    $scope module IF $end
     $var wire 1 $ testHarness_IMEMsetup_setup $end
     $var wire 1 9 IMEM $end
     $var wire 32 Q PC $end
     $var wire 1 X clock $end
     $var wire 32 Y testHarness_PC $end
     $var wire 1 | reset $end
     $var wire 32 "? _GEN_0 $end
      $scope module IMEM $end
       $var wire 32 "/ testHarness_requestedAddress $end
       $var wire 32 "; io_instructionAddress $end
      $upscope $end
    $upscope $end
  $upscope $end
  $scope module CPU.ID $end
  $upscope $end
$upscope $end
$enddefinitions $end
$dumpvars
0X
b00000000000000000000000000000000 Y
0"7
1"<
0""
0C
0o
b00000000000000000000000000000000 ">
0R
b00000000000000000000000000000000 "8
b00000000000000000000000000000000 l
b00000000000000000000000000000000 :
b00000000000000000000000000000000 Q
b00000000000000000000000000000000 }
0g
b00000000000000000000000000000000 `
b00000000000000000000000000000000 K
b00000000000000000000000000000000 ".
b000000000000 "(
0"@
0D
0/
0"#
0x
0":
b00000 S
0z
b00000000000000000000000000000000 s
0]
1)
0r
b00000 j
0@
b00000000000000000000000000000000 A
0W
b00000 O
0%
b00000000000000000000000000000000 ;
b000000000000 -
b00000000000000000000000000000000 "=
b00000000000000000000000000000000 Z
0p
b00000000000000000000000000000000 T
0>
0"2
b00000000000000000000000000000000 ?
06
0!
b00000 .
b00000000000000000000000000000000 "9
0"4
b00000 y
b00000000000000000000000000000000 P
b00000000000000000000000000000000 3
0{
b00000000000000000000000000000000 "5
b00000000000000000000000000000000 J
b000000000000 "'
b00000000000000000000000000000000 "/
0"*
0b
0E
00
0(
b00000000000000000000000000000000 "+
b00000000000000000000000000000000 _
0u
1V
b00000000000000000000000000000000 [
b00000000000000000000000000000000 "6
b00000000000000000000000000000000 "!
0q
0i
b00000000000000000000000000000000 U
0"3
b00000 a
b00000 L
0"
07
09
0"-
b00000000000000000000000000000000 f
0e
b00000 "1
b00000000000000000000000000000000 I
b00000000000000000000000000000000 4
0|
b00000000000000000000000000000000 "0
b00000000000000000000000000000000 d
0"B
b00000000000000000000000000000000 G
b00000000000000000000000000000000 "A
b00000000000000000000000000000000 "$
b00000000000000000000000000000000 ,
b00000 M
0t
b00000000000000000000000000000000 ";
b00000000000000000000000000000000 &
0n
0<
0'
b00000000000000000000000000000000 =
b00000000000000000000000000000000 "?
b00000 w
08
0#
0",
02
b000000000000 B
b00000000000000000000000000000000 5
b00000000000000000000000000000000 ~
0h
b00000 m
b00000000000000000000000000000000 c
b00000000000000000000000000000000 ")
b00000000000000000000000000000000 F
b00000000000000000000000000000000 1
0\
b00000000000000000000000000000000 H
0"&
b00000000000000000000000000000000 +
0*
0^
b00000 k
b00000 N
0$
1"%
b00000000000000000000000000000000 v
$end
#0
1"@
1|
1",
#1
1i
10
1E
1/
1":
1n
1"4
1!
1"&
1h
1X
1q
#6
0X
0/
0!
0":
0E
0q
0n
0"4
0i
0"&
00
0h
#11
1i
10
1E
1/
1":
1n
1"4
1!
1"&
1h
1X
1q
#16
0X
0/
0!
0":
0E
0q
0n
0"4
0i
0"&
00
0h
#21
1i
10
1E
1/
1":
1n
1"4
1!
1"&
1h
1X
1q
#26
0X
0/
0!
0":
0E
0q
0n
0"4
0i
0"&
00
0h
#31
1i
10
1E
1/
1":
1n
1"4
1!
1"&
1h
1X
1q
#36
0X
0/
0!
0":
0E
0q
0n
0"4
0i
0"&
00
0h
#41
1i
10
1E
1/
1":
1n
1"4
1!
1"&
1h
1X
1q
#46
0/
b11111111000000010000000100010011 ~
0!
1"*
1"2
0":
1g
1'
0|
0"4
0"&
1x
0h
0X
0",
1$
1t
1^
0E
0q
0n
0"@
0i
1"3
00
#51
1i
10
1E
1/
1":
1n
1"4
1!
1"&
1h
1X
1q
#56
0/
0!
0":
0"4
0"&
b00000000000100010010011000100011 ~
0h
0X
0E
0q
0n
0i
b00000000000000000000000000000100 4
00
#61
1i
10
1E
1/
1":
1n
1"4
1!
1"&
1h
1X
1q
#66
0/
0!
0":
0"4
0"&
0h
0X
0E
b00000000000000000010010100000011 ~
0q
0n
b00000000000000000000000000001000 4
0i
00
#71
1i
10
1E
1/
1":
1n
1"4
1!
1"&
1h
1X
1q
#76
0/
0!
0":
0"4
0"&
b00000001000000000000000011101111 ~
0h
0X
b00000000000000000000000000001100 4
0E
0q
0n
0i
00
#81
1i
10
1E
1/
1":
1n
1"4
1!
1"&
1h
1X
1q
#86
0/
0!
b00000000110000010010000010000011 ~
0":
0"4
b00000000000000000000000000010000 4
0"&
0h
0X
0E
0q
0n
0i
00
#91
1i
10
1E
1/
1":
1n
1"4
1!
1"&
1h
1X
1q
#96
b00000001000000010000000100010011 ~
0/
0!
b00000000000000000000000000010100 4
0":
0"4
0"&
0h
0X
0E
0q
0n
0i
00
#101
1i
10
1E
1/
1":
1n
1"4
1!
1"&
1h
1X
1q
#106
0/
0!
b00000000000000000000000000011000 4
0":
0"4
0"&
0h
0X
0E
0q
0n
b00000000000000001000000001100111 ~
0i
00
#111
1i
10
1E
1/
1":
1n
1"4
1!
1"&
1h
1X
1q
#116
0/
0!
0":
0"4
0"&
0h
0X
0E
b00000000010000000000011110010011 ~
0q
0n
0i
b00000000000000000000000000011100 4
00
#121
1i
10
1E
1/
1":
1n
1"4
1!
1"&
1h
1X
1q
#126
0/
0!
0":
0"4
0"&
0h
0X
b00000000000001111010011100000011 ~
0E
0q
0n
0i
b00000000000000000000000000100000 4
00
#131
1i
10
1E
1/
1":
1n
1"4
1!
1"&
1h
1X
1q
#136
0/
0!
0":
0"4
0"&
0h
0X
0E
0q
0n
0i
b01000001000001110101011100010011 ~
00
b00000000000000000000000000100100 4
#141
1i
10
1E
1/
1":
1n
1"4
1!
1"&
1h
1X
1q
#146
0/
0!
0":
0"4
b00000000000000000000000000101000 4
0"&
0h
0X
b00000100101001110000001001100011 ~
0E
0q
0n
0i
00
#151
1i
10
1E
1/
1":
1n
1"4
1!
1"&
1h
1X
1q
#156
0/
0!
b00000000111001010101110001100011 ~
0":
0"4
0"&
0h
0X
b00000000000000000000000000101100 4
0E
0q
0n
0i
00
#161
1i
10
1E
1/
1":
1n
1"4
1!
1"&
1h
1X
1q
#166
0/
0!
b00000000000000000000000000110000 4
0":
0"4
0"&
0h
0X
0E
0q
0n
b00000000000001111010011110000011 ~
0i
00
#171
1i
10
1E
1/
1":
1n
1"4
1!
1"&
1h
1X
1q
#176
0/
0!
0":
b00000000000000000000000000110100 4
0"4
0"&
0h
0X
0E
0q
0n
b00000000000101111111011100010011 ~
0i
00
#181
1i
10
1E
1/
1":
1n
1"4
1!
1"&
1h
1X
1q
#186
0/
0!
0":
0"4
0"&
0h
0X
b00000010000001110001111001100011 ~
b00000000000000000000000000111000 4
0E
0q
0n
0i
00
#191
1i
10
1E
1/
1":
1n
1"4
1!
1"&
1h
1X
1q
#196
b00000000000000000000000000111100 4
0/
0!
0":
0"4
0"&
0h
0X
0E
0q
0n
b11111111111100000000010100010011 ~
0i
00
#201
1i
10
1E
1/
1":
1n
1"4
1!
1"&
1h
1X
1q
#206
0/
0!
0":
0"4
b00000000000000000000000001000000 4
0"&
0h
0X
0E
0q
0n
b00000000000000001000000001100111 ~
0i
00
#211
1i
10
1E
1/
1":
1n
1"4
1!
1"&
1h
1X
1q
#216
0/
0!
0":
0"4
b00000000000000000000000001000100 4
0"&
0h
0X
b11111110101001110101110011100011 ~
0E
0q
0n
0i
00
#221
1i
10
1E
1/
1":
1n
1"4
1!
1"&
1h
1X
1q
#226
0/
0!
0":
0"4
0"&
0h
0X
b00000000000001111010011100000011 ~
0E
b00000000000000000000000001001000 4
0q
0n
0i
00
#231
1i
10
1E
1/
1":
1n
1"4
1!
1"&
1h
1X
1q
#236
0/
0!
0":
0"4
0"&
0h
0X
0E
0q
0n
b00000000000000000000000001001100 4
b00000000011101110101011110010011 ~
0i
00
#241
1i
10
1E
1/
1":
1n
1"4
1!
1"&
1h
1X
1q
#246
0/
0!
0":
0"4
0"&
0h
0X
b00010000000001110111011100010011 ~
b00000000000000000000000001010000 4
0E
0q
0n
0i
00
#251
1i
10
1E
1/
1":
1n
1"4
1!
1"&
1h
1X
1q
#256
0/
0!
0":
0"4
0"&
0h
0X
b00000000000000000000000001010100 4
0E
0q
0n
b00011111110001111111011110010011 ~
0i
00
#261
1i
10
1E
1/
1":
1n
1"4
1!
1"&
1h
1X
1q
#266
0/
0!
0":
0"4
0"&
0h
0X
0E
0q
0n
b11111110000001110000001011100011 ~
0i
b00000000000000000000000001011000 4
00
#271
1i
10
1E
1/
1":
1n
1"4
1!
1"&
1h
1X
1q
#276
b00000000000000000000000001011100 4
0/
0!
0":
0"4
0"&
b00000000010001111000011110010011 ~
0h
0X
0E
0q
0n
0i
00
#281
1i
10
1E
1/
1":
1n
1"4
1!
1"&
1h
1X
1q
#286
0/
0!
0":
0"4
0"&
0h
0X
b00000000000001111010011100000011 ~
0E
0q
0n
b00000000000000000000000001100000 4
0i
00
#291
1i
10
1E
1/
1":
1n
1"4
1!
1"&
1h
1X
1q
#296
0/
0!
b00000000000000000000000001100100 4
0":
0"4
0"&
0h
0X
0E
0q
0n
0i
b01000001000001110101011100010011 ~
00
#301
1i
10
1E
1/
1":
1n
1"4
1!
1"&
1h
1X
1q
#306
0/
0!
0":
0"4
0"&
0h
0X
b00000000000000000000000001101000 4
0E
b11111100101001110001001011100011 ~
0q
0n
0i
00
#311
1i
10
1E
1/
1":
1n
1"4
1!
1"&
1h
1X
1q
#316
0/
0!
0":
0"4
0"&
0h
0X
b00000000000000000000000001101100 4
0E
0q
0n
b00000000000001111000010100110011 ~
0i
00
#321
1i
10
1E
1/
1":
1n
1"4
1!
1"&
1h
1X
1q
#326
0/
0!
0":
0"4
0"&
0h
0X
0E
0q
0n
b00000000000000000000000001110000 4
b00000000000000001000000001100111 ~
0i
00
#331
1i
10
1E
1/
1":
1n
1"4
1!
1"&
1h
1X
1q
#336
0/
b00000000000000000000000001110100 4
0!
0":
0"4
0"&
0h
0X
b00000000000101111001011110010011 ~
0E
0q
0n
0i
00
#341
1i
10
1E
1/
1":
1n
1"4
1!
1"&
1h
1X
1q
#346
0/
0!
b00000000000000000000000001111000 4
0":
0"4
0"&
0h
0X
0E
0q
0n
b00011111110001111111011110010011 ~
0i
00
#351
1i
10
1E
1/
1":
1n
1"4
1!
1"&
1h
1X
1q
#356
b00000000000000000000000001111100 4
0/
0!
0":
0"4
0"&
b00000000010001111000011110010011 ~
0h
0X
0E
0q
0n
0i
00
#361
1i
10
1E
1/
1":
1n
1"4
1!
1"&
1h
1X
1q
#366
0/
0!
b11111010000111111111000001101111 ~
b00000000000000000000000010000000 4
0":
0"4
0"&
0h
0X
0E
0q
0n
0i
00
#371
1i
10
1E
1/
1":
1n
1"4
1!
1"&
1h
1X
1q
#376
12
b01110 w
0":
b01110 a
b00000000000000000000000000000000 ~
1C
0"4
0"&
0h
0X
00
b01110 O
b01110 y
b01110 m
1<
1e
0/
0!
17
1%
b01110 k
b01110 .
b00000000000000000000111111111100 4
1""
b01110 M
1@
1b
b01110 j
1*
0E
1#
0q
0n
0i
b01110 N
b01110 L
1"
#381
1i
1/
1":
1!
b01110 S
1h
10
1E
1n
1"4
1"&
1(
1X
1q
#386
b01010 a
0/
0!
b01010 w
b01010 j
0":
b01010 y
0"4
b01010 L
b01010 k
0"&
0h
0X
b01010 N
b01010 M
b01010 m
b01010 .
b01010 O
0E
0q
0n
0i
00
#391
1i
10
1E
1/
1":
1n
1"4
1!
1"&
1h
1X
1q
b01010 S
#396
b10001 w
0/
0!
b10001 O
b10001 .
0":
b10001 N
0"4
b10001 M
b10001 L
0"&
b10001 j
0h
0X
b10001 k
b10001 a
b10001 y
b10001 m
0E
0q
0n
0i
00
#401
1i
10
1E
1/
1":
1n
1"4
b10001 S
1!
1"&
1h
1X
1q
#406
b00000 j
0/
0!
0":
b00000 a
b00000 .
0#
0"4
b00000 y
0"&
0h
0X
b00000 N
b00000 L
b00000 O
0b
0e
0E
0q
0n
b00000 m
b00000 k
b00000 w
0i
00
b00000 M
#411
1i
1/
b00000 S
1":
1!
1h
0(
10
1E
1n
1"4
1"&
1X
1q
#416
b00100 L
1e
0/
0!
b00100 j
b00100 y
0":
b00100 m
b00100 .
b00100 N
b00100 M
0"4
b00100 w
1b
0"&
b00100 a
0h
0X
0E
1#
0q
0n
b00100 O
0i
b00100 k
00
#421
1i
1/
1":
1!
1h
b00100 S
10
1E
1n
1"4
1"&
1(
1X
1q
#426
0/
b11000 k
0!
b11000 O
0":
0"4
b11000 m
b11000 N
b11000 a
b11000 j
0"&
0h
0X
b11000 L
b11000 w
0E
0q
0n
b11000 y
b11000 M
0i
b11000 .
00
#431
1i
10
1E
1/
1":
1n
1"4
1!
1"&
1h
1X
1q
b11000 S
#436
b00110 a
0/
b00110 w
0!
b00110 k
0":
b00110 .
b00110 N
0"4
0"&
0h
0X
b00110 y
b00110 m
b00110 j
0E
0q
0n
b00110 O
0i
b00110 L
b00110 M
00
#441
1i
10
1E
1/
1":
1n
1"4
1!
1"&
1h
b00110 S
1X
1q
#446
0/
0!
b10100 y
b10100 k
0":
b10100 m
0"4
b10100 O
b10100 j
b10100 a
0"&
0h
0X
b10100 .
b10100 N
0E
b10100 w
0q
0n
b10100 L
0i
b10100 M
00
#451
1i
b10100 S
10
1/
1E
1":
1n
1"4
1!
1"&
1h
1X
1q
#456
0/
0!
b00111 N
0":
b00111 O
b00111 .
0"4
b00111 m
0"&
0h
0X
b00111 a
b00111 L
b00111 w
b00111 M
0E
b00111 y
0q
0n
b00111 k
0i
b00111 j
00
#461
1i
10
1E
1/
1":
1n
1"4
1!
1"&
1h
1X
1q
b00111 S
#466
b00001 M
0":
b00001 y
b11101011000111001110101100011100 "5
b11101011000111001110101100011100 `
0"4
b00001 a
0"&
0h
0X
b00001 j
b00001 L
b00001 w
b11101011000111001110101100011100 K
00
0/
0!
b00001 k
b00001 N
b11101011000111001110101100011100 _
b11101011000111001110101100011100 H
b11101011000111001110101100011100 "=
b11101011000111001110101100011100 "A
b11101011000111001110101100011100 "8
b00001 O
b00001 m
0E
0q
0n
b00001 .
0i
b11101011000111001110101100011100 ,
#471
1i
1/
1":
b11101011000111001110101100011100 "$
1!
b11101011000111001110101100011100 =
1h
b11101011000111001110101100011100 +
10
1E
b11101011000111001110101100011100 ".
1n
b11101011000111001110101100011100 P
1"4
b11101011000111001110101100011100 1
b00001 S
1"&
1X
1q
#476
b00000000000000000000000000000000 =
b00000000000000000000000000000000 _
b00000000000000000000000000000000 ".
b11011 y
0":
b00000000000000000000000000000000 "5
b11011 O
0"4
0"&
0h
0X
b11011 m
b00000000000000000000000000000000 "8
b00000000000000000000000000000000 1
b11011 M
b11011 .
b11011 k
00
b00000000000000000000000000000000 K
b00000000000000000000000000000000 "=
0/
b00000000000000000000000000000000 `
0!
b00000000000000000000000000000000 "A
b00000000000000000000000000000000 H
b11011 w
b11011 L
b00000000000000000000000000000000 +
b00000000000000000000000000000000 ,
b00000000000000000000000000000000 P
b11011 N
b11011 a
0E
0q
0n
0i
b11011 j
#481
1i
1/
1":
b11011 S
1!
1h
b00000000000000000000000000000000 "$
10
1E
1n
1"4
1"&
1X
1q
#486
b01101 M
0/
b01101 m
0!
0":
b01101 j
b01101 .
0"4
b01101 O
0"&
b01101 N
0h
0X
b01101 w
b01101 k
b01101 y
b01101 a
0E
0q
0n
b01101 L
0i
00
#491
1i
10
b01101 S
1/
1E
1":
1n
1"4
1!
1"&
1h
1X
1q
#496
b01011 L
0/
b01011 a
0!
b01011 y
b01011 N
b01011 k
b01011 .
0":
0"4
b01011 j
0"&
b01011 w
b01011 M
0X
0h
0E
0q
0n
b01011 O
0i
b01011 m
00
#501
1i
10
1E
1/
1":
1n
1"4
1!
b01011 S
1"&
1h
1X
1q
#506
0/
0!
b01100 m
b01100 O
0":
b01100 w
0"4
0"&
b01100 N
0h
0X
b01100 a
b01100 y
b01100 k
b01100 j
0E
0q
0n
b01100 L
b01100 M
b01100 .
0i
00
#511
1i
10
1E
1/
b01100 S
1":
1"4
1n
1!
1"&
1h
1X
1q
#516
b00011 y
0/
b00011 a
0!
b00011 N
b00011 k
0":
b00011 m
b00011 j
b00011 .
0"4
b00011 O
0"&
0h
0X
b00011 w
0E
0q
0n
b00011 M
b00011 L
0i
00
#521
1i
b00011 S
10
1/
1E
1":
1n
1"4
1!
1"&
1h
1X
1q
#526
b00101 N
0/
0!
b00101 a
b00101 .
0":
b00101 O
b00101 m
0"4
b00101 M
0"&
0h
0X
b00101 L
b00101 y
0E
0q
0n
b00101 j
b00101 k
0i
b00101 w
00
#531
1i
b00101 S
10
1E
1/
1":
1n
1"4
1!
1"&
1h
1X
1q
#536
b10011 M
0/
0!
0":
b10011 a
b10011 O
0"4
b10011 y
b10011 N
b10011 .
0"&
b10011 m
b10011 w
0h
0X
b10011 k
b10011 L
0E
0q
0n
0i
b10011 j
00
#541
1i
10
1E
1/
1":
1n
b10011 S
1"4
1!
1"&
1h
1X
1q
#546
b10111 O
0/
b10111 y
0!
0":
b10111 j
b10111 m
0"4
b10111 a
0"&
0h
0X
b10111 M
b10111 k
b10111 w
0E
b10111 .
0q
0n
b10111 N
0i
00
b10111 L
#551
1i
10
b10111 S
1/
1E
1":
1n
1"4
1!
1"&
1h
1X
1q
#556
0/
b01111 O
0!
b01111 m
b01111 j
0":
b01111 L
b01111 .
0"4
b01111 N
0"&
0h
0X
b01111 a
0E
b01111 w
0q
0n
0i
b01111 k
b01111 y
b01111 M
00
#561
1i
b01111 S
10
1/
1E
1":
1n
1"4
1!
1"&
1h
1X
1q
#566
b01000 .
0/
0!
b01000 a
b01000 L
0":
0"4
0"&
0h
0X
b01000 M
b01000 N
b01000 y
b01000 w
b01000 O
b01000 j
0E
0q
0n
b01000 k
0i
00
b01000 m
#571
1i
10
1E
1/
1":
1n
1"4
1!
1"&
1h
1X
1q
b01000 S
#576
0/
0!
b01001 w
0":
0"4
b01001 .
0"&
b01001 N
0h
0X
b01001 M
b01001 a
b01001 y
b01001 k
0E
0q
0n
b01001 j
0i
b01001 L
b01001 O
b01001 m
00
#581
1i
10
1E
b01001 S
1/
1":
1n
1"4
1!
1"&
1h
1X
1q
#586
0/
b10101 O
0!
0":
b10101 a
b10101 w
0"4
b10101 m
b10101 j
0"&
b10101 N
0h
0X
b10101 L
b10101 .
b10101 y
0E
0q
0n
b10101 k
0i
b10101 M
00
#591
1i
10
1E
1/
1":
1n
1"4
1!
1"&
b10101 S
1h
1X
1q
#596
b11100 w
0/
0!
b11100 j
0":
0"4
b11100 N
b11100 a
0"&
b11100 y
b11100 k
0h
0X
b11100 M
b11100 m
0E
0q
0n
b11100 .
b11100 L
0i
00
b11100 O
#601
1i
10
1E
1/
b11100 S
1":
1n
1"4
1!
1"&
1h
1X
1q
#606
0/
0!
b10000 m
b10000 L
0":
b10000 N
b10000 k
b10000 y
0"4
0"&
b10000 O
b10000 .
0h
0X
b10000 M
b10000 a
0E
0q
0n
b10000 j
0i
00
b10000 w
#611
1i
10
1E
1/
b10000 S
1":
1"4
1n
1!
1"&
1h
1X
1q
#616
b10010 M
0/
0!
0":
b10010 m
b10010 y
b10010 a
b10010 .
0"4
0"&
b10010 O
0h
0X
b10010 N
b10010 j
b10010 k
0E
0q
0n
b10010 L
0i
00
b10010 w
#621
1i
10
1E
1/
1":
b10010 S
1"4
1n
1!
1"&
1h
1X
1q
#626
0/
b11010 w
0!
b11010 N
b11010 j
0":
b11010 m
b11010 M
0"4
0"&
b11010 a
0h
0X
b11010 k
b11010 O
b11010 .
0E
b11010 y
0q
0n
b11010 L
0i
00
#631
1i
b11010 S
10
1E
1/
1":
1n
1"4
1!
1"&
1h
1X
1q
#636
0/
0!
b11111 L
b11111 .
b11111 k
0":
0"4
b11111 O
0"&
0h
0X
b11111 N
b11111 w
b11111 m
0E
b11111 y
0q
0n
b11111 M
b11111 j
0i
00
b11111 a
#641
1i
10
1E
b11111 S
1/
1":
1n
1"4
1!
1"&
1h
1X
1q
#646
b00010 N
b00010 .
b00000000000000000000010000000000 "5
0":
b00000000000000000000010000000000 ,
0"4
b00000000000000000000010000000000 `
b00010 w
0"&
b00000000000000000000010000000000 K
b00010 m
0h
0X
b00000000000000000000010000000000 H
b00010 k
00
b00010 j
0/
b00010 a
0!
b00000000000000000000010000000000 "=
b00010 y
b00000000000000000000010000000000 _
b00010 L
0E
b00010 M
0q
0n
b00000000000000000000010000000000 "A
b00010 O
0i
b00000000000000000000010000000000 "8
#651
1i
1/
1":
1!
b00000000000000000000010000000000 1
1h
b00000000000000000000010000000000 +
b00000000000000000000010000000000 P
b00000000000000000000010000000000 ".
b00000000000000000000010000000000 =
10
1E
1n
1"4
1"&
b00010 S
1X
1q
b00000000000000000000010000000000 "$
#656
b11101 O
b00000000000000000000000000000000 _
b00000000000000000000000000000000 ".
b00000000000000000000000000000000 =
0":
b11101 L
b00000000000000000000000000000000 "5
b11101 M
0"4
0"&
0h
0X
b00000000000000000000000000000000 "8
b11101 j
b00000000000000000000000000000000 1
00
b00000000000000000000000000000000 K
b00000000000000000000000000000000 "=
0/
b00000000000000000000000000000000 `
0!
b00000000000000000000000000000000 "A
b11101 y
b00000000000000000000000000000000 H
b00000000000000000000000000000000 +
b11101 a
b00000000000000000000000000000000 ,
b00000000000000000000000000000000 P
b11101 w
0E
b11101 N
0q
0n
b11101 m
b11101 .
b11101 k
0i
#661
1i
1/
1":
1!
1h
b00000000000000000000000000000000 "$
10
1E
1n
1"4
1"&
1X
b11101 S
1q
#666
0/
0!
0":
b11001 N
0"4
b11001 y
b11001 w
0"&
0h
0X
b11001 L
b11001 j
b11001 M
0E
0q
0n
b11001 m
b11001 a
0i
b11001 k
b11001 O
b11001 .
00
#671
1i
10
1E
1/
1":
1n
1"4
1!
1"&
1h
1X
1q
b11001 S
#676
0/
0!
b10110 N
0":
b10110 M
b10110 m
b10110 w
0"4
b10110 L
0"&
0h
0X
b10110 k
b10110 .
b10110 O
0E
b10110 j
0q
0n
b10110 y
0i
b10110 a
00
#681
1i
b10110 S
10
1E
1/
1":
1n
1"4
1!
1"&
1h
1X
1q
#686
0/
0!
0":
0"4
0"&
0h
0X
b11110 N
b11110 .
b11110 L
b11110 a
b11110 m
b11110 y
b11110 M
0E
0q
0n
b11110 O
b11110 j
b11110 k
0i
b11110 w
00
#691
1i
b11110 S
10
1E
1/
1":
1n
1"4
1!
1"&
1h
1X
1q
#696
b00000001001000000000000000111101 ">
b00000 j
16
0@
0":
1"7
b00000001001000000000000000111101 Z
1u
0#
0"4
b000001111000 B
b00000 N
0b
0%
b00000000000000000000000001111000 [
b00000001001000000000000000111101 &
02
b00000000000000000000000001111000 I
0""
1p
b00000001001000000000000000111101 "+
0<
b00000001001000000000000000111101 c
0"
0e
0E
0n
1D
b00000000000000000000000001111000 :
b00000000000000000000000001111000 s
b00000001001000000000000000111101 "6
0i
b00000 M
b00000001001000000000000000111101 f
0*
b00000000000000000000000001111000 ?
b00000000000000000000000001111000 v
b00000000000000000000000001111000 U
1r
b00000 .
b00000 y
0"&
1"#
0h
0X
1"B
b00000 O
b00000 m
00
b00000000000000000000000001111000 F
0/
1"-
0!
1z
b00000001001000000000000000111101 "0
b00000 a
b00000 L
07
0q
b00000 k
0C
b00000 w
b00000000000000000000000001111000 ;
b00000001001000000000000000111101 "!
#701
1i
b00000001001000000000000000111101 d
1/
b00000 S
b00000001001000000000000000111101 "9
1":
b00000001001000000000000000111101 G
1!
1h
b000001111000 "(
0(
b00000001001000000000000000111101 ")
b000001111000 "'
b000001111000 -
b00000001001000000000000000111101 5
10
1E
1\
1n
1"4
1"&
1X
1q
b00000001001000000000000000111101 }
