waveforms/constants.s.vcd
$date
2021-12-01T09:31+0000
$end
$version
0.2
$end
$comment

$end
$timescale 1ns  $end
$scope module Tile $end
 $var wire 1 * io_regsWriteEnable $end
 $var wire 32 + io_regsReadData $end
 $var wire 32 4 io_IMEMAddress $end
 $var wire 1 < io_regsDeviceWriteEnable $end
 $var wire 32 I io_DMEMAddress $end
 $var wire 32 Z io_DMEMWriteData $end
 $var wire 1 ] CPU $end
 $var wire 32 _ io_regsDeviceWriteData $end
 $var wire 5 a io_regsDeviceWriteAddress $end
 $var wire 1 i clock $end
 $var wire 32 l io_currentPC $end
 $var wire 5 m io_regsAddress $end
 $var wire 1 u io_DMEMWriteEnable $end
 $var wire 32 v io_memDeviceWriteAddress $end
 $var wire 32 ~ io_IMEMWriteData $end
 $var wire 32 "! io_memDeviceWriteData $end
 $var wire 32 ") io_DMEMReadData $end
 $var wire 1 ", reset $end
 $var wire 1 "2 io_setup $end
 $var wire 1 "7 io_memDeviceWriteEnable $end
 $var wire 32 "A io_regsWriteData $end
  $scope module CPU.MEM $end
  $upscope $end
  $scope module CPU.ID.registers $end
  $upscope $end
  $scope module CPU.IF $end
  $upscope $end
  $scope module CPU.IF.IMEM $end
  $upscope $end
  $scope module CPU.MEM.DMEM $end
  $upscope $end
  $scope module CPU $end
   $var wire 1 2 testHarness_regUpdates_writeEnable $end
   $var wire 1 > ID $end
   $var wire 1 D testHarness_memUpdates_writeEnable $end
   $var wire 32 K testHarness_regUpdates_writeData $end
   $var wire 5 L testHarness_regUpdates_writeAddress $end
   $var wire 5 M testHarness_setupSignals_registerSignals_readAddress $end
   $var wire 32 P testHarness_testReadouts_registerRead $end
   $var wire 32 T testHarness_currentPC $end
   $var wire 1 W IF $end
   $var wire 32 [ testHarness_memUpdates_writeAddress $end
   $var wire 1 ^ testHarness_setupSignals_DMEMsignals_setup $end
   $var wire 32 d testHarness_testReadouts_DMEMread $end
   $var wire 32 f testHarness_setupSignals_DMEMsignals_dataIn $end
   $var wire 1 g testHarness_setupSignals_IMEMsignals_setup $end
   $var wire 1 q clock $end
   $var wire 32 s testHarness_setupSignals_DMEMsignals_dataAddress $end
   $var wire 1 x testHarness_setupSignals_registerSignals_setup $end
   $var wire 1 { MEM $end
   $var wire 1 "" testHarness_setupSignals_registerSignals_writeEnable $end
   $var wire 32 "6 testHarness_memUpdates_writeData $end
   $var wire 32 "= testHarness_setupSignals_registerSignals_writeData $end
   $var wire 1 "@ reset $end
   $var wire 1 "B testHarness_setupSignals_DMEMsignals_writeEnable $end
    $scope module MEM $end
     $var wire 1 8 DMEM $end
     $var wire 32 ; testHarness_testUpdates_writeAddress $end
     $var wire 32 U testHarness_DMEMsetup_dataAddress $end
     $var wire 1 p testHarness_testUpdates_writeEnable $end
     $var wire 1 z testHarness_DMEMsetup_writeEnable $end
     $var wire 32 } testHarness_DMEMpeek $end
     $var wire 1 "* testHarness_DMEMsetup_setup $end
     $var wire 32 "0 testHarness_testUpdates_writeData $end
     $var wire 1 "4 clock $end
     $var wire 32 "> testHarness_DMEMsetup_dataIn $end
      $scope module DMEM $end
       $var wire 32 & testHarness_testUpdates_writeData $end
       $var wire 1 ) _GEN_6 $end
       $var wire 12 - data__T_24_addr_pipe_0 $end
       $var wire 1 6 testHarness_testUpdates_writeEnable $end
       $var wire 32 : testHarness_setup_dataAddress $end
       $var wire 32 ? testHarness_testUpdates_writeAddress $end
       $var wire 32 F addressSource $end
       $var wire 32 J data $end
       $var wire 1 r testHarness_setup_writeEnable $end
       $var wire 1 t testHarness_setup_setup $end
       $var wire 1 "& clock $end
       $var wire 32 "+ testHarness_setup_dataIn $end
       $var wire 32 "9 io_dataOut $end
        $scope module data $end
          $scope module _T_26 $end
           $var wire 1 ! clk $end
           $var wire 12 B addr $end
           $var wire 32 G pipeline_data_0 $end
           $var wire 1 \ pipeline_valid_0 $end
           $var wire 32 c data $end
           $var wire 1 "# en $end
           $var wire 12 "' pipeline_addr_0 $end
           $var wire 1 "- valid $end
           $var wire 1 "< mask $end
          $upscope $end
          $scope module _T_24 $end
           $var wire 32 5 data $end
           $var wire 1 h clk $end
           $var wire 1 "% en $end
           $var wire 12 "( addr $end
          $upscope $end
        $upscope $end
      $upscope $end
    $upscope $end
    $scope module ID $end
     $var wire 1 " testHarness_registerSetup_writeEnable $end
     $var wire 32 = testHarness_registerPeek $end
     $var wire 1 C testHarness_testUpdates_writeEnable $end
     $var wire 32 H testHarness_registerSetup_writeData $end
     $var wire 5 N testHarness_testUpdates_writeAddress $end
     $var wire 5 k testHarness_registerSetup_readAddress $end
     $var wire 1 o registers $end
     $var wire 1 "3 testHarness_registerSetup_setup $end
     $var wire 32 "5 testHarness_testUpdates_writeData $end
     $var wire 1 ": clock $end
      $scope module registers $end
       $var wire 1 % testHarness_testUpdates_writeEnable $end
       $var wire 1 ' testHarness_setup_setup $end
       $var wire 32 , testHarness_testUpdates_writeData $end
       $var wire 5 . readAddress1 $end
       $var wire 1 0 clock $end
       $var wire 32 1 io_readData1 $end
       $var wire 32 3 registerFile $end
       $var wire 1 7 testHarness_setup_writeEnable $end
       $var wire 1 @ writeEnable $end
       $var wire 5 O testHarness_testUpdates_writeAddress $end
       $var wire 32 ` testHarness_setup_writeData $end
       $var wire 5 y testHarness_setup_readAddress $end
        $scope module registerFile $end
          $scope module _T_33 $end
           $var wire 1 # en $end
           $var wire 1 ( pipeline_valid_0 $end
           $var wire 1 / clk $end
           $var wire 5 S pipeline_addr_0 $end
           $var wire 1 V mask $end
           $var wire 1 e valid $end
           $var wire 5 w addr $end
           $var wire 32 "$ pipeline_data_0 $end
           $var wire 32 "8 data $end
          $upscope $end
          $scope module _T_41 $end
           $var wire 32 A data $end
           $var wire 1 R en $end
           $var wire 1 n clk $end
           $var wire 5 "1 addr $end
          $upscope $end
          $scope module _T_38 $end
           $var wire 1 E clk $end
           $var wire 1 b en $end
           $var wire 5 j addr $end
           $var wire 32 ". data $end
          $upscope $end
        $upscope $end
      $upscope $end
    $upscope $end
    $scope module IF $end
     $var wire 1 $ testHarness_IMEMsetup_setup $end
     $var wire 1 9 IMEM $end
     $var wire 32 Q PC $end
     $var wire 1 X clock $end
     $var wire 32 Y testHarness_PC $end
     $var wire 1 | reset $end
     $var wire 32 "? _GEN_0 $end
      $scope module IMEM $end
       $var wire 32 "/ testHarness_requestedAddress $end
       $var wire 32 "; io_instructionAddress $end
      $upscope $end
    $upscope $end
  $upscope $end
  $scope module CPU.ID $end
  $upscope $end
$upscope $end
$enddefinitions $end
$dumpvars
b00000000000000000000000000000000 Y
0C
0"7
1"<
0X
0""
b00000000000000000000000000000000 ">
0o
0R
b00000000000000000000000000000000 "8
b00000000000000000000000000000000 l
b00000000000000000000000000000000 :
b00000000000000000000000000000000 Q
b00000000000000000000000000000000 }
0g
b00000000000000000000000000000000 `
b00000000000000000000000000000000 ".
b00000000000000000000000000000000 K
b000000000000 "(
0"@
0D
0/
0"#
0x
0":
b00000 S
0z
0r
0]
1)
b00000000000000000000000000000000 s
b00000 j
0@
b00000000000000000000000000000000 A
0W
b00000000000000000000000000000000 ;
0%
b00000 O
b000000000000 -
b00000000000000000000000000000000 "=
b00000000000000000000000000000000 Z
0p
b00000000000000000000000000000000 T
b00000000000000000000000000000000 ?
0"2
0>
06
0!
b00000 .
b00000000000000000000000000000000 "9
0"4
b00000 y
b00000000000000000000000000000000 P
b00000000000000000000000000000000 3
0{
b00000000000000000000000000000000 "5
b00000000000000000000000000000000 J
b000000000000 "'
b00000000000000000000000000000000 "/
0"*
0b
0E
00
0(
b00000000000000000000000000000000 "+
b00000000000000000000000000000000 _
0u
1V
b00000000000000000000000000000000 [
b00000000000000000000000000000000 "6
b00000000000000000000000000000000 "!
0q
0i
b00000000000000000000000000000000 U
0"3
b00000 a
07
0"
b00000 L
09
0"-
b00000000000000000000000000000000 f
0e
b00000 "1
b00000000000000000000000000000000 I
b00000000000000000000000000000000 4
0|
b00000000000000000000000000000000 "0
b00000000000000000000000000000000 d
0"B
b00000000000000000000000000000000 G
b00000000000000000000000000000000 "A
b00000000000000000000000000000000 "$
b00000000000000000000000000000000 ,
b00000 M
0t
b00000000000000000000000000000000 ";
b00000000000000000000000000000000 &
0n
b00000000000000000000000000000000 =
0'
0<
b00000000000000000000000000000000 "?
b00000 w
08
0",
0#
02
b000000000000 B
b00000000000000000000000000000000 5
b00000000000000000000000000000000 ~
0h
b00000 m
b00000000000000000000000000000000 c
b00000000000000000000000000000000 ")
b00000000000000000000000000000000 F
b00000000000000000000000000000000 1
0\
b00000000000000000000000000000000 H
0"&
0*
b00000000000000000000000000000000 +
0^
b00000 k
b00000 N
1"%
0$
b00000000000000000000000000000000 v
$end
#0
1"@
1",
1|
#1
1h
1X
1n
1"&
1i
1!
10
1/
1E
1"4
1q
1":
#6
0i
0n
0!
0X
0"&
0h
0q
0"4
0":
0E
0/
00
#11
1h
1X
1n
1"&
1i
1!
10
1/
1E
1"4
1q
1":
#16
0i
0n
0!
0X
0"&
0h
0q
0"4
0":
0E
0/
00
#21
1h
1X
1n
1"&
1i
1!
10
1/
1E
1"4
1q
1":
#26
0i
0n
0!
0X
0"&
0h
0q
0"4
0":
0E
0/
00
#31
1h
1X
1n
1"&
1i
1!
10
1/
1E
1"4
1q
1":
#36
0i
0n
0!
0X
0"&
0h
0q
0"4
0":
0E
0/
00
#41
1h
1X
1n
1"&
1i
1!
10
1/
1E
1"4
1q
1":
#46
0i
0n
0"@
0!
1t
b00000000000000000000000000010011 ~
1"2
1$
0"&
1x
0h
0q
1"3
0"4
0":
1g
00
0X
0|
1'
1"*
0",
1^
0E
0/
#51
1h
1X
1n
1"&
1i
1!
10
1/
1E
1"4
1q
1":
#56
0i
0n
0!
0"&
0h
0q
0"4
0":
00
b00000000000000000000000000110011 ~
0X
b00000000000000000000000000000100 4
0E
0/
#61
1h
1X
1n
1"&
1i
1!
10
1/
1E
1"4
1q
1":
#66
0i
0n
0!
b00000000000000000000000000001000 4
b00001010101111001110000010110111 ~
0"&
0h
0q
0"4
0":
00
0X
0E
0/
#71
1h
1X
1n
1"&
1i
1!
10
1/
1E
1"4
1q
1":
#76
0i
0n
0!
0"&
0h
0q
0"4
0":
00
0X
b00000000000000000000000000001100 4
b11101111000000001000000010010011 ~
0E
0/
#81
1h
1X
1n
1"&
1i
1!
10
1/
1E
1"4
1q
1":
#86
0i
0n
0!
0"&
0h
0q
b00000000000000000000000000010000 4
0"4
0":
00
b00000000000000000000000000110011 ~
0X
0E
0/
#91
1h
1X
1n
1"&
1i
1!
10
1/
1E
1"4
1q
1":
#96
0i
0n
0!
0"&
b00000010000000000000000010010011 ~
b00000000000000000000000000010100 4
0h
0q
0"4
0":
00
0X
0E
0/
#101
1h
1X
1n
1"&
1i
1!
10
1/
1E
1"4
1q
1":
#106
0i
0n
0!
0"&
0h
0q
0"4
0":
00
0X
b00000000000000000000000000011000 4
b00000000000000000001000010110111 ~
0E
0/
#111
1h
1X
1n
1"&
1i
1!
10
1/
1E
1"4
1q
1":
#116
0i
0n
0!
0"&
0h
0q
0"4
0":
00
0X
b00000000000000000000000000011100 4
0E
0/
b10000000000000001000000010010011 ~
#121
1h
1X
1n
1"&
1i
1!
10
1/
1E
1"4
1q
1":
#126
0i
0n
b00000000000000000000000000100000 4
0!
0"&
0h
0q
0"4
0":
00
0X
b01111111111100000000000010010011 ~
0E
0/
#131
1h
1X
1n
1"&
1i
1!
10
1/
1E
1"4
1q
1":
#136
0i
0n
0!
0"&
0h
0q
0"4
0":
00
b00000000000000000000000000110011 ~
0X
b00000000000000000000000000100100 4
0E
0/
#141
1h
1X
1n
1"&
1i
1!
10
1/
1E
1"4
1q
1":
#146
0i
0n
0!
0X
b00000000000000000000000000101000 4
0"&
0h
0q
0"4
0":
0E
0/
00
#151
1h
1X
1n
1"&
1i
1!
10
1/
1E
1"4
1q
1":
#156
0i
0n
0!
b00000000000000000000000000010011 ~
0"&
0h
0q
0"4
0":
00
b00000000000000000000000000101100 4
0X
0E
0/
#161
1h
1X
1n
1"&
1i
1!
10
1/
1E
1"4
1q
1":
#166
b01110 w
0i
0n
1b
0!
1%
0"&
0q
1#
1*
0"4
1<
1C
b01110 j
00
0X
b01110 k
b01110 a
b01110 m
b01110 N
1@
b01110 L
b01110 O
b01110 .
1"
1e
0h
0":
1""
b01110 y
17
b00000000000000000000000000000000 ~
12
b00000000000000000000111111111100 4
0E
0/
b01110 M
#171
1(
1E
1/
10
1"4
1q
1":
1h
1X
1n
1"&
1i
1!
b01110 S
#176
b01010 M
0i
0n
0!
b01010 L
b01010 m
0"&
0h
0q
0"4
0":
b01010 O
b01010 j
00
b01010 k
0X
b01010 y
b01010 w
b01010 N
b01010 a
0E
0/
b01010 .
#181
1h
1X
1n
1"&
1i
1!
10
1/
1E
1"4
1q
b01010 S
1":
#186
0i
0n
b10001 O
0!
b10001 a
b10001 w
0"&
0h
0q
0"4
0":
00
0X
b10001 L
b10001 M
b10001 j
b10001 N
b10001 .
b10001 k
0E
0/
b10001 m
b10001 y
#191
1h
1X
1n
1"&
1i
1!
10
1/
b10001 S
1"4
1E
1q
1":
#196
b00000 m
b00000 a
0i
0n
0b
0!
b00000 .
0e
0"&
0h
0q
b00000 N
0"4
b00000 y
0":
b00000 w
00
b00000 M
0X
b00000 O
b00000 j
0#
b00000 L
b00000 k
0E
0/
#201
1E
1/
10
1"4
1q
1":
1h
1X
1n
1"&
1i
1!
b00000 S
0(
#206
0i
0n
b00100 N
0!
b00100 L
b00100 M
1b
1e
0"&
0h
0q
b00100 .
1#
0"4
0":
00
b00100 w
b00100 y
b00100 m
0X
b00100 a
b00100 O
b00100 k
b00100 j
0E
0/
#211
1(
1E
1/
10
1"4
1q
1":
1h
1X
1n
1"&
1i
b00100 S
1!
#216
0i
0n
b11000 a
0!
b11000 j
b11000 O
0"&
b11000 N
b11000 .
0h
0q
0"4
b11000 k
0":
00
b11000 L
b11000 M
0X
b11000 w
b11000 m
0E
0/
b11000 y
#221
1h
1X
1n
1"&
1i
1!
b11000 S
10
1/
1"4
1E
1q
1":
#226
0i
0n
b00000000000000000000000000010111 K
0!
b00110 m
b00110 M
b00000000000000000000000000010111 "=
0"&
0q
b00110 y
0"4
00
0X
b00000000000000000000000000010111 `
b00000000000000000000000000010111 "A
b00000000000000000000000000010111 ,
b00110 O
b00110 j
0h
0":
b00110 w
b00000000000000000000000000010111 "5
b00000000000000000000000000010111 "8
b00110 .
b00110 L
b00000000000000000000000000010111 H
b00110 k
b00000000000000000000000000010111 _
0E
0/
b00110 a
b00110 N
#231
b00000000000000000000000000010111 1
1E
1/
b00000000000000000000000000010111 P
b00110 S
10
1"4
b00000000000000000000000000010111 =
1q
1":
b00000000000000000000000000010111 "$
b00000000000000000000000000010111 +
1h
1X
1n
1"&
1i
1!
b00000000000000000000000000010111 ".
#236
0i
0n
0!
b00000000000000000000000000000000 "A
b10100 j
0"&
b00000000000000000000000000000000 _
b10100 w
0q
0"4
00
b00000000000000000000000000000000 ".
b10100 L
0X
b00000000000000000000000000000000 "8
b00000000000000000000000000000000 ,
b00000000000000000000000000000000 +
b00000000000000000000000000000000 `
b00000000000000000000000000000000 "5
b00000000000000000000000000000000 1
b10100 a
b10100 y
b00000000000000000000000000000000 "=
0h
b10100 k
b10100 N
0":
b10100 M
b10100 O
b00000000000000000000000000000000 H
b00000000000000000000000000000000 =
b00000000000000000000000000000000 K
b00000000000000000000000000000000 P
b10100 m
b10100 .
0E
0/
#241
1E
1/
10
1"4
b00000000000000000000000000000000 "$
1q
1":
1h
1X
1n
1"&
1i
1!
b10100 S
#246
b00000000000000000000000000101011 "8
0i
0n
0!
b00111 M
b00000000000000000000000000101011 `
b00111 .
0"&
b00000000000000000000000000101011 _
0q
b00000000000000000000000000101011 K
0"4
b00111 O
00
0X
b00000000000000000000000000101011 ,
b00111 y
b00111 w
b00111 N
b00111 k
b00111 j
b00000000000000000000000000101011 "5
b00000000000000000000000000101011 H
b00111 a
0h
0":
b00111 m
b00111 L
b00000000000000000000000000101011 "=
b00000000000000000000000000101011 "A
0E
0/
#251
b00000000000000000000000000101011 =
1E
1/
10
b00000000000000000000000000101011 P
1"4
b00000000000000000000000000101011 "$
1q
1":
1h
1X
b00000000000000000000000000101011 +
1n
1"&
1i
1!
b00000000000000000000000000101011 1
b00000000000000000000000000101011 ".
b00111 S
#256
0i
0n
0!
b00000000000000000000000000000000 "A
0"&
b00000000000000000000000000000000 _
0q
b00001 y
0"4
00
b00000000000000000000000000000000 ".
0X
b00000000000000000000000000000000 "8
b00000000000000000000000000000000 ,
b00001 m
b00000000000000000000000000000000 +
b00001 w
b00001 .
b00000000000000000000000000000000 `
b00000000000000000000000000000000 "5
b00000000000000000000000000000000 1
b00000000000000000000000000000000 "=
b00001 k
0h
b00001 M
0":
b00001 L
b00001 O
b00001 N
b00000000000000000000000000000000 H
b00000000000000000000000000000000 =
b00000000000000000000000000000000 K
b00001 j
b00000000000000000000000000000000 P
b00001 a
0E
0/
#261
1E
1/
10
1"4
b00000000000000000000000000000000 "$
1q
1":
1h
1X
1n
1"&
1i
1!
b00001 S
#266
0i
0n
b11011 k
0!
b11011 a
b11011 y
0"&
0h
0q
0"4
0":
b11011 .
00
0X
b11011 L
b11011 M
b11011 N
b11011 w
b11011 O
b11011 m
0E
0/
b11011 j
#271
1h
1X
1n
1"&
1i
1!
10
1/
1E
1"4
b11011 S
1q
1":
#276
b01101 .
b01101 w
0i
0n
b01101 O
0!
0"&
0h
0q
0"4
0":
b01101 M
00
b01101 y
0X
b01101 k
b01101 m
b01101 L
b01101 j
b01101 N
0E
0/
b01101 a
#281
1h
1X
1n
1"&
1i
1!
10
1/
1E
1"4
1q
1":
b01101 S
#286
b01011 .
0i
0n
0!
b01011 y
0"&
0h
0q
0"4
0":
b01011 k
00
b01011 M
b01011 j
b01011 O
0X
b01011 a
b01011 w
b01011 L
b01011 m
0E
0/
b01011 N
#291
1h
1X
1n
b01011 S
1i
1"&
1!
10
1/
1"4
1E
1q
1":
#296
b01100 a
0i
0n
b01100 L
0!
b01100 k
b01100 m
0"&
0h
0q
b01100 M
b01100 w
0"4
0":
b01100 j
00
b01100 y
0X
b01100 O
b01100 N
0E
0/
b01100 .
#301
1h
1X
1n
1"&
1i
1!
10
1/
1E
1"4
b01100 S
1q
1":
#306
0i
0n
b00011 O
0!
b00011 k
b00011 a
0"&
0h
0q
b00011 N
0"4
0":
b00011 j
00
b00011 L
0X
b00011 m
b00011 M
b00011 w
b00011 .
0E
0/
b00011 y
#311
1h
b00011 S
1X
1n
1"&
1i
1!
10
1/
1E
1"4
1q
1":
#316
0i
0n
0!
b00101 L
0"&
0q
b00000000000000000000000000001010 "=
0"4
b00101 a
00
b00101 w
b00000000000000000000000000001010 "8
b00000000000000000000000000001010 K
0X
b00000000000000000000000000001010 _
b00000000000000000000000000001010 "A
b00000000000000000000000000001010 H
b00101 .
0h
0":
b00101 O
b00101 N
b00101 k
b00000000000000000000000000001010 ,
b00101 m
b00000000000000000000000000001010 `
b00000000000000000000000000001010 "5
b00101 y
0E
0/
b00101 M
b00101 j
#321
1E
1/
10
b00000000000000000000000000001010 P
b00000000000000000000000000001010 +
1"4
1q
1":
b00000000000000000000000000001010 "$
1h
b00101 S
1X
1n
1"&
1i
1!
b00000000000000000000000000001010 ".
b00000000000000000000000000001010 =
b00000000000000000000000000001010 1
#326
0i
0n
0!
b00000000000000000000000000000000 "A
0"&
b00000000000000000000000000000000 _
0q
0"4
00
b00000000000000000000000000000000 ".
b10011 M
b10011 N
0X
b10011 O
b00000000000000000000000000000000 "8
b10011 w
b00000000000000000000000000000000 ,
b10011 k
b00000000000000000000000000000000 +
b10011 m
b00000000000000000000000000000000 `
b10011 L
b00000000000000000000000000000000 "5
b00000000000000000000000000000000 1
b10011 a
b00000000000000000000000000000000 "=
b10011 y
0h
0":
b10011 j
b10011 .
b00000000000000000000000000000000 H
b00000000000000000000000000000000 =
b00000000000000000000000000000000 K
b00000000000000000000000000000000 P
0E
0/
#331
1E
1/
10
1"4
b00000000000000000000000000000000 "$
1q
1":
1h
1X
1n
1"&
1i
1!
b10011 S
#336
0i
0n
b10111 O
0!
0"&
b10111 N
0h
0q
0"4
b10111 w
0":
b10111 y
00
b10111 a
b10111 j
b10111 k
0X
b10111 M
b10111 L
b10111 m
b10111 .
0E
0/
#341
1h
1X
1n
1"&
1i
1!
10
1/
b10111 S
1"4
1E
1q
1":
#346
b01111 N
0i
0n
0!
b01111 y
b01111 w
0"&
0h
0q
b01111 O
0"4
0":
00
b01111 j
0X
b01111 a
b01111 M
b01111 k
b01111 .
b01111 L
0E
0/
b01111 m
#351
b01111 S
1h
1X
1n
1"&
1i
1!
10
1/
1E
1"4
1q
1":
#356
0i
0n
0!
0"&
b01000 y
0h
0q
b01000 k
0"4
0":
b01000 M
00
b01000 O
0X
b01000 .
b01000 j
b01000 L
b01000 m
0E
0/
b01000 a
b01000 N
b01000 w
#361
1h
1X
1n
1"&
1i
1!
10
1/
1E
1"4
b01000 S
1q
1":
#366
0i
0n
0!
b01001 O
0"&
0h
0q
b01001 L
0"4
0":
b01001 y
00
b01001 k
b01001 N
0X
b01001 j
b01001 w
b01001 a
b01001 M
b01001 .
b01001 m
0E
0/
#371
1h
1X
1n
1"&
1i
1!
10
1/
1E
1"4
1q
b01001 S
1":
#376
0i
0n
b10101 M
0!
b10101 y
0"&
0h
0q
b10101 w
b10101 j
0"4
0":
00
b10101 N
b10101 a
0X
b10101 m
b10101 L
b10101 .
b10101 k
b10101 O
0E
0/
#381
1h
1X
1n
1"&
1i
1!
10
1/
1E
1"4
1q
b10101 S
1":
#386
0i
0n
0!
b11111111111111111111111111110101 "5
0"&
b11111111111111111111111111110101 K
0q
b11111111111111111111111111110101 "=
0"4
b11100 .
b11111111111111111111111111110101 ,
00
b11100 m
b11100 O
0X
b11111111111111111111111111110101 `
b11111111111111111111111111110101 H
b11111111111111111111111111110101 _
b11100 y
0h
b11111111111111111111111111110101 "8
0":
b11100 M
b11100 L
b11100 w
b11100 k
b11100 j
b11111111111111111111111111110101 "A
b11100 N
b11100 a
0E
0/
#391
b11111111111111111111111111110101 1
1E
1/
10
1"4
b11111111111111111111111111110101 +
1q
1":
1h
1X
1n
1"&
1i
1!
b11111111111111111111111111110101 ".
b11111111111111111111111111110101 P
b11100 S
b11111111111111111111111111110101 =
b11111111111111111111111111110101 "$
#396
0i
0n
0!
b00000000000000000000000000000000 "A
b10000 L
0"&
b00000000000000000000000000000000 _
b10000 N
0q
0"4
00
b10000 M
b00000000000000000000000000000000 ".
b10000 j
0X
b00000000000000000000000000000000 "8
b00000000000000000000000000000000 ,
b10000 .
b00000000000000000000000000000000 +
b00000000000000000000000000000000 `
b00000000000000000000000000000000 "5
b10000 a
b00000000000000000000000000000000 1
b10000 w
b00000000000000000000000000000000 "=
0h
b10000 m
0":
b10000 O
b00000000000000000000000000000000 H
b00000000000000000000000000000000 =
b10000 y
b00000000000000000000000000000000 K
b00000000000000000000000000000000 P
b10000 k
0E
0/
#401
1E
1/
10
1"4
b00000000000000000000000000000000 "$
1q
1":
1h
1X
1n
1"&
1i
1!
b10000 S
#406
0i
0n
b10010 j
0!
b10010 .
0"&
0h
0q
b10010 O
0"4
0":
b10010 M
00
b10010 y
b10010 k
b10010 N
0X
b10010 w
b10010 m
b10010 a
0E
0/
b10010 L
#411
1h
1X
1n
1"&
1i
1!
10
1/
1E
1"4
1q
b10010 S
1":
#416
b11010 y
0i
0n
b11010 N
0!
b11010 O
b11010 m
b11010 M
b11010 a
b11010 k
0"&
b11010 w
0h
0q
0"4
0":
00
b11010 j
0X
b11010 .
b11010 L
0E
0/
#421
1h
1X
1n
1"&
1i
1!
10
1/
1E
1"4
b11010 S
1q
1":
#426
b11111 y
0i
0n
0!
b11111 N
0"&
0h
0q
0"4
b11111 M
0":
b11111 a
00
0X
b11111 j
b11111 m
b11111 w
b11111 .
b11111 L
b11111 k
b11111 O
0E
0/
#431
1h
1X
1n
1"&
1i
1!
10
1/
1E
1"4
1q
b11111 S
1":
#436
0i
0n
0!
b00010 a
b00010 O
b00000000000000000000010000000000 H
b00000000000000000000010000000000 ,
b00010 k
0"&
b00000000000000000000010000000000 "A
b00010 N
b00010 j
0q
0"4
b00010 w
00
b00000000000000000000010000000000 "=
0X
b00000000000000000000010000000000 `
b00010 y
b00010 L
b00000000000000000000010000000000 K
b00000000000000000000010000000000 "5
b00000000000000000000010000000000 "8
0h
0":
b00000000000000000000010000000000 _
b00010 M
b00010 m
b00010 .
0E
0/
#441
b00000000000000000000010000000000 1
1E
b00010 S
1/
10
b00000000000000000000010000000000 ".
b00000000000000000000010000000000 =
1"4
b00000000000000000000010000000000 +
1q
1":
1h
1X
1n
1"&
1i
b00000000000000000000010000000000 "$
1!
b00000000000000000000010000000000 P
#446
0i
0n
0!
b00000000000000000000000000000000 "A
b11101 k
0"&
b00000000000000000000000000000000 _
0q
0"4
00
b00000000000000000000000000000000 ".
b11101 a
0X
b00000000000000000000000000000000 "8
b00000000000000000000000000000000 ,
b11101 w
b00000000000000000000000000000000 +
b00000000000000000000000000000000 `
b00000000000000000000000000000000 "5
b11101 .
b11101 m
b11101 L
b00000000000000000000000000000000 1
b11101 y
b11101 N
b00000000000000000000000000000000 "=
0h
0":
b11101 M
b11101 O
b00000000000000000000000000000000 H
b00000000000000000000000000000000 =
b00000000000000000000000000000000 K
b00000000000000000000000000000000 P
0E
0/
b11101 j
#451
1E
b11101 S
1/
10
1"4
b00000000000000000000000000000000 "$
1q
1":
1h
1X
1n
1"&
1i
1!
#456
0i
0n
0!
0"&
0h
0q
b11001 .
0"4
0":
b11001 L
b11001 w
b11001 y
00
b11001 a
0X
b11001 k
b11001 m
b11001 M
b11001 j
b11001 O
b11001 N
0E
0/
#461
1h
1X
1n
1"&
1i
1!
10
1/
1E
1"4
b11001 S
1q
1":
#466
0i
0n
b10110 k
0!
b10110 j
b10110 M
0"&
b10110 N
0h
0q
0"4
0":
b10110 m
b10110 w
00
b10110 .
0X
b10110 O
b10110 L
b10110 y
0E
0/
b10110 a
#471
1h
1X
1n
1"&
1i
1!
10
1/
1E
1"4
1q
b10110 S
1":
#476
0i
0n
0!
0"&
0h
0q
b11110 L
b11110 .
0"4
b11110 M
0":
b11110 O
b11110 a
00
b11110 y
b11110 N
b11110 k
0X
b11110 m
b11110 w
0E
0/
b11110 j
#481
1h
1X
1n
1"&
1i
1!
10
1/
1E
1"4
1q
1":
b11110 S
#486
b00000 m
0i
0n
0b
0!
b00000 .
07
0"&
b00000 N
0q
0@
0"4
b00000 y
00
0*
0X
0"
b00000 a
0C
0""
0e
0h
0%
0":
b00000 w
b00000 M
b00000 O
0<
02
b00000 j
0#
b00000 L
b00000 k
0E
0/
#491
1E
1/
10
1"4
1q
1":
1h
1X
1n
1"&
1i
1!
b00000 S
0(
#496
0i
0n
0!
0X
0"&
0h
0q
0"4
0":
0E
0/
00
#501
1h
1X
1n
1"&
1i
1!
10
1/
1E
1"4
1q
1":
#506
0i
0n
0!
0X
0"&
0h
0q
0"4
0":
0E
0/
00
#511
1h
1X
1n
1"&
1i
1!
10
1/
1E
1"4
1q
1":
#516
0i
0n
0!
0X
0"&
0h
0q
0"4
0":
0E
0/
00
#521
1h
1X
1n
1"&
1i
1!
10
1/
1E
1"4
1q
1":
#526
0i
0n
0!
0X
0"&
0h
0q
0"4
0":
0E
0/
00
#531
1h
1X
1n
1"&
1i
1!
10
1/
1E
1"4
1q
1":
#536
0i
0n
0!
0X
0"&
0h
0q
0"4
0":
0E
0/
00
#541
1h
1X
1n
1"&
1i
1!
10
1/
1E
1"4
1q
1":
#546
0g
0i
0n
0!
0"&
0h
0q
0"4
0"2
0":
0'
00
0t
0^
0X
0"3
0x
0$
0E
0/
0"*
