waveforms/forward1.s.vcd
$date
2021-12-01T09:30+0000
$end
$version
0.2
$end
$comment

$end
$timescale 1ns  $end
$scope module Tile $end
 $var wire 1 * io_regsWriteEnable $end
 $var wire 32 + io_regsReadData $end
 $var wire 32 4 io_IMEMAddress $end
 $var wire 1 < io_regsDeviceWriteEnable $end
 $var wire 32 I io_DMEMAddress $end
 $var wire 32 Z io_DMEMWriteData $end
 $var wire 1 ] CPU $end
 $var wire 32 _ io_regsDeviceWriteData $end
 $var wire 5 a io_regsDeviceWriteAddress $end
 $var wire 1 i clock $end
 $var wire 32 l io_currentPC $end
 $var wire 5 m io_regsAddress $end
 $var wire 1 u io_DMEMWriteEnable $end
 $var wire 32 v io_memDeviceWriteAddress $end
 $var wire 32 ~ io_IMEMWriteData $end
 $var wire 32 "! io_memDeviceWriteData $end
 $var wire 32 ") io_DMEMReadData $end
 $var wire 1 ", reset $end
 $var wire 1 "2 io_setup $end
 $var wire 1 "7 io_memDeviceWriteEnable $end
 $var wire 32 "A io_regsWriteData $end
  $scope module CPU.MEM $end
  $upscope $end
  $scope module CPU.ID.registers $end
  $upscope $end
  $scope module CPU.IF $end
  $upscope $end
  $scope module CPU.IF.IMEM $end
  $upscope $end
  $scope module CPU.MEM.DMEM $end
  $upscope $end
  $scope module CPU $end
   $var wire 1 2 testHarness_regUpdates_writeEnable $end
   $var wire 1 > ID $end
   $var wire 1 D testHarness_memUpdates_writeEnable $end
   $var wire 32 K testHarness_regUpdates_writeData $end
   $var wire 5 L testHarness_regUpdates_writeAddress $end
   $var wire 5 M testHarness_setupSignals_registerSignals_readAddress $end
   $var wire 32 P testHarness_testReadouts_registerRead $end
   $var wire 32 T testHarness_currentPC $end
   $var wire 1 W IF $end
   $var wire 32 [ testHarness_memUpdates_writeAddress $end
   $var wire 1 ^ testHarness_setupSignals_DMEMsignals_setup $end
   $var wire 32 d testHarness_testReadouts_DMEMread $end
   $var wire 32 f testHarness_setupSignals_DMEMsignals_dataIn $end
   $var wire 1 g testHarness_setupSignals_IMEMsignals_setup $end
   $var wire 1 q clock $end
   $var wire 32 s testHarness_setupSignals_DMEMsignals_dataAddress $end
   $var wire 1 x testHarness_setupSignals_registerSignals_setup $end
   $var wire 1 { MEM $end
   $var wire 1 "" testHarness_setupSignals_registerSignals_writeEnable $end
   $var wire 32 "6 testHarness_memUpdates_writeData $end
   $var wire 32 "= testHarness_setupSignals_registerSignals_writeData $end
   $var wire 1 "@ reset $end
   $var wire 1 "B testHarness_setupSignals_DMEMsignals_writeEnable $end
    $scope module MEM $end
     $var wire 1 8 DMEM $end
     $var wire 32 ; testHarness_testUpdates_writeAddress $end
     $var wire 32 U testHarness_DMEMsetup_dataAddress $end
     $var wire 1 p testHarness_testUpdates_writeEnable $end
     $var wire 1 z testHarness_DMEMsetup_writeEnable $end
     $var wire 32 } testHarness_DMEMpeek $end
     $var wire 1 "* testHarness_DMEMsetup_setup $end
     $var wire 32 "0 testHarness_testUpdates_writeData $end
     $var wire 1 "4 clock $end
     $var wire 32 "> testHarness_DMEMsetup_dataIn $end
      $scope module DMEM $end
       $var wire 32 & testHarness_testUpdates_writeData $end
       $var wire 1 ) _GEN_6 $end
       $var wire 12 - data__T_24_addr_pipe_0 $end
       $var wire 1 6 testHarness_testUpdates_writeEnable $end
       $var wire 32 : testHarness_setup_dataAddress $end
       $var wire 32 ? testHarness_testUpdates_writeAddress $end
       $var wire 32 F addressSource $end
       $var wire 32 J data $end
       $var wire 1 r testHarness_setup_writeEnable $end
       $var wire 1 t testHarness_setup_setup $end
       $var wire 1 "& clock $end
       $var wire 32 "+ testHarness_setup_dataIn $end
       $var wire 32 "9 io_dataOut $end
        $scope module data $end
          $scope module _T_26 $end
           $var wire 1 ! clk $end
           $var wire 12 B addr $end
           $var wire 32 G pipeline_data_0 $end
           $var wire 1 \ pipeline_valid_0 $end
           $var wire 32 c data $end
           $var wire 1 "# en $end
           $var wire 12 "' pipeline_addr_0 $end
           $var wire 1 "- valid $end
           $var wire 1 "< mask $end
          $upscope $end
          $scope module _T_24 $end
           $var wire 32 5 data $end
           $var wire 1 h clk $end
           $var wire 1 "% en $end
           $var wire 12 "( addr $end
          $upscope $end
        $upscope $end
      $upscope $end
    $upscope $end
    $scope module ID $end
     $var wire 1 " testHarness_registerSetup_writeEnable $end
     $var wire 32 = testHarness_registerPeek $end
     $var wire 1 C testHarness_testUpdates_writeEnable $end
     $var wire 32 H testHarness_registerSetup_writeData $end
     $var wire 5 N testHarness_testUpdates_writeAddress $end
     $var wire 5 k testHarness_registerSetup_readAddress $end
     $var wire 1 o registers $end
     $var wire 1 "3 testHarness_registerSetup_setup $end
     $var wire 32 "5 testHarness_testUpdates_writeData $end
     $var wire 1 ": clock $end
      $scope module registers $end
       $var wire 1 % testHarness_testUpdates_writeEnable $end
       $var wire 1 ' testHarness_setup_setup $end
       $var wire 32 , testHarness_testUpdates_writeData $end
       $var wire 5 . readAddress1 $end
       $var wire 1 0 clock $end
       $var wire 32 1 io_readData1 $end
       $var wire 32 3 registerFile $end
       $var wire 1 7 testHarness_setup_writeEnable $end
       $var wire 1 @ writeEnable $end
       $var wire 5 O testHarness_testUpdates_writeAddress $end
       $var wire 32 ` testHarness_setup_writeData $end
       $var wire 5 y testHarness_setup_readAddress $end
        $scope module registerFile $end
          $scope module _T_33 $end
           $var wire 1 # en $end
           $var wire 1 ( pipeline_valid_0 $end
           $var wire 1 / clk $end
           $var wire 5 S pipeline_addr_0 $end
           $var wire 1 V mask $end
           $var wire 1 e valid $end
           $var wire 5 w addr $end
           $var wire 32 "$ pipeline_data_0 $end
           $var wire 32 "8 data $end
          $upscope $end
          $scope module _T_41 $end
           $var wire 32 A data $end
           $var wire 1 R en $end
           $var wire 1 n clk $end
           $var wire 5 "1 addr $end
          $upscope $end
          $scope module _T_38 $end
           $var wire 1 E clk $end
           $var wire 1 b en $end
           $var wire 5 j addr $end
           $var wire 32 ". data $end
          $upscope $end
        $upscope $end
      $upscope $end
    $upscope $end
    $scope module IF $end
     $var wire 1 $ testHarness_IMEMsetup_setup $end
     $var wire 1 9 IMEM $end
     $var wire 32 Q PC $end
     $var wire 1 X clock $end
     $var wire 32 Y testHarness_PC $end
     $var wire 1 | reset $end
     $var wire 32 "? _GEN_0 $end
      $scope module IMEM $end
       $var wire 32 "/ testHarness_requestedAddress $end
       $var wire 32 "; io_instructionAddress $end
      $upscope $end
    $upscope $end
  $upscope $end
  $scope module CPU.ID $end
  $upscope $end
$upscope $end
$enddefinitions $end
$dumpvars
0X
0C
b00000000000000000000000000000000 Y
0""
1"<
0"7
0o
b00000000000000000000000000000000 ">
0R
b00000000000000000000000000000000 "8
b00000000000000000000000000000000 l
b00000000000000000000000000000000 :
b00000000000000000000000000000000 Q
b00000000000000000000000000000000 }
0g
b00000000000000000000000000000000 `
b00000000000000000000000000000000 K
b00000000000000000000000000000000 ".
b000000000000 "(
0"@
0D
0/
0"#
0x
0":
b00000 S
0z
0r
0]
b00000000000000000000000000000000 s
1)
b00000 j
b00000000000000000000000000000000 A
0@
0W
b00000 O
b00000000000000000000000000000000 ;
0%
b000000000000 -
b00000000000000000000000000000000 "=
b00000000000000000000000000000000 Z
0p
b00000000000000000000000000000000 T
0>
b00000000000000000000000000000000 ?
0"2
06
0!
b00000 .
b00000000000000000000000000000000 "9
0"4
b00000 y
b00000000000000000000000000000000 P
b00000000000000000000000000000000 3
0{
b00000000000000000000000000000000 "5
b00000000000000000000000000000000 J
b000000000000 "'
b00000000000000000000000000000000 "/
0"*
0b
0E
00
0(
b00000000000000000000000000000000 "+
b00000000000000000000000000000000 _
0u
1V
b00000000000000000000000000000000 [
b00000000000000000000000000000000 "6
b00000000000000000000000000000000 "!
0q
0i
b00000000000000000000000000000000 U
0"3
b00000 a
b00000 L
0"
07
09
0"-
0e
b00000000000000000000000000000000 f
b00000 "1
b00000000000000000000000000000000 I
b00000000000000000000000000000000 4
0|
b00000000000000000000000000000000 "0
b00000000000000000000000000000000 d
0"B
b00000000000000000000000000000000 G
b00000000000000000000000000000000 "A
b00000000000000000000000000000000 "$
b00000000000000000000000000000000 ,
b00000 M
0t
b00000000000000000000000000000000 ";
b00000000000000000000000000000000 &
0n
b00000000000000000000000000000000 =
0'
0<
b00000000000000000000000000000000 "?
b00000 w
08
0#
0",
02
b000000000000 B
b00000000000000000000000000000000 5
b00000000000000000000000000000000 ~
0h
b00000 m
b00000000000000000000000000000000 c
b00000000000000000000000000000000 ")
b00000000000000000000000000000000 F
b00000000000000000000000000000000 1
0\
b00000000000000000000000000000000 H
0"&
0*
b00000000000000000000000000000000 +
0^
b00000 k
b00000 N
1"%
0$
b00000000000000000000000000000000 v
$end
#0
1",
1"@
1|
#1
1h
1E
1q
1"&
1X
1n
10
1i
1"4
1":
1!
1/
#6
0q
0":
00
0n
0/
0X
0h
0E
0"4
0!
0i
0"&
#11
1h
1E
1q
1"&
1X
1n
10
1i
1"4
1":
1!
1/
#16
0q
0":
00
0n
0/
0X
0h
0E
0"4
0!
0i
0"&
#21
1h
1E
1q
1"&
1X
1n
10
1i
1"4
1":
1!
1/
#26
0q
0":
00
0n
0/
0X
0h
0E
0"4
0!
0i
0"&
#31
1h
1E
1q
1"&
1X
1n
10
1i
1"4
1":
1!
1/
#36
0q
0":
00
0n
0/
0X
0h
0E
0"4
0!
0i
0"&
#41
1h
1E
1q
1"&
1X
1n
10
1i
1"4
1":
1!
1/
#46
1"2
0":
0"@
0|
0n
1"3
1"*
0!
1^
b00011010111000001011000110010011 ~
0q
00
1x
1t
0/
1'
0",
1g
0X
0h
0E
0"4
1$
0i
0"&
#51
1h
1E
1q
1"&
1X
1n
10
1i
1"4
1":
1!
1/
#56
b00000000000000000000000000000100 4
b00000000010100010101000100010011 ~
0":
0n
0!
0q
00
0/
0X
0h
0E
0"4
0i
0"&
#61
1h
1E
1q
1"&
1X
1n
10
1i
1"4
1":
1!
1/
#66
0":
0n
b00000000000000000000000000001000 4
0!
0q
b00010111011100010000000010010011 ~
00
0/
0X
0h
0E
0"4
0i
0"&
#71
1h
1E
1q
1"&
1X
1n
10
1i
1"4
1":
1!
1/
#76
0":
0n
0!
b00000000000000000000000000001100 4
0q
00
0/
0X
0h
b01000000001100001101000100010011 ~
0E
0"4
0i
0"&
#81
1h
1E
1q
1"&
1X
1n
10
1i
1"4
1":
1!
1/
#86
0":
0n
0!
0q
b00000000000000000000000000010000 4
00
0/
0X
0h
0E
0"4
0i
0"&
b01000000001000001000000100110011 ~
#91
1h
1E
1q
1"&
1X
1n
10
1i
1"4
1":
1!
1/
#96
0":
b00000000101100001001000100010011 ~
0n
0!
0q
00
b00000000000000000000000000010100 4
0/
0X
0h
0E
0"4
0i
0"&
#101
1h
1E
1q
1"&
1X
1n
10
1i
1"4
1":
1!
1/
#106
0":
0n
b00000000000000000000000000011000 4
0!
0q
00
0/
b00000000000100011000000100110011 ~
0X
0h
0E
0"4
0i
0"&
#111
1h
1E
1q
1"&
1X
1n
10
1i
1"4
1":
1!
1/
#116
b00000000011000010001000110010011 ~
0":
0n
b00000000000000000000000000011100 4
0!
0q
00
0/
0X
0h
0E
0"4
0i
0"&
#121
1h
1E
1q
1"&
1X
1n
10
1i
1"4
1":
1!
1/
#126
0":
0n
0!
0q
00
0/
0X
0h
b00000000000000000000000000100000 4
0E
0"4
b11110110010000001110000100010011 ~
0i
0"&
#131
1h
1E
1q
1"&
1X
1n
10
1i
1"4
1":
1!
1/
#136
0":
0n
0!
0q
00
b00000000000000000000000000100100 4
0/
0X
0h
0E
0"4
b00000000001100011111000110110011 ~
0i
0"&
#141
1h
1E
1q
1"&
1X
1n
10
1i
1"4
1":
1!
1/
#146
0":
b00000000000000000000000000101000 4
0n
0!
0q
b00001000010000011111000110010011 ~
00
0/
0X
0h
0E
0"4
0i
0"&
#151
1h
1E
1q
1"&
1X
1n
10
1i
1"4
1":
1!
1/
#156
0":
0n
b11101011010000001100000010010011 ~
0!
0q
00
0/
0X
0h
0E
0"4
0i
0"&
b00000000000000000000000000101100 4
#161
1h
1E
1q
1"&
1X
1n
10
1i
1"4
1":
1!
1/
#166
0":
0n
0!
b00000000000100001110000100110011 ~
0q
00
0/
0X
0h
0E
0"4
b00000000000000000000000000110000 4
0i
0"&
#171
1h
1E
1q
1"&
1X
1n
10
1i
1"4
1":
1!
1/
#176
0":
0n
0!
b00000000000000000000000000110100 4
0q
00
0/
b00000111100000001000000100010011 ~
0X
0h
0E
0"4
0i
0"&
#181
1h
1E
1q
1"&
1X
1n
10
1i
1"4
1":
1!
1/
#186
0":
0n
0!
0q
00
0/
0X
0h
0E
0"4
b00000000000000000000000000111000 4
0i
0"&
b11110001111000010011000100010011 ~
#191
1h
1E
1q
1"&
1X
1n
10
1i
1"4
1":
1!
1/
#196
0":
0n
b00000000000000010101000110010011 ~
0!
b00000000000000000000000000111100 4
0q
00
0/
0X
0h
0E
0"4
0i
0"&
#201
1h
1E
1q
1"&
1X
1n
10
1i
1"4
1":
1!
1/
#206
0":
0n
b00000000000000000000000001000000 4
0!
0q
00
b11101111011100001010000100010011 ~
0/
0X
0h
0E
0"4
0i
0"&
#211
1h
1E
1q
1"&
1X
1n
10
1i
1"4
1":
1!
1/
#216
0":
0n
0!
b01000000000100001101000010010011 ~
0q
00
0/
0X
0h
0E
0"4
b00000000000000000000000001000100 4
0i
0"&
#221
1h
1E
1q
1"&
1X
1n
10
1i
1"4
1":
1!
1/
#226
0":
0n
0!
0q
00
0/
0X
0h
b00000000001100001110000100110011 ~
0E
0"4
b00000000000000000000000001001000 4
0i
0"&
#231
1h
1E
1q
1"&
1X
1n
10
1i
1"4
1":
1!
1/
#236
0":
0n
0!
0q
00
b00000000000000000000000001001100 4
0/
0X
0h
0E
0"4
0i
0"&
b00000000000100010100000100110011 ~
#241
1h
1E
1q
1"&
1X
1n
10
1i
1"4
1":
1!
1/
#246
0":
0n
0!
0q
00
0/
0X
0h
0E
0"4
0i
0"&
b01000000001000001000000100110011 ~
b00000000000000000000000001010000 4
#251
1h
1E
1q
1"&
1X
1n
10
1i
1"4
1":
1!
1/
#256
0":
0n
b01000000000100011000000010110011 ~
0!
0q
00
0/
b00000000000000000000000001010100 4
0X
0h
0E
0"4
0i
0"&
#261
1h
1E
1q
1"&
1X
1n
10
1i
1"4
1":
1!
1/
#266
0":
0n
0!
b11101000010100010011000110010011 ~
0q
00
b00000000000000000000000001011000 4
0/
0X
0h
0E
0"4
0i
0"&
#271
1h
1E
1q
1"&
1X
1n
10
1i
1"4
1":
1!
1/
#276
0":
0n
b00000000000000000000000001011100 4
0!
b00010111110000011000000100010011 ~
0q
00
0/
0X
0h
0E
0"4
0i
0"&
#281
1h
1E
1q
1"&
1X
1n
10
1i
1"4
1":
1!
1/
#286
0":
0n
0!
b11110110010000011011000010010011 ~
0q
00
b00000000000000000000000001100000 4
0/
0X
0h
0E
0"4
0i
0"&
#291
1h
1E
1q
1"&
1X
1n
10
1i
1"4
1":
1!
1/
#296
0":
0n
0!
0q
00
b00001010000100011100000100010011 ~
0/
0X
0h
0E
0"4
0i
0"&
b00000000000000000000000001100100 4
#301
1h
1E
1q
1"&
1X
1n
10
1i
1"4
1":
1!
1/
#306
b00000000001100010100000010110011 ~
0":
0n
0!
0q
00
b00000000000000000000000001101000 4
0/
0X
0h
0E
0"4
0i
0"&
#311
1h
1E
1q
1"&
1X
1n
10
1i
1"4
1":
1!
1/
#316
0":
0n
0!
0q
00
0/
0X
0h
b00000000000000000000000001101100 4
0E
0"4
0i
0"&
b00001011011000001110000110010011 ~
#321
1h
1E
1q
1"&
1X
1n
10
1i
1"4
1":
1!
1/
#326
0":
0n
b00000000000000000000000001110000 4
0!
0q
00
b00000000001000001000000010110011 ~
0/
0X
0h
0E
0"4
0i
0"&
#331
1h
1E
1q
1"&
1X
1n
10
1i
1"4
1":
1!
1/
#336
0":
b11111110110000001011000110010011 ~
0n
0!
0q
00
0/
b00000000000000000000000001110100 4
0X
0h
0E
0"4
0i
0"&
#341
1h
1E
1q
1"&
1X
1n
10
1i
1"4
1":
1!
1/
#346
0":
0n
0!
0q
00
0/
0X
0h
0E
0"4
b00000000000000000000000001111000 4
b00000000000100010011000110110011 ~
0i
0"&
#351
1h
1E
1q
1"&
1X
1n
10
1i
1"4
1":
1!
1/
#356
0":
b00000000001100001001000100110011 ~
b00000000000000000000000001111100 4
0n
0!
0q
00
0/
0X
0h
0E
0"4
0i
0"&
#361
1h
1E
1q
1"&
1X
1n
10
1i
1"4
1":
1!
1/
#366
0":
0n
0!
0q
00
0/
b00000000000000000000000010000000 4
0X
0h
0E
0"4
0i
0"&
b00000000000100001000000110110011 ~
#371
1h
1E
1q
1"&
1X
1n
10
1i
1"4
1":
1!
1/
#376
b00000000001100001110000110110011 ~
0":
0n
b00000000000000000000000010000100 4
0!
0q
00
0/
0X
0h
0E
0"4
0i
0"&
#381
1h
1E
1q
1"&
1X
1n
10
1i
1"4
1":
1!
1/
#386
0":
0n
b00000000000000000000000010001000 4
0!
0q
00
0/
0X
0h
0E
0"4
b00000000001000001100000100110011 ~
0i
0"&
#391
1h
1E
1q
1"&
1X
1n
10
1i
1"4
1":
1!
1/
#396
0":
b11110100110000011000000100010011 ~
0n
0!
0q
00
0/
0X
0h
0E
0"4
b00000000000000000000000010001100 4
0i
0"&
#401
1h
1E
1q
1"&
1X
1n
10
1i
1"4
1":
1!
1/
#406
b00000000001100010100000010110011 ~
0":
b00000000000000000000000010010000 4
0n
0!
0q
00
0/
0X
0h
0E
0"4
0i
0"&
#411
1h
1E
1q
1"&
1X
1n
10
1i
1"4
1":
1!
1/
#416
0":
b11110111001000010100000010010011 ~
0n
0!
0q
00
0/
0X
0h
b00000000000000000000000010010100 4
0E
0"4
0i
0"&
#421
1h
1E
1q
1"&
1X
1n
10
1i
1"4
1":
1!
1/
#426
0":
0n
0!
0q
00
0/
b00000000000000000000000010011000 4
0X
0h
b11101001010100010100000110010011 ~
0E
0"4
0i
0"&
#431
1h
1E
1q
1"&
1X
1n
10
1i
1"4
1":
1!
1/
#436
0":
0n
0!
b00000000000100001110000010110011 ~
0q
00
0/
0X
0h
0E
0"4
b00000000000000000000000010011100 4
0i
0"&
#441
1h
1E
1q
1"&
1X
1n
10
1i
1"4
1":
1!
1/
#446
0":
b11100111010100011010000010010011 ~
0n
0!
0q
00
0/
0X
0h
0E
0"4
b00000000000000000000000010100000 4
0i
0"&
#451
1h
1E
1q
1"&
1X
1n
10
1i
1"4
1":
1!
1/
#456
0":
0n
0!
0q
00
0/
0X
0h
0E
0"4
0i
0"&
b00000000010000010001000100010011 ~
b00000000000000000000000010100100 4
#461
1h
1E
1q
1"&
1X
1n
10
1i
1"4
1":
1!
1/
#466
0":
0n
0!
0q
00
0/
0X
0h
b00000000000000000000000010101000 4
0E
0"4
b11100010010100001011000010010011 ~
0i
0"&
#471
1h
1E
1q
1"&
1X
1n
10
1i
1"4
1":
1!
1/
#476
0":
0n
b00000000000000000000000010101100 4
b00000000001100001000000100110011 ~
0!
0q
00
0/
0X
0h
0E
0"4
0i
0"&
#481
1h
1E
1q
1"&
1X
1n
10
1i
1"4
1":
1!
1/
#486
0":
0n
0!
b00000000000000000000000010110000 4
0q
00
0/
0X
0h
0E
0"4
b11111101101100011011000110010011 ~
0i
0"&
#491
1h
1E
1q
1"&
1X
1n
10
1i
1"4
1":
1!
1/
#496
0":
0n
b00000000000000000000000010110100 4
0!
0q
00
0/
0X
0h
0E
0"4
0i
0"&
b00000011110100010000000100010011 ~
#501
1h
1E
1q
1"&
1X
1n
10
1i
1"4
1":
1!
1/
#506
0":
0n
b00000000000000000000000010111000 4
b00000000001000001001000010110011 ~
0!
0q
00
0/
0X
0h
0E
0"4
0i
0"&
#511
1h
1E
1q
1"&
1X
1n
10
1i
1"4
1":
1!
1/
#516
0":
0n
b00010010110000001110000010010011 ~
0!
0q
00
b00000000000000000000000010111100 4
0/
0X
0h
0E
0"4
0i
0"&
#521
1h
1E
1q
1"&
1X
1n
10
1i
1"4
1":
1!
1/
#526
0":
0n
0!
b00000000001100001000000110110011 ~
0q
b00000000000000000000000011000000 4
00
0/
0X
0h
0E
0"4
0i
0"&
#531
1h
1E
1q
1"&
1X
1n
10
1i
1"4
1":
1!
1/
#536
0":
0n
b00010101011100010100000100010011 ~
0!
0q
00
0/
b00000000000000000000000011000100 4
0X
0h
0E
0"4
0i
0"&
#541
1h
1E
1q
1"&
1X
1n
10
1i
1"4
1":
1!
1/
#546
0":
0n
0!
b11110010101000010010000110010011 ~
0q
00
0/
0X
0h
0E
0"4
0i
0"&
b00000000000000000000000011001000 4
#551
1h
1E
1q
1"&
1X
1n
10
1i
1"4
1":
1!
1/
#556
0":
b00000000000000000000000011001100 4
0n
0!
0q
00
b00000000000100001111000100110011 ~
0/
0X
0h
0E
0"4
0i
0"&
#561
1h
1E
1q
1"&
1X
1n
10
1i
1"4
1":
1!
1/
#566
0":
0n
0!
0q
b00000000000000000000000011010000 4
00
0/
0X
0h
0E
0"4
0i
0"&
b00000000000100001000000110110011 ~
#571
1h
1E
1q
1"&
1X
1n
10
1i
1"4
1":
1!
1/
#576
0":
0n
0!
b00000000000000000000000011010100 4
0q
00
0/
0X
0h
b11100101011000011011000010010011 ~
0E
0"4
0i
0"&
#581
1h
1E
1q
1"&
1X
1n
10
1i
1"4
1":
1!
1/
#586
0":
0n
b00000000000000000000000011011000 4
0!
b01000000000100011101000110110011 ~
0q
00
0/
0X
0h
0E
0"4
0i
0"&
#591
1h
1E
1q
1"&
1X
1n
10
1i
1"4
1":
1!
1/
#596
0":
0n
0!
b00000000000000000000000011011100 4
0q
00
0/
0X
0h
b11110000110100011100000100010011 ~
0E
0"4
0i
0"&
#601
1h
1E
1q
1"&
1X
1n
10
1i
1"4
1":
1!
1/
#606
0":
0n
b01000000000100011000000100110011 ~
0!
0q
00
0/
0X
0h
0E
0"4
b00000000000000000000000011100000 4
0i
0"&
#611
1h
1E
1q
1"&
1X
1n
10
1i
1"4
1":
1!
1/
#616
0":
b00010101010000001010000010010011 ~
0n
b00000000000000000000000011100100 4
0!
0q
00
0/
0X
0h
0E
0"4
0i
0"&
#621
1h
1E
1q
1"&
1X
1n
10
1i
1"4
1":
1!
1/
#626
0":
0n
b00000000000000000000000011101000 4
0!
0q
00
0/
0X
0h
0E
0"4
0i
0"&
b00000000101000001001000010010011 ~
#631
1h
1E
1q
1"&
1X
1n
10
1i
1"4
1":
1!
1/
#636
0":
0n
b00000000000000000000000011101100 4
0!
b11101100001000011110000010010011 ~
0q
00
0/
0X
0h
0E
0"4
0i
0"&
#641
1h
1E
1q
1"&
1X
1n
10
1i
1"4
1":
1!
1/
#646
0":
0n
0!
b00000000000000000000000011110000 4
0q
00
b00000111010100010110000010010011 ~
0/
0X
0h
0E
0"4
0i
0"&
#651
1h
1E
1q
1"&
1X
1n
10
1i
1"4
1":
1!
1/
#656
0":
0n
b00000111100100010000000110010011 ~
0!
0q
00
0/
0X
0h
0E
0"4
b00000000000000000000000011110100 4
0i
0"&
#661
1h
1E
1q
1"&
1X
1n
10
1i
1"4
1":
1!
1/
#666
0":
0n
0!
0q
00
0/
0X
0h
b00000000001000001100000110110011 ~
0E
0"4
b00000000000000000000000011111000 4
0i
0"&
#671
1h
1E
1q
1"&
1X
1n
10
1i
1"4
1":
1!
1/
#676
0":
0n
0!
b00000000000000000000000011111100 4
0q
00
0/
b00000000100000010101000010010011 ~
0X
0h
0E
0"4
0i
0"&
#681
1h
1E
1q
1"&
1X
1n
10
1i
1"4
1":
1!
1/
#686
b00000000000000000000000100000000 4
0":
0n
0!
0q
00
0/
0X
0h
0E
0"4
0i
0"&
b01000000111100001101000010010011 ~
#691
1h
1E
1q
1"&
1X
1n
10
1i
1"4
1":
1!
1/
#696
0":
0n
0!
0q
00
0/
b00000000011000011001000110010011 ~
0X
0h
0E
0"4
0i
0"&
b00000000000000000000000100000100 4
#701
1h
1E
1q
1"&
1X
1n
10
1i
1"4
1":
1!
1/
#706
0":
0n
0!
0q
b00000000000000000000000100001000 4
00
0/
b01000000001100011101000100110011 ~
0X
0h
0E
0"4
0i
0"&
#711
1h
1E
1q
1"&
1X
1n
10
1i
1"4
1":
1!
1/
#716
0":
0n
0!
0q
00
0/
0X
0h
b00000000001000010000000100110011 ~
0E
0"4
b00000000000000000000000100001100 4
0i
0"&
#721
1h
1E
1q
1"&
1X
1n
10
1i
1"4
1":
1!
1/
#726
0":
0n
b00000000000000000000000100010000 4
0!
0q
00
0/
0X
0h
0E
0"4
0i
0"&
b01000000000100010101000010010011 ~
#731
1h
1E
1q
1"&
1X
1n
10
1i
1"4
1":
1!
1/
#736
0":
b00000000000000000000000100010100 4
0n
b00000001000000001001000110010011 ~
0!
0q
00
0/
0X
0h
0E
0"4
0i
0"&
#741
1h
1E
1q
1"&
1X
1n
10
1i
1"4
1":
1!
1/
#746
0":
0n
b00000000000000000000000100011000 4
0!
b11111010100000001111000010010011 ~
0q
00
0/
0X
0h
0E
0"4
0i
0"&
#751
1h
1E
1q
1"&
1X
1n
10
1i
1"4
1":
1!
1/
#756
0":
0n
b00000000000000000000000100011100 4
0!
0q
00
0/
b00000000001000001000000100110011 ~
0X
0h
0E
0"4
0i
0"&
#761
1h
1E
1q
1"&
1X
1n
10
1i
1"4
1":
1!
1/
#766
0":
0n
0!
0q
00
0/
b01000000111000011101000010010011 ~
0X
0h
0E
0"4
b00000000000000000000000100100000 4
0i
0"&
#771
1h
1E
1q
1"&
1X
1n
10
1i
1"4
1":
1!
1/
#776
0":
0n
b00000000000000000000000100100100 4
0!
0q
b01000000010100010101000010010011 ~
00
0/
0X
0h
0E
0"4
0i
0"&
#781
1h
1E
1q
1"&
1X
1n
10
1i
1"4
1":
1!
1/
#786
0":
b11111000001100011000000010010011 ~
0n
0!
0q
00
0/
0X
0h
b00000000000000000000000100101000 4
0E
0"4
0i
0"&
#791
1h
1E
1q
1"&
1X
1n
10
1i
1"4
1":
1!
1/
#796
0":
0n
0!
0q
00
b00000000000100010100000110110011 ~
0/
b00000000000000000000000100101100 4
0X
0h
0E
0"4
0i
0"&
#801
1h
1E
1q
1"&
1X
1n
10
1i
1"4
1":
1!
1/
#806
0":
0n
0!
b00000000000000000000000100110000 4
0q
00
0/
0X
0h
0E
0"4
0i
0"&
b01000000010000011101000100010011 ~
#811
1h
1E
1q
1"&
1X
1n
10
1i
1"4
1":
1!
1/
#816
0":
0n
0!
0q
00
0/
b00000000011100001101000010010011 ~
0X
0h
0E
0"4
0i
0"&
b00000000000000000000000100110100 4
#821
1h
1E
1q
1"&
1X
1n
10
1i
1"4
1":
1!
1/
#826
0":
0n
b00000000001100001001000110110011 ~
0!
0q
00
0/
b00000000000000000000000100111000 4
0X
0h
0E
0"4
0i
0"&
#831
1h
1E
1q
1"&
1X
1n
10
1i
1"4
1":
1!
1/
#836
b00010110001100011100000110010011 ~
0":
0n
0!
0q
00
0/
b00000000000000000000000100111100 4
0X
0h
0E
0"4
0i
0"&
#841
1h
1E
1q
1"&
1X
1n
10
1i
1"4
1":
1!
1/
#846
0":
0n
b00000000001100011000000010110011 ~
0!
0q
00
0/
0X
0h
0E
0"4
0i
0"&
b00000000000000000000000101000000 4
#851
1h
1E
1q
1"&
1X
1n
10
1i
1"4
1":
1!
1/
#856
b00000000000000000000000101000100 4
0":
0n
0!
0q
00
0/
0X
0h
b00000000101100011101000110010011 ~
0E
0"4
0i
0"&
#861
1h
1E
1q
1"&
1X
1n
10
1i
1"4
1":
1!
1/
#866
0":
0n
0!
b00000000000000000000000101001000 4
0q
00
0/
0X
0h
b00000000000100001000000100110011 ~
0E
0"4
0i
0"&
#871
1h
1E
1q
1"&
1X
1n
10
1i
1"4
1":
1!
1/
#876
0":
0n
0!
b00000000001000001011000010110011 ~
0q
00
0/
0X
0h
b00000000000000000000000101001100 4
0E
0"4
0i
0"&
#881
1h
1E
1q
1"&
1X
1n
10
1i
1"4
1":
1!
1/
#886
0":
b00000000000000000000000101010000 4
0n
0!
b00000000000100001001000100110011 ~
0q
00
0/
0X
0h
0E
0"4
0i
0"&
#891
1h
1E
1q
1"&
1X
1n
10
1i
1"4
1":
1!
1/
#896
0":
b11110110101100010110000100010011 ~
0n
0!
0q
00
0/
0X
0h
0E
0"4
b00000000000000000000000101010100 4
0i
0"&
#901
1h
1E
1q
1"&
1X
1n
10
1i
1"4
1":
1!
1/
#906
0":
0n
0!
b00000000000000000000000101011000 4
0q
00
0/
b00000000011000011001000110010011 ~
0X
0h
0E
0"4
0i
0"&
#911
1h
1E
1q
1"&
1X
1n
10
1i
1"4
1":
1!
1/
#916
0":
0n
b00001010011100001100000100010011 ~
0!
0q
00
0/
b00000000000000000000000101011100 4
0X
0h
0E
0"4
0i
0"&
#921
1h
1E
1q
1"&
1X
1n
10
1i
1"4
1":
1!
1/
#926
0":
0n
0!
0q
00
0/
b00000000000000000000000101100000 4
0X
0h
b00000000000100001000000100110011 ~
0E
0"4
0i
0"&
#931
1h
1E
1q
1"&
1X
1n
10
1i
1"4
1":
1!
1/
#936
0":
0n
b00000000000000000000000101100100 4
b00000000001100011000000010110011 ~
0!
0q
00
0/
0X
0h
0E
0"4
0i
0"&
#941
1h
1E
1q
1"&
1X
1n
10
1i
1"4
1":
1!
1/
#946
0":
b11111110100100011000000110010011 ~
0n
0!
0q
00
0/
0X
0h
0E
0"4
0i
0"&
b00000000000000000000000101101000 4
#951
1h
1E
1q
1"&
1X
1n
10
1i
1"4
1":
1!
1/
#956
0":
0n
0!
0q
00
b01000000001100001101000100110011 ~
0/
b00000000000000000000000101101100 4
0X
0h
0E
0"4
0i
0"&
