waveforms/forward2.s.vcd
$date
2021-12-01T09:30+0000
$end
$version
0.2
$end
$comment

$end
$timescale 1ns  $end
$scope module Tile $end
 $var wire 1 * io_regsWriteEnable $end
 $var wire 32 + io_regsReadData $end
 $var wire 32 4 io_IMEMAddress $end
 $var wire 1 < io_regsDeviceWriteEnable $end
 $var wire 32 I io_DMEMAddress $end
 $var wire 32 Z io_DMEMWriteData $end
 $var wire 1 ] CPU $end
 $var wire 32 _ io_regsDeviceWriteData $end
 $var wire 5 a io_regsDeviceWriteAddress $end
 $var wire 1 i clock $end
 $var wire 32 l io_currentPC $end
 $var wire 5 m io_regsAddress $end
 $var wire 1 u io_DMEMWriteEnable $end
 $var wire 32 v io_memDeviceWriteAddress $end
 $var wire 32 ~ io_IMEMWriteData $end
 $var wire 32 "! io_memDeviceWriteData $end
 $var wire 32 ") io_DMEMReadData $end
 $var wire 1 ", reset $end
 $var wire 1 "2 io_setup $end
 $var wire 1 "7 io_memDeviceWriteEnable $end
 $var wire 32 "A io_regsWriteData $end
  $scope module CPU.MEM $end
  $upscope $end
  $scope module CPU.ID.registers $end
  $upscope $end
  $scope module CPU.IF $end
  $upscope $end
  $scope module CPU.IF.IMEM $end
  $upscope $end
  $scope module CPU.MEM.DMEM $end
  $upscope $end
  $scope module CPU $end
   $var wire 1 2 testHarness_regUpdates_writeEnable $end
   $var wire 1 > ID $end
   $var wire 1 D testHarness_memUpdates_writeEnable $end
   $var wire 32 K testHarness_regUpdates_writeData $end
   $var wire 5 L testHarness_regUpdates_writeAddress $end
   $var wire 5 M testHarness_setupSignals_registerSignals_readAddress $end
   $var wire 32 P testHarness_testReadouts_registerRead $end
   $var wire 32 T testHarness_currentPC $end
   $var wire 1 W IF $end
   $var wire 32 [ testHarness_memUpdates_writeAddress $end
   $var wire 1 ^ testHarness_setupSignals_DMEMsignals_setup $end
   $var wire 32 d testHarness_testReadouts_DMEMread $end
   $var wire 32 f testHarness_setupSignals_DMEMsignals_dataIn $end
   $var wire 1 g testHarness_setupSignals_IMEMsignals_setup $end
   $var wire 1 q clock $end
   $var wire 32 s testHarness_setupSignals_DMEMsignals_dataAddress $end
   $var wire 1 x testHarness_setupSignals_registerSignals_setup $end
   $var wire 1 { MEM $end
   $var wire 1 "" testHarness_setupSignals_registerSignals_writeEnable $end
   $var wire 32 "6 testHarness_memUpdates_writeData $end
   $var wire 32 "= testHarness_setupSignals_registerSignals_writeData $end
   $var wire 1 "@ reset $end
   $var wire 1 "B testHarness_setupSignals_DMEMsignals_writeEnable $end
    $scope module MEM $end
     $var wire 1 8 DMEM $end
     $var wire 32 ; testHarness_testUpdates_writeAddress $end
     $var wire 32 U testHarness_DMEMsetup_dataAddress $end
     $var wire 1 p testHarness_testUpdates_writeEnable $end
     $var wire 1 z testHarness_DMEMsetup_writeEnable $end
     $var wire 32 } testHarness_DMEMpeek $end
     $var wire 1 "* testHarness_DMEMsetup_setup $end
     $var wire 32 "0 testHarness_testUpdates_writeData $end
     $var wire 1 "4 clock $end
     $var wire 32 "> testHarness_DMEMsetup_dataIn $end
      $scope module DMEM $end
       $var wire 32 & testHarness_testUpdates_writeData $end
       $var wire 1 ) _GEN_6 $end
       $var wire 12 - data__T_24_addr_pipe_0 $end
       $var wire 1 6 testHarness_testUpdates_writeEnable $end
       $var wire 32 : testHarness_setup_dataAddress $end
       $var wire 32 ? testHarness_testUpdates_writeAddress $end
       $var wire 32 F addressSource $end
       $var wire 32 J data $end
       $var wire 1 r testHarness_setup_writeEnable $end
       $var wire 1 t testHarness_setup_setup $end
       $var wire 1 "& clock $end
       $var wire 32 "+ testHarness_setup_dataIn $end
       $var wire 32 "9 io_dataOut $end
        $scope module data $end
          $scope module _T_26 $end
           $var wire 1 ! clk $end
           $var wire 12 B addr $end
           $var wire 32 G pipeline_data_0 $end
           $var wire 1 \ pipeline_valid_0 $end
           $var wire 32 c data $end
           $var wire 1 "# en $end
           $var wire 12 "' pipeline_addr_0 $end
           $var wire 1 "- valid $end
           $var wire 1 "< mask $end
          $upscope $end
          $scope module _T_24 $end
           $var wire 32 5 data $end
           $var wire 1 h clk $end
           $var wire 1 "% en $end
           $var wire 12 "( addr $end
          $upscope $end
        $upscope $end
      $upscope $end
    $upscope $end
    $scope module ID $end
     $var wire 1 " testHarness_registerSetup_writeEnable $end
     $var wire 32 = testHarness_registerPeek $end
     $var wire 1 C testHarness_testUpdates_writeEnable $end
     $var wire 32 H testHarness_registerSetup_writeData $end
     $var wire 5 N testHarness_testUpdates_writeAddress $end
     $var wire 5 k testHarness_registerSetup_readAddress $end
     $var wire 1 o registers $end
     $var wire 1 "3 testHarness_registerSetup_setup $end
     $var wire 32 "5 testHarness_testUpdates_writeData $end
     $var wire 1 ": clock $end
      $scope module registers $end
       $var wire 1 % testHarness_testUpdates_writeEnable $end
       $var wire 1 ' testHarness_setup_setup $end
       $var wire 32 , testHarness_testUpdates_writeData $end
       $var wire 5 . readAddress1 $end
       $var wire 1 0 clock $end
       $var wire 32 1 io_readData1 $end
       $var wire 32 3 registerFile $end
       $var wire 1 7 testHarness_setup_writeEnable $end
       $var wire 1 @ writeEnable $end
       $var wire 5 O testHarness_testUpdates_writeAddress $end
       $var wire 32 ` testHarness_setup_writeData $end
       $var wire 5 y testHarness_setup_readAddress $end
        $scope module registerFile $end
          $scope module _T_33 $end
           $var wire 1 # en $end
           $var wire 1 ( pipeline_valid_0 $end
           $var wire 1 / clk $end
           $var wire 5 S pipeline_addr_0 $end
           $var wire 1 V mask $end
           $var wire 1 e valid $end
           $var wire 5 w addr $end
           $var wire 32 "$ pipeline_data_0 $end
           $var wire 32 "8 data $end
          $upscope $end
          $scope module _T_41 $end
           $var wire 32 A data $end
           $var wire 1 R en $end
           $var wire 1 n clk $end
           $var wire 5 "1 addr $end
          $upscope $end
          $scope module _T_38 $end
           $var wire 1 E clk $end
           $var wire 1 b en $end
           $var wire 5 j addr $end
           $var wire 32 ". data $end
          $upscope $end
        $upscope $end
      $upscope $end
    $upscope $end
    $scope module IF $end
     $var wire 1 $ testHarness_IMEMsetup_setup $end
     $var wire 1 9 IMEM $end
     $var wire 32 Q PC $end
     $var wire 1 X clock $end
     $var wire 32 Y testHarness_PC $end
     $var wire 1 | reset $end
     $var wire 32 "? _GEN_0 $end
      $scope module IMEM $end
       $var wire 32 "/ testHarness_requestedAddress $end
       $var wire 32 "; io_instructionAddress $end
      $upscope $end
    $upscope $end
  $upscope $end
  $scope module CPU.ID $end
  $upscope $end
$upscope $end
$enddefinitions $end
$dumpvars
b00000000000000000000000000000000 Y
0C
0"7
0""
1"<
0X
0o
b00000000000000000000000000000000 ">
0R
b00000000000000000000000000000000 "8
b00000000000000000000000000000000 l
b00000000000000000000000000000000 :
b00000000000000000000000000000000 Q
b00000000000000000000000000000000 }
0g
b00000000000000000000000000000000 ".
b00000000000000000000000000000000 `
b00000000000000000000000000000000 K
b000000000000 "(
0"@
0D
0/
0"#
0x
0":
b00000 S
0z
b00000000000000000000000000000000 s
0]
1)
0r
b00000 j
0@
b00000000000000000000000000000000 A
0W
b00000000000000000000000000000000 ;
0%
b00000 O
b000000000000 -
b00000000000000000000000000000000 "=
b00000000000000000000000000000000 Z
0p
b00000000000000000000000000000000 T
0>
0"2
b00000000000000000000000000000000 ?
06
0!
b00000 .
b00000000000000000000000000000000 "9
0"4
b00000 y
b00000000000000000000000000000000 P
b00000000000000000000000000000000 3
0{
b00000000000000000000000000000000 "5
b00000000000000000000000000000000 J
b000000000000 "'
b00000000000000000000000000000000 "/
0"*
0b
0E
00
0(
b00000000000000000000000000000000 "+
b00000000000000000000000000000000 _
0u
1V
b00000000000000000000000000000000 [
b00000000000000000000000000000000 "6
b00000000000000000000000000000000 "!
0q
0i
b00000000000000000000000000000000 U
0"3
b00000 a
07
0"
b00000 L
09
0"-
0e
b00000000000000000000000000000000 f
b00000 "1
b00000000000000000000000000000000 I
b00000000000000000000000000000000 4
0|
b00000000000000000000000000000000 "0
b00000000000000000000000000000000 d
0"B
b00000000000000000000000000000000 G
b00000000000000000000000000000000 "A
b00000000000000000000000000000000 "$
b00000000000000000000000000000000 ,
b00000 M
0t
b00000000000000000000000000000000 ";
b00000000000000000000000000000000 &
0n
0<
0'
b00000000000000000000000000000000 =
b00000000000000000000000000000000 "?
b00000 w
08
0",
0#
02
b000000000000 B
b00000000000000000000000000000000 5
b00000000000000000000000000000000 ~
0h
b00000 m
b00000000000000000000000000000000 c
b00000000000000000000000000000000 ")
b00000000000000000000000000000000 F
b00000000000000000000000000000000 1
0\
b00000000000000000000000000000000 H
0"&
b00000000000000000000000000000000 +
0*
0^
b00000 k
1"%
b00000 N
0$
b00000000000000000000000000000000 v
$end
#0
1"@
1",
1|
#1
1i
1!
1E
1/
1":
1"4
10
1q
1h
1"&
1X
1n
#6
0i
0/
0E
0X
0h
0":
0"&
00
0q
0!
0n
0"4
#11
1i
1!
1E
1/
1":
1"4
10
1q
1h
1"&
1X
1n
#16
0i
0/
0E
0X
0h
0":
0"&
00
0q
0!
0n
0"4
#21
1i
1!
1E
1/
1":
1"4
10
1q
1h
1"&
1X
1n
#26
0i
0/
0E
0X
0h
0":
0"&
00
0q
0!
0n
0"4
#31
1i
1!
1E
1/
1":
1"4
10
1q
1h
1"&
1X
1n
#36
0i
0/
0E
0X
0h
0":
0"&
00
0q
0!
0n
0"4
#41
1i
1!
1E
1/
1":
1"4
10
1q
1h
1"&
1X
1n
#46
0i
0E
0|
0"@
1"3
0":
1'
0"&
1"2
b11100000100100011110000110010011 ~
1"*
0q
0!
0",
0/
1x
0X
0h
1t
1$
00
1^
0n
0"4
1g
#51
1i
1!
1E
1/
1":
1"4
10
1q
1h
1"&
1X
1n
#56
0i
0E
b00000000000000000000000000000100 4
0":
0"&
0q
0!
0/
0X
0h
00
b00000000000100011111000110110011 ~
0n
0"4
#61
1i
1!
1E
1/
1":
1"4
10
1q
1h
1"&
1X
1n
#66
0i
0E
0":
0"&
0q
0!
0/
0X
b00000000001000001101000100010011 ~
0h
00
b00000000000000000000000000001000 4
0n
0"4
#71
1i
1!
1E
1/
1":
1"4
10
1q
1h
1"&
1X
1n
#76
0i
0E
0":
0"&
0q
0!
b00000000000000000000000000001100 4
0/
0X
0h
b00000000001000001100000010110011 ~
00
0n
0"4
#81
1i
1!
1E
1/
1":
1"4
10
1q
1h
1"&
1X
1n
#86
0i
0E
0":
0"&
0q
0!
b00000000000000000000000000010000 4
0/
0X
0h
b00000000000100001110000100110011 ~
00
0n
0"4
#91
1i
1!
1E
1/
1":
1"4
10
1q
1h
1"&
1X
1n
#96
0i
0E
b00000000000000000000000000010100 4
0":
0"&
0q
0!
0/
0X
0h
00
0n
0"4
b00000011110100010100000010010011 ~
#101
1i
1!
1E
1/
1":
1"4
10
1q
1h
1"&
1X
1n
#106
0i
0E
0":
0"&
0q
0!
0/
b00000000000000000000000000011000 4
0X
0h
b00000001001000010000000010010011 ~
00
0n
0"4
#111
1i
1!
1E
1/
1":
1"4
10
1q
1h
1"&
1X
1n
#116
0i
0E
0":
0"&
0q
0!
0/
0X
0h
b00000000001000011000000010110011 ~
00
0n
0"4
b00000000000000000000000000011100 4
#121
1i
1!
1E
1/
1":
1"4
10
1q
1h
1"&
1X
1n
#126
0i
b00000000000000000000000000100000 4
b11111011100000001110000110010011 ~
0E
0":
0"&
0q
0!
0/
0X
0h
00
0n
0"4
#131
1i
1!
1E
1/
1":
1"4
10
1q
1h
1"&
1X
1n
#136
0i
0E
0":
0"&
0q
0!
b00000000000000000000000000100100 4
0/
0X
0h
00
0n
0"4
b00000000000100001001000010110011 ~
#141
1i
1!
1E
1/
1":
1"4
10
1q
1h
1"&
1X
1n
#146
0i
0E
0":
0"&
0q
0!
0/
0X
0h
00
b00000000000100011001000100110011 ~
0n
0"4
b00000000000000000000000000101000 4
#151
1i
1!
1E
1/
1":
1"4
10
1q
1h
1"&
1X
1n
#156
0i
b00000000000000000000000000101100 4
0E
0":
0"&
0q
0!
0/
0X
0h
b00000000000100011010000010110011 ~
00
0n
0"4
#161
1i
1!
1E
1/
1":
1"4
10
1q
1h
1"&
1X
1n
#166
0i
0E
0":
0"&
0q
0!
0/
0X
b00000000000000000000000000110000 4
0h
00
0n
0"4
b01000000010100011101000110010011 ~
#171
1i
1!
1E
1/
1":
1"4
10
1q
1h
1"&
1X
1n
#176
0i
0E
0":
0"&
b00000000011100001001000010010011 ~
0q
0!
0/
b00000000000000000000000000110100 4
0X
0h
00
0n
0"4
#181
1i
1!
1E
1/
1":
1"4
10
1q
1h
1"&
1X
1n
#186
0i
0E
b01000000001000011000000100110011 ~
0":
0"&
0q
0!
0/
0X
0h
00
0n
0"4
b00000000000000000000000000111000 4
#191
1i
1!
1E
1/
1":
1"4
10
1q
1h
1"&
1X
1n
#196
0i
0E
0":
0"&
0q
0!
0/
0X
0h
00
b00000010110100011111000010010011 ~
0n
0"4
b00000000000000000000000000111100 4
#201
1i
1!
1E
1/
1":
1"4
10
1q
1h
1"&
1X
1n
#206
0i
0E
0":
0"&
b01000000001000011000000110110011 ~
0q
0!
b00000000000000000000000001000000 4
0/
0X
0h
00
0n
0"4
#211
1i
1!
1E
1/
1":
1"4
10
1q
1h
1"&
1X
1n
#216
0i
0E
b01000000010100011101000010010011 ~
0":
0"&
0q
0!
0/
0X
0h
b00000000000000000000000001000100 4
00
0n
0"4
#221
1i
1!
1E
1/
1":
1"4
10
1q
1h
1"&
1X
1n
#226
0i
0E
0":
0"&
0q
0!
0/
0X
0h
00
b00000000000000000000000001001000 4
b00000000001000001110000100110011 ~
0n
0"4
#231
1i
1!
1E
1/
1":
1"4
10
1q
1h
1"&
1X
1n
#236
0i
0E
0":
0"&
0q
b11110101010000011100000010010011 ~
0!
0/
0X
0h
b00000000000000000000000001001100 4
00
0n
0"4
#241
1i
1!
1E
1/
1":
1"4
10
1q
1h
1"&
1X
1n
#246
0i
0E
b00000000000000000000000001010000 4
0":
0"&
0q
0!
b00000000000100010001000010110011 ~
0/
0X
0h
00
0n
0"4
#251
1i
1!
1E
1/
1":
1"4
10
1q
1h
1"&
1X
1n
#256
0i
0E
b00000000000000000000000001010100 4
0":
0"&
b01000000001000011000000110110011 ~
0q
0!
0/
0X
0h
00
0n
0"4
#261
1i
1!
1E
1/
1":
1"4
10
1q
1h
1"&
1X
1n
#266
0i
0E
b00000000000000000000000001011000 4
0":
0"&
0q
0!
b00000000001000010000000010110011 ~
0/
0X
0h
00
0n
0"4
#271
1i
1!
1E
1/
1":
1"4
10
1q
1h
1"&
1X
1n
#276
0i
0E
0":
0"&
0q
0!
b00000000000100011001000010110011 ~
0/
0X
0h
b00000000000000000000000001011100 4
00
0n
0"4
#281
1i
1!
1E
1/
1":
1"4
10
1q
1h
1"&
1X
1n
#286
0i
0E
0":
0"&
0q
0!
0/
0X
0h
00
b00000000001000010000000110110011 ~
b00000000000000000000000001100000 4
0n
0"4
#291
1i
1!
1E
1/
1":
1"4
10
1q
1h
1"&
1X
1n
#296
0i
0E
0":
0"&
0q
0!
0/
b00000000000000000000000001100100 4
0X
0h
00
b11100110100000010110000110010011 ~
0n
0"4
#301
1i
1!
1E
1/
1":
1"4
10
1q
1h
1"&
1X
1n
#306
0i
0E
0":
0"&
0q
b00000000111100011101000100010011 ~
0!
b00000000000000000000000001101000 4
0/
0X
0h
00
0n
0"4
#311
1i
1!
1E
1/
1":
1"4
10
1q
1h
1"&
1X
1n
#316
0i
0E
b00000000000000000000000001101100 4
b11100101110100001011000010010011 ~
0":
0"&
0q
0!
0/
0X
0h
00
0n
0"4
#321
1i
1!
1E
1/
1":
1"4
10
1q
1h
1"&
1X
1n
#326
0i
0E
0":
0"&
0q
0!
b00000000011000011101000010010011 ~
b00000000000000000000000001110000 4
0/
0X
0h
00
0n
0"4
#331
1i
1!
1E
1/
1":
1"4
10
1q
1h
1"&
1X
1n
#336
0i
0E
0":
0"&
0q
0!
b01000000010100010101000100010011 ~
0/
0X
0h
00
b00000000000000000000000001110100 4
0n
0"4
#341
1i
1!
1E
1/
1":
1"4
10
1q
1h
1"&
1X
1n
#346
0i
0E
0":
0"&
0q
0!
0/
0X
0h
b00010010100100010111000100010011 ~
00
0n
0"4
b00000000000000000000000001111000 4
#351
1i
1!
1E
1/
1":
1"4
10
1q
1h
1"&
1X
1n
#356
0i
0E
0":
0"&
0q
b00000000000000000000000001111100 4
0!
0/
0X
0h
b00000000001000010111000100110011 ~
00
0n
0"4
#361
1i
1!
1E
1/
1":
1"4
10
1q
1h
1"&
1X
1n
#366
0i
0E
0":
0"&
0q
0!
b00000000000000000000000010000000 4
0/
0X
0h
b00000000000100001001000110010011 ~
00
0n
0"4
#371
1i
1!
1E
1/
1":
1"4
10
1q
1h
1"&
1X
1n
#376
0i
0E
b00000000000000000000000010000100 4
0":
0"&
0q
0!
0/
0X
b00000000001100011110000110110011 ~
0h
00
0n
0"4
#381
1i
1!
1E
1/
1":
1"4
10
1q
1h
1"&
1X
1n
#386
0i
0E
0":
0"&
0q
0!
0/
0X
0h
b00000000001100011110000100110011 ~
00
0n
0"4
b00000000000000000000000010001000 4
#391
1i
1!
1E
1/
1":
1"4
10
1q
1h
1"&
1X
1n
#396
0i
0E
b00000000011000011001000110010011 ~
0":
0"&
0q
0!
0/
0X
0h
00
0n
0"4
b00000000000000000000000010001100 4
#401
1i
1!
1E
1/
1":
1"4
10
1q
1h
1"&
1X
1n
#406
0i
b00000000001100001101000100110011 ~
0E
0":
0"&
0q
0!
0/
0X
0h
00
0n
0"4
b00000000000000000000000010010000 4
#411
1i
1!
1E
1/
1":
1"4
10
1q
1h
1"&
1X
1n
#416
0i
0E
0":
0"&
0q
0!
0/
0X
0h
b11101100001100001011000110010011 ~
b00000000000000000000000010010100 4
00
0n
0"4
#421
1i
1!
1E
1/
1":
1"4
10
1q
1h
1"&
1X
1n
#426
0i
0E
b00000000001000011000000100110011 ~
b00000000000000000000000010011000 4
0":
0"&
0q
0!
0/
0X
0h
00
0n
0"4
#431
1i
1!
1E
1/
1":
1"4
10
1q
1h
1"&
1X
1n
#436
0i
0E
b00000000000100010101000010010011 ~
0":
0"&
b00000000000000000000000010011100 4
0q
0!
0/
0X
0h
00
0n
0"4
#441
1i
1!
1E
1/
1":
1"4
10
1q
1h
1"&
1X
1n
#446
0i
0E
0":
0"&
0q
0!
b11111010001000001100000010010011 ~
0/
0X
0h
00
0n
0"4
b00000000000000000000000010100000 4
#451
1i
1!
1E
1/
1":
1"4
10
1q
1h
1"&
1X
1n
#456
0i
0E
0":
0"&
0q
0!
b00000000000000000000000010100100 4
0/
0X
0h
b00000000001000011110000110110011 ~
00
0n
0"4
#461
1i
1!
1E
1/
1":
1"4
10
1q
1h
1"&
1X
1n
#466
0i
b00000000001100011111000100110011 ~
0E
0":
0"&
0q
0!
0/
0X
0h
00
b00000000000000000000000010101000 4
0n
0"4
#471
1i
1!
1E
1/
1":
1"4
10
1q
1h
1"&
1X
1n
#476
0i
0E
0":
0"&
0q
0!
b00000000000000000000000010101100 4
0/
0X
0h
b01000000100000010101000110010011 ~
00
0n
0"4
#481
1i
1!
1E
1/
1":
1"4
10
1q
1h
1"&
1X
1n
#486
0i
0E
0":
0"&
0q
0!
0/
0X
b00000000000000000000000010110000 4
0h
00
b00000000000100010000000100110011 ~
0n
0"4
#491
1i
1!
1E
1/
1":
1"4
10
1q
1h
1"&
1X
1n
#496
0i
0E
0":
0"&
0q
0!
b00000000000000000000000010110100 4
0/
0X
0h
00
b11111111011100001010000100010011 ~
0n
0"4
#501
1i
1!
1E
1/
1":
1"4
10
1q
1h
1"&
1X
1n
#506
0i
0E
0":
0"&
0q
b00000000001100001101000110010011 ~
0!
0/
0X
0h
00
b00000000000000000000000010111000 4
0n
0"4
#511
1i
1!
1E
1/
1":
1"4
10
1q
1h
1"&
1X
1n
#516
0i
b00000000001100001001000110110011 ~
b00000000000000000000000010111100 4
0E
0":
0"&
0q
0!
0/
0X
0h
00
0n
0"4
#521
1i
1!
1E
1/
1":
1"4
10
1q
1h
1"&
1X
1n
#526
0i
0E
b00000000000000000000000011000000 4
0":
0"&
b00000000001100010011000100110011 ~
0q
0!
0/
0X
0h
00
0n
0"4
#531
1i
1!
1E
1/
1":
1"4
10
1q
1h
1"&
1X
1n
#536
0i
0E
b00000000000000000000000011000100 4
0":
0"&
0q
0!
0/
0X
0h
b00000000001000001101000110010011 ~
00
0n
0"4
#541
1i
1!
1E
1/
1":
1"4
10
1q
1h
1"&
1X
1n
#546
0i
0E
b11110010100000010110000110010011 ~
0":
0"&
0q
b00000000000000000000000011001000 4
0!
0/
0X
0h
00
0n
0"4
#551
1i
1!
1E
1/
1":
1"4
10
1q
1h
1"&
1X
1n
#556
0i
0E
0":
0"&
0q
0!
b00000000000000000000000011001100 4
0/
0X
0h
b00000000000100011101000010110011 ~
00
0n
0"4
#561
1i
1!
1E
1/
1":
1"4
10
1q
1h
1"&
1X
1n
#566
0i
0E
0":
0"&
0q
0!
b00000000000100001110000110110011 ~
0/
0X
b00000000000000000000000011010000 4
0h
00
0n
0"4
#571
1i
1!
1E
1/
1":
1"4
10
1q
1h
1"&
1X
1n
#576
0i
b00011101100100011110000100010011 ~
0E
0":
0"&
0q
0!
0/
0X
0h
b00000000000000000000000011010100 4
00
0n
0"4
#581
1i
1!
1E
1/
1":
1"4
10
1q
1h
1"&
1X
1n
#586
0i
0E
b00000000000100001111000100110011 ~
b00000000000000000000000011011000 4
0":
0"&
0q
0!
0/
0X
0h
00
0n
0"4
#591
1i
1!
1E
1/
1":
1"4
10
1q
1h
1"&
1X
1n
#596
0i
0E
b00000101010000011000000100010011 ~
0":
0"&
0q
0!
0/
0X
0h
00
b00000000000000000000000011011100 4
0n
0"4
#601
1i
1!
1E
1/
1":
1"4
10
1q
1h
1"&
1X
1n
#606
0i
0E
0":
0"&
0q
0!
b00000000111000001001000110010011 ~
0/
0X
0h
00
0n
0"4
b00000000000000000000000011100000 4
#611
1i
1!
1E
1/
1":
1"4
10
1q
1h
1"&
1X
1n
#616
0i
0E
0":
0"&
0q
0!
b00001001001100010110000100010011 ~
0/
0X
0h
00
b00000000000000000000000011100100 4
0n
0"4
#621
1i
1!
1E
1/
1":
1"4
10
1q
1h
1"&
1X
1n
#626
0i
0E
0":
0"&
0q
0!
b00000000000000000000000011101000 4
0/
0X
0h
b01000000111100001101000100010011 ~
00
0n
0"4
#631
1i
1!
1E
1/
1":
1"4
10
1q
1h
1"&
1X
1n
#636
0i
0E
b00000000000000000000000011101100 4
0":
0"&
0q
0!
0/
0X
0h
b11111100101100011010000010010011 ~
00
0n
0"4
#641
1i
1!
1E
1/
1":
1"4
10
1q
1h
1"&
1X
1n
#646
0i
0E
b00000000000000000000000011110000 4
0":
b00000000001100011000000110110011 ~
0"&
0q
0!
0/
0X
0h
00
0n
0"4
#651
1i
1!
1E
1/
1":
1"4
10
1q
1h
1"&
1X
1n
#656
0i
0E
b00000000000000000000000011110100 4
b00000000001100011111000110110011 ~
0":
0"&
0q
0!
0/
0X
0h
00
0n
0"4
#661
1i
1!
1E
1/
1":
1"4
10
1q
1h
1"&
1X
1n
#666
0i
0E
0":
0"&
b00000000000000000000000011111000 4
0q
0!
0/
0X
0h
00
b00001101111000001011000110010011 ~
0n
0"4
#671
1i
1!
1E
1/
1":
1"4
10
1q
1h
1"&
1X
1n
#676
0i
0E
b00000000000000000000000011111100 4
0":
0"&
0q
0!
0/
0X
0h
b00000000110100011001000100010011 ~
00
0n
0"4
#681
1i
1!
1E
1/
1":
1"4
10
1q
1h
1"&
1X
1n
#686
0i
0E
0":
0"&
0q
0!
0/
0X
0h
b00000000000000000000000100000000 4
b00000000101100001001000100010011 ~
00
0n
0"4
#691
1i
1!
1E
1/
1":
1"4
10
1q
1h
1"&
1X
1n
#696
0i
0E
b11110000111000001011000100010011 ~
b00000000000000000000000100000100 4
0":
0"&
0q
0!
0/
0X
0h
00
0n
0"4
#701
1i
1!
1E
1/
1":
1"4
10
1q
1h
1"&
1X
1n
#706
0i
b00000000000100011111000010110011 ~
0E
0":
0"&
0q
0!
0/
0X
0h
b00000000000000000000000100001000 4
00
0n
0"4
#711
1i
1!
1E
1/
1":
1"4
10
1q
1h
1"&
1X
1n
#716
0i
b00000000000000000000000100001100 4
0E
0":
0"&
0q
0!
0/
0X
0h
00
b00000000001000010000000110110011 ~
0n
0"4
#721
1i
1!
1E
1/
1":
1"4
10
1q
1h
1"&
1X
1n
#726
0i
b00000000000000000000000100010000 4
0E
b00001000110000010010000010010011 ~
0":
0"&
0q
0!
0/
0X
0h
00
0n
0"4
#731
1i
1!
1E
1/
1":
1"4
10
1q
1h
1"&
1X
1n
#736
0i
0E
b00000000000000000000000100010100 4
0":
0"&
0q
0!
0/
0X
0h
00
b00000000000000010101000010010011 ~
0n
0"4
#741
1i
1!
1E
1/
1":
1"4
10
1q
1h
1"&
1X
1n
#746
0i
b00010110100000010000000100010011 ~
0E
b00000000000000000000000100011000 4
0":
0"&
0q
0!
0/
0X
0h
00
0n
0"4
#751
1i
1!
1E
1/
1":
1"4
10
1q
1h
1"&
1X
1n
#756
0i
0E
0":
0"&
0q
0!
0/
0X
0h
b00000000110100001001000010010011 ~
00
b00000000000000000000000100011100 4
0n
0"4
#761
1i
1!
1E
1/
1":
1"4
10
1q
1h
1"&
1X
1n
#766
0i
0E
0":
0"&
0q
0!
b00000000000000000000000100100000 4
0/
0X
0h
00
b00010010101000011000000010010011 ~
0n
0"4
#771
1i
1!
1E
1/
1":
1"4
10
1q
1h
1"&
1X
1n
#776
0i
0E
0":
0"&
0q
0!
0/
0X
0h
00
b00000000000100011110000100110011 ~
0n
0"4
b00000000000000000000000100100100 4
#781
1i
1!
1E
1/
1":
1"4
10
1q
1h
1"&
1X
1n
#786
0i
0E
b00000000001100010000000010110011 ~
0":
0"&
0q
0!
0/
0X
0h
00
b00000000000000000000000100101000 4
0n
0"4
#791
1i
1!
1E
1/
1":
1"4
10
1q
1h
1"&
1X
1n
#796
0i
0E
b00000000000000000000000100101100 4
0":
0"&
0q
0!
0/
0X
0h
00
0n
0"4
b00000000000100001111000110110011 ~
#801
1i
1!
1E
1/
1":
1"4
10
1q
1h
1"&
1X
1n
#806
0i
0E
0":
0"&
0q
0!
0/
0X
0h
b00000000000000000000000100110000 4
00
0n
0"4
b00000000101000011001000010010011 ~
#811
1i
1!
1E
1/
1":
1"4
10
1q
1h
1"&
1X
1n
#816
0i
b00000000001000011110000100110011 ~
0E
0":
0"&
0q
0!
0/
0X
0h
b00000000000000000000000100110100 4
00
0n
0"4
#821
1i
1!
1E
1/
1":
1"4
10
1q
1h
1"&
1X
1n
#826
0i
0E
0":
0"&
0q
0!
b00000000000100001110000110110011 ~
0/
b00000000000000000000000100111000 4
0X
0h
00
0n
0"4
#831
1i
1!
1E
1/
1":
1"4
10
1q
1h
1"&
1X
1n
#836
0i
0E
0":
b00000000000000000000000100111100 4
0"&
0q
0!
0/
0X
0h
b00000000001000010101000010010011 ~
00
0n
0"4
#841
1i
1!
1E
1/
1":
1"4
10
1q
1h
1"&
1X
1n
#846
0i
0E
0":
0"&
0q
0!
0/
b00001110101100001110000110010011 ~
0X
0h
00
b00000000000000000000000101000000 4
0n
0"4
#851
1i
1!
1E
1/
1":
1"4
10
1q
1h
1"&
1X
1n
#856
0i
0E
0":
0"&
0q
0!
0/
0X
0h
b00000000000000000000000101000100 4
00
b00000000000100011110000100110011 ~
0n
0"4
#861
1i
1!
1E
1/
1":
1"4
10
1q
1h
1"&
1X
1n
#866
0i
0E
b00011101101000010110000110010011 ~
0":
0"&
0q
b00000000000000000000000101001000 4
0!
0/
0X
0h
00
0n
0"4
#871
1i
1!
1E
1/
1":
1"4
10
1q
1h
1"&
1X
1n
#876
0i
0E
b00000000000000000000000101001100 4
0":
0"&
0q
0!
b11111110100100001111000010010011 ~
0/
0X
0h
00
0n
0"4
#881
1i
1!
1E
1/
1":
1"4
10
1q
1h
1"&
1X
1n
#886
0i
0E
0":
0"&
0q
0!
b00001100100100010000000110010011 ~
b00000000000000000000000101010000 4
0/
0X
0h
00
0n
0"4
#891
1i
1!
1E
1/
1":
1"4
10
1q
1h
1"&
1X
1n
#896
0i
0E
0":
0"&
0q
0!
0/
b11110001001100001011000010010011 ~
0X
0h
b00000000000000000000000101010100 4
00
0n
0"4
#901
1i
1!
1E
1/
1":
1"4
10
1q
1h
1"&
1X
1n
#906
0i
b00000000000000000000000101011000 4
0E
b11110011101000001011000010010011 ~
0":
0"&
0q
0!
0/
0X
0h
00
0n
0"4
#911
1i
1!
1E
1/
1":
1"4
10
1q
1h
1"&
1X
1n
#916
0i
0E
0":
b11100101101000011011000100010011 ~
0"&
0q
b00000000000000000000000101011100 4
0!
0/
0X
0h
00
0n
0"4
#921
1i
1!
1E
1/
1":
1"4
10
1q
1h
1"&
1X
1n
#926
0i
b11111111111000010110000100010011 ~
0E
0":
0"&
0q
0!
0/
0X
0h
b00000000000000000000000101100000 4
00
0n
0"4
#931
1i
1!
1E
1/
1":
1"4
10
1q
1h
1"&
1X
1n
#936
0i
0E
b00000000000000000000000101100100 4
0":
0"&
0q
0!
0/
0X
0h
00
b00000000001100010111000110110011 ~
0n
0"4
#941
1i
1!
1E
1/
1":
1"4
10
1q
1h
1"&
1X
1n
#946
0i
0E
b00000011010000001011000100010011 ~
0":
0"&
0q
0!
0/
0X
0h
00
b00000000000000000000000101101000 4
0n
0"4
#951
1i
1!
1E
1/
1":
1"4
10
1q
1h
1"&
1X
1n
#956
0i
0E
0":
0"&
0q
0!
0/
b00000000000000000000000101101100 4
0X
0h
b00000000000100011101000110110011 ~
00
0n
0"4
