waveforms/load.s.vcd
$date
2021-12-01T09:30+0000
$end
$version
0.2
$end
$comment

$end
$timescale 1ns  $end
$scope module Tile $end
 $var wire 1 * io_regsWriteEnable $end
 $var wire 32 + io_regsReadData $end
 $var wire 32 4 io_IMEMAddress $end
 $var wire 1 < io_regsDeviceWriteEnable $end
 $var wire 32 I io_DMEMAddress $end
 $var wire 32 Z io_DMEMWriteData $end
 $var wire 1 ] CPU $end
 $var wire 32 _ io_regsDeviceWriteData $end
 $var wire 5 a io_regsDeviceWriteAddress $end
 $var wire 1 i clock $end
 $var wire 32 l io_currentPC $end
 $var wire 5 m io_regsAddress $end
 $var wire 1 u io_DMEMWriteEnable $end
 $var wire 32 v io_memDeviceWriteAddress $end
 $var wire 32 ~ io_IMEMWriteData $end
 $var wire 32 "! io_memDeviceWriteData $end
 $var wire 32 ") io_DMEMReadData $end
 $var wire 1 ", reset $end
 $var wire 1 "2 io_setup $end
 $var wire 1 "7 io_memDeviceWriteEnable $end
 $var wire 32 "A io_regsWriteData $end
  $scope module CPU.MEM $end
  $upscope $end
  $scope module CPU.ID.registers $end
  $upscope $end
  $scope module CPU.IF $end
  $upscope $end
  $scope module CPU.IF.IMEM $end
  $upscope $end
  $scope module CPU.MEM.DMEM $end
  $upscope $end
  $scope module CPU $end
   $var wire 1 2 testHarness_regUpdates_writeEnable $end
   $var wire 1 > ID $end
   $var wire 1 D testHarness_memUpdates_writeEnable $end
   $var wire 32 K testHarness_regUpdates_writeData $end
   $var wire 5 L testHarness_regUpdates_writeAddress $end
   $var wire 5 M testHarness_setupSignals_registerSignals_readAddress $end
   $var wire 32 P testHarness_testReadouts_registerRead $end
   $var wire 32 T testHarness_currentPC $end
   $var wire 1 W IF $end
   $var wire 32 [ testHarness_memUpdates_writeAddress $end
   $var wire 1 ^ testHarness_setupSignals_DMEMsignals_setup $end
   $var wire 32 d testHarness_testReadouts_DMEMread $end
   $var wire 32 f testHarness_setupSignals_DMEMsignals_dataIn $end
   $var wire 1 g testHarness_setupSignals_IMEMsignals_setup $end
   $var wire 1 q clock $end
   $var wire 32 s testHarness_setupSignals_DMEMsignals_dataAddress $end
   $var wire 1 x testHarness_setupSignals_registerSignals_setup $end
   $var wire 1 { MEM $end
   $var wire 1 "" testHarness_setupSignals_registerSignals_writeEnable $end
   $var wire 32 "6 testHarness_memUpdates_writeData $end
   $var wire 32 "= testHarness_setupSignals_registerSignals_writeData $end
   $var wire 1 "@ reset $end
   $var wire 1 "B testHarness_setupSignals_DMEMsignals_writeEnable $end
    $scope module MEM $end
     $var wire 1 8 DMEM $end
     $var wire 32 ; testHarness_testUpdates_writeAddress $end
     $var wire 32 U testHarness_DMEMsetup_dataAddress $end
     $var wire 1 p testHarness_testUpdates_writeEnable $end
     $var wire 1 z testHarness_DMEMsetup_writeEnable $end
     $var wire 32 } testHarness_DMEMpeek $end
     $var wire 1 "* testHarness_DMEMsetup_setup $end
     $var wire 32 "0 testHarness_testUpdates_writeData $end
     $var wire 1 "4 clock $end
     $var wire 32 "> testHarness_DMEMsetup_dataIn $end
      $scope module DMEM $end
       $var wire 32 & testHarness_testUpdates_writeData $end
       $var wire 1 ) _GEN_6 $end
       $var wire 12 - data__T_24_addr_pipe_0 $end
       $var wire 1 6 testHarness_testUpdates_writeEnable $end
       $var wire 32 : testHarness_setup_dataAddress $end
       $var wire 32 ? testHarness_testUpdates_writeAddress $end
       $var wire 32 F addressSource $end
       $var wire 32 J data $end
       $var wire 1 r testHarness_setup_writeEnable $end
       $var wire 1 t testHarness_setup_setup $end
       $var wire 1 "& clock $end
       $var wire 32 "+ testHarness_setup_dataIn $end
       $var wire 32 "9 io_dataOut $end
        $scope module data $end
          $scope module _T_26 $end
           $var wire 1 ! clk $end
           $var wire 12 B addr $end
           $var wire 32 G pipeline_data_0 $end
           $var wire 1 \ pipeline_valid_0 $end
           $var wire 32 c data $end
           $var wire 1 "# en $end
           $var wire 12 "' pipeline_addr_0 $end
           $var wire 1 "- valid $end
           $var wire 1 "< mask $end
          $upscope $end
          $scope module _T_24 $end
           $var wire 32 5 data $end
           $var wire 1 h clk $end
           $var wire 1 "% en $end
           $var wire 12 "( addr $end
          $upscope $end
        $upscope $end
      $upscope $end
    $upscope $end
    $scope module ID $end
     $var wire 1 " testHarness_registerSetup_writeEnable $end
     $var wire 32 = testHarness_registerPeek $end
     $var wire 1 C testHarness_testUpdates_writeEnable $end
     $var wire 32 H testHarness_registerSetup_writeData $end
     $var wire 5 N testHarness_testUpdates_writeAddress $end
     $var wire 5 k testHarness_registerSetup_readAddress $end
     $var wire 1 o registers $end
     $var wire 1 "3 testHarness_registerSetup_setup $end
     $var wire 32 "5 testHarness_testUpdates_writeData $end
     $var wire 1 ": clock $end
      $scope module registers $end
       $var wire 1 % testHarness_testUpdates_writeEnable $end
       $var wire 1 ' testHarness_setup_setup $end
       $var wire 32 , testHarness_testUpdates_writeData $end
       $var wire 5 . readAddress1 $end
       $var wire 1 0 clock $end
       $var wire 32 1 io_readData1 $end
       $var wire 32 3 registerFile $end
       $var wire 1 7 testHarness_setup_writeEnable $end
       $var wire 1 @ writeEnable $end
       $var wire 5 O testHarness_testUpdates_writeAddress $end
       $var wire 32 ` testHarness_setup_writeData $end
       $var wire 5 y testHarness_setup_readAddress $end
        $scope module registerFile $end
          $scope module _T_33 $end
           $var wire 1 # en $end
           $var wire 1 ( pipeline_valid_0 $end
           $var wire 1 / clk $end
           $var wire 5 S pipeline_addr_0 $end
           $var wire 1 V mask $end
           $var wire 1 e valid $end
           $var wire 5 w addr $end
           $var wire 32 "$ pipeline_data_0 $end
           $var wire 32 "8 data $end
          $upscope $end
          $scope module _T_41 $end
           $var wire 32 A data $end
           $var wire 1 R en $end
           $var wire 1 n clk $end
           $var wire 5 "1 addr $end
          $upscope $end
          $scope module _T_38 $end
           $var wire 1 E clk $end
           $var wire 1 b en $end
           $var wire 5 j addr $end
           $var wire 32 ". data $end
          $upscope $end
        $upscope $end
      $upscope $end
    $upscope $end
    $scope module IF $end
     $var wire 1 $ testHarness_IMEMsetup_setup $end
     $var wire 1 9 IMEM $end
     $var wire 32 Q PC $end
     $var wire 1 X clock $end
     $var wire 32 Y testHarness_PC $end
     $var wire 1 | reset $end
     $var wire 32 "? _GEN_0 $end
      $scope module IMEM $end
       $var wire 32 "/ testHarness_requestedAddress $end
       $var wire 32 "; io_instructionAddress $end
      $upscope $end
    $upscope $end
  $upscope $end
  $scope module CPU.ID $end
  $upscope $end
$upscope $end
$enddefinitions $end
$dumpvars
b00000000000000000000000000000000 Y
0C
0"7
0""
1"<
0X
b00000000000000000000000000000000 ">
0o
0R
b00000000000000000000000000000000 "8
b00000000000000000000000000000000 l
b00000000000000000000000000000000 :
b00000000000000000000000000000000 Q
b00000000000000000000000000000000 }
0g
b00000000000000000000000000000000 ".
b00000000000000000000000000000000 K
b00000000000000000000000000000000 `
b000000000000 "(
0"@
0D
0/
0"#
0x
0":
b00000 S
0z
0r
0]
1)
b00000000000000000000000000000000 s
b00000 j
b00000000000000000000000000000000 A
0@
0W
b00000 O
0%
b00000000000000000000000000000000 ;
b000000000000 -
b00000000000000000000000000000000 "=
b00000000000000000000000000000000 Z
0p
b00000000000000000000000000000000 T
0>
0"2
b00000000000000000000000000000000 ?
06
0!
b00000 .
b00000000000000000000000000000000 "9
0"4
b00000 y
b00000000000000000000000000000000 P
b00000000000000000000000000000000 3
0{
b00000000000000000000000000000000 "5
b00000000000000000000000000000000 J
b000000000000 "'
b00000000000000000000000000000000 "/
0"*
0b
0E
00
0(
b00000000000000000000000000000000 "+
b00000000000000000000000000000000 _
1V
0u
b00000000000000000000000000000000 [
b00000000000000000000000000000000 "6
b00000000000000000000000000000000 "!
0q
0i
b00000000000000000000000000000000 U
0"3
b00000 a
b00000 L
07
0"
09
0"-
0e
b00000000000000000000000000000000 f
b00000 "1
b00000000000000000000000000000000 I
b00000000000000000000000000000000 4
0|
b00000000000000000000000000000000 "0
b00000000000000000000000000000000 d
0"B
b00000000000000000000000000000000 G
b00000000000000000000000000000000 "A
b00000000000000000000000000000000 "$
b00000000000000000000000000000000 ,
b00000 M
0t
b00000000000000000000000000000000 ";
b00000000000000000000000000000000 &
0n
b00000000000000000000000000000000 =
0'
0<
b00000000000000000000000000000000 "?
b00000 w
08
0#
0",
02
b000000000000 B
b00000000000000000000000000000000 5
b00000000000000000000000000000000 ~
0h
b00000 m
b00000000000000000000000000000000 c
b00000000000000000000000000000000 ")
b00000000000000000000000000000000 F
b00000000000000000000000000000000 1
0\
b00000000000000000000000000000000 H
0"&
b00000000000000000000000000000000 +
0*
0^
b00000 k
1"%
b00000 N
0$
b00000000000000000000000000000000 v
$end
#0
1"@
1|
1",
#1
1!
1"&
1q
1i
1n
1":
1h
1/
1"4
1E
1X
10
#6
00
0/
0h
0!
0i
0"&
0X
0q
0"4
0E
0n
0":
#11
1!
1"&
1q
1i
1n
1":
1h
1/
1"4
1E
1X
10
#16
00
0/
0h
0!
0i
0"&
0X
0q
0"4
0E
0n
0":
#21
1!
1"&
1q
1i
1n
1":
1h
1/
1"4
1E
1X
10
#26
00
0/
0h
0!
0i
0"&
0X
0q
0"4
0E
0n
0":
#31
1!
1"&
1q
1i
1n
1":
1h
1/
1"4
1E
1X
10
#36
00
0/
0h
0!
0i
0"&
0X
0q
0"4
0E
0n
0":
#41
1!
1"&
1q
1i
1n
1":
1h
1/
1"4
1E
1X
10
#46
1x
1"3
1"2
1$
1"*
0q
1g
0E
0n
0":
00
0/
0h
0!
1^
1'
b00000000010000000000000010010011 ~
0i
0"&
0X
0"@
1t
0"4
0",
0|
#51
1!
1"&
1q
1i
1n
1":
1h
1/
1"4
1E
1X
10
#56
b00000000010000000000000100010011 ~
b00000000000000000000000000000100 4
0q
0E
0n
0":
00
0/
0h
0!
0i
0"&
0X
0"4
#61
1!
1"&
1q
1i
1n
1":
1h
1/
1"4
1E
1X
10
#66
b00000000010000000000000110010011 ~
b00000000000000000000000000001000 4
0q
0E
0n
0":
00
0/
0h
0!
0i
0"&
0X
0"4
#71
1!
1"&
1q
1i
1n
1":
1h
1/
1"4
1E
1X
10
#76
0q
0E
0n
0":
00
0/
0h
0!
b00000000000000000000000000001100 4
0i
0"&
0X
b00000000010000000000001000010011 ~
0"4
#81
1!
1"&
1q
1i
1n
1":
1h
1/
1"4
1E
1X
10
#86
0q
0E
b00000000000000011010000110000011 ~
0n
0":
00
0/
0h
b00000000000000000000000000010000 4
0!
0i
0"&
0X
0"4
#91
1!
1"&
1q
1i
1n
1":
1h
1/
1"4
1E
1X
10
#96
0q
0E
0n
0":
00
0/
0h
0!
0i
0"&
0X
0"4
b00000000000000000000000000110011 ~
b00000000000000000000000000010100 4
#101
1!
1"&
1q
1i
1n
1":
1h
1/
1"4
1E
1X
10
#106
00
0/
0h
0!
0i
0"&
0X
b00000000000000000000000000011000 4
0q
0"4
0E
0n
0":
#111
1!
1"&
1q
1i
1n
1":
1h
1/
1"4
1E
1X
10
#116
b00000000000000000000000000011100 4
0q
0E
b00000000000000011010000110000011 ~
0n
0":
00
0/
0h
0!
0i
0"&
0X
0"4
#121
1!
1"&
1q
1i
1n
1":
1h
1/
1"4
1E
1X
10
#126
0q
b00000000000000000000000000100000 4
0E
0n
0":
00
0/
0h
0!
0i
0"&
0X
0"4
b00000000000000000000000000110011 ~
#131
1!
1"&
1q
1i
1n
1":
1h
1/
1"4
1E
1X
10
#136
00
b00000000000000000000000000100100 4
0/
0h
0!
0i
0"&
0X
0q
0"4
0E
0n
0":
#141
1!
1"&
1q
1i
1n
1":
1h
1/
1"4
1E
1X
10
#146
0q
0E
b00000000000000011010000110000011 ~
b00000000000000000000000000101000 4
0n
00
0":
0/
0h
0!
0i
0"&
0X
0"4
#151
1!
1"&
1q
1i
1n
1":
1h
1/
1"4
1E
1X
10
#156
b00000000000000000000000000101100 4
0q
0E
0n
0":
00
0/
0h
0!
0i
0"&
0X
0"4
b00000000000000000000000000110011 ~
#161
1!
1"&
1q
1i
1n
1":
1h
1/
1"4
1E
1X
10
#166
00
0/
0h
0!
0i
0"&
0X
0q
0"4
0E
b00000000000000000000000000110000 4
0n
0":
#171
1!
1"&
1q
1i
1n
1":
1h
1/
1"4
1E
1X
10
#176
b00000000000000000000000000110100 4
0q
0E
b00000000000000011010000110000011 ~
0n
0":
00
0/
0h
0!
0i
0"&
0X
0"4
#181
1!
1"&
1q
1i
1n
1":
1h
1/
1"4
1E
1X
10
#186
b00000000000000000000000000111000 4
0q
0E
0n
0":
00
0/
0h
0!
0i
0"&
0X
0"4
b00000000000000000000000000110011 ~
#191
1!
1"&
1q
1i
1n
1":
1h
1/
1"4
1E
1X
10
#196
00
0/
0h
0!
0i
0"&
0X
b00000000000000000000000000111100 4
0q
0"4
0E
0n
0":
#201
1!
1"&
1q
1i
1n
1":
1h
1/
1"4
1E
1X
10
#206
0q
b00000000000000010010000100000011 ~
0E
b00000000000000000000000001000000 4
0n
0":
00
0/
0h
0!
0i
0"&
0X
0"4
#211
1!
1"&
1q
1i
1n
1":
1h
1/
1"4
1E
1X
10
#216
0q
0E
0n
b00000000000000000000000001000100 4
00
0":
0/
0h
0!
0i
0"&
0X
0"4
b00000000000000000000000000110011 ~
#221
1!
1"&
1q
1i
1n
1":
1h
1/
1"4
1E
1X
10
#226
0q
b00000000000000010010000100000011 ~
0E
0n
0":
00
0/
0h
0!
0i
0"&
0X
b00000000000000000000000001001000 4
0"4
#231
1!
1"&
1q
1i
1n
1":
1h
1/
1"4
1E
1X
10
#236
0q
0E
0n
0":
00
0/
0h
0!
0i
0"&
0X
0"4
b00000000000000000000000001001100 4
b00000000000000000000000000110011 ~
#241
1!
1"&
1q
1i
1n
1":
1h
1/
1"4
1E
1X
10
#246
0q
b00000000000000010010000100000011 ~
0E
0n
0":
00
b00000000000000000000000001010000 4
0/
0h
0!
0i
0"&
0X
0"4
#251
1!
1"&
1q
1i
1n
1":
1h
1/
1"4
1E
1X
10
#256
b00000000000000000000000001010100 4
0q
0E
0n
0":
00
0/
0h
0!
0i
0"&
0X
0"4
b00000000000000000000000000110011 ~
#261
1!
1"&
1q
1i
1n
1":
1h
1/
1"4
1E
1X
10
#266
b00000000000000000000000001011000 4
0q
b00000000000000010010000100000011 ~
0E
0n
0":
00
0/
0h
0!
0i
0"&
0X
0"4
#271
1!
1"&
1q
1i
1n
1":
1h
1/
1"4
1E
1X
10
#276
0q
0E
0n
0":
00
0/
0h
0!
0i
0"&
0X
b00000000000000000000000001011100 4
0"4
b00000000000000000000000000110011 ~
#281
1!
1"&
1q
1i
1n
1":
1h
1/
1"4
1E
1X
10
#286
0q
0E
b00000000000000000000000001100000 4
0n
0":
00
0/
0h
0!
0i
0"&
0X
0"4
b00000000000000001010000010000011 ~
#291
1!
1"&
1q
1i
1n
1":
1h
1/
1"4
1E
1X
10
#296
00
0/
0h
0!
0i
0"&
0X
0q
0"4
b00000000000000000000000001100100 4
0E
0n
0":
#301
1!
1"&
1q
1i
1n
1":
1h
1/
1"4
1E
1X
10
#306
00
0/
0h
b00000000000000000000000001101000 4
0!
0i
0"&
0X
0q
0"4
0E
0n
0":
#311
1!
1"&
1q
1i
1n
1":
1h
1/
1"4
1E
1X
10
#316
00
0/
0h
0!
0i
0"&
0X
0q
0"4
0E
b00000000000000000000000001101100 4
0n
0":
#321
1!
1"&
1q
1i
1n
1":
1h
1/
1"4
1E
1X
10
#326
0q
0E
b00000000000000000000000001110000 4
0n
00
0":
0/
0h
0!
0i
0"&
0X
0"4
b00000000000000000000000000010011 ~
#331
1!
1"&
1q
1i
1n
1":
1h
1/
1"4
1E
1X
10
#336
1e
1<
1%
1*
0E
0":
00
0!
b01110 k
b01110 N
12
0"4
1#
b01110 j
1b
b01110 M
1""
17
b01110 w
b01110 y
b01110 O
b01110 a
b00000000000000000000000000000000 ~
1"
0q
1@
0n
0/
0h
b01110 L
0i
0"&
0X
b01110 m
b01110 .
1C
b00000000000000000000111111111100 4
#341
1!
1"&
1q
1n
1":
1/
b01110 S
1"4
1E
1X
1(
1i
1h
10
#346
0q
b01010 O
b01010 .
b01010 j
0E
0n
0":
00
b01010 a
b01010 m
0/
0h
b01010 w
0!
b01010 k
0i
0"&
0X
b01010 y
b01010 L
0"4
b01010 N
b01010 M
#351
1!
1"&
1q
1i
1n
1":
1h
1/
1"4
1E
b01010 S
1X
10
#356
b10001 O
b10001 a
b10001 w
0q
b10001 k
b10001 y
0E
b10001 L
0n
0":
00
b10001 .
0/
0h
0!
0i
0"&
0X
b10001 m
0"4
b10001 M
b10001 N
b10001 j
#361
1!
1"&
1q
b10001 S
1i
1n
1":
1h
1/
1"4
1E
1X
10
#366
b00000 y
b00000 w
0e
0q
b00000 M
0E
b00000 j
0n
0":
00
b00000 N
b00000 a
0/
0h
b00000 L
0!
b00000 .
0i
0"&
0X
b00000 m
b00000 O
0"4
0#
b00000 k
0b
#371
1!
1"&
1q
1n
1":
1/
1"4
1E
1X
1i
0(
b00000 S
1h
10
#376
1e
b00100 O
b00100 M
b00100 m
0q
b00100 y
b00100 N
0E
0n
0":
00
0/
0h
b00100 k
0!
b00100 w
0i
0"&
0X
b00100 .
0"4
1#
b00100 a
1b
b00100 L
b00100 j
#381
1!
1"&
1q
1n
1":
1/
1"4
1E
1X
1(
1i
1h
b00100 S
10
#386
b11000 k
0q
b11000 w
0E
0n
b11000 m
00
0":
b11000 O
0/
0h
b11000 N
0!
b11000 L
b11000 a
b11000 j
0i
0"&
0X
b11000 y
0"4
b11000 M
b11000 .
#391
1!
1"&
1q
1i
1n
1":
b11000 S
1h
1/
1"4
1E
1X
10
#396
b00110 a
b00110 L
b00110 w
0q
b00110 m
b00110 .
0E
0n
0":
00
b00110 k
b00110 O
0/
0h
0!
0i
0"&
0X
b00110 j
0"4
b00110 N
b00110 M
b00110 y
#401
1!
1"&
1q
1i
1n
1":
1h
1/
1"4
1E
b00110 S
1X
10
#406
b10100 O
b10100 L
0q
b10100 N
0E
0n
0":
00
b10100 y
b10100 .
0/
0h
b10100 M
0!
b10100 j
b10100 w
0i
0"&
0X
b10100 m
0"4
b10100 k
b10100 a
#411
b10100 S
1!
1"&
1q
1i
1n
1":
1h
1/
1"4
1E
1X
10
#416
b00111 w
b00111 N
0q
b00111 L
b00111 j
0E
0n
0":
00
b00111 O
0/
0h
b00111 k
0!
b00111 m
b00111 y
b00111 .
0i
0"&
0X
0"4
b00111 M
b00111 a
#421
1!
1"&
b00111 S
1q
1i
1n
1":
1h
1/
1"4
1E
1X
10
#426
b00001 M
b00001 O
0q
b00001 w
b00001 y
b00001 L
0E
b00001 a
0n
0":
00
0/
0h
0!
0i
0"&
0X
0"4
b00001 j
b00001 .
b00001 m
b00001 N
b00001 k
#431
b00001 S
1!
1"&
1q
1i
1n
1":
1h
1/
1"4
1E
1X
10
#436
b11011 N
b11011 w
b11011 m
0q
b11011 .
0E
b11011 M
b11011 a
0n
0":
00
b11011 O
0/
0h
b11011 k
0!
b11011 y
0i
0"&
0X
b11011 L
0"4
b11011 j
#441
1!
1"&
1q
1i
1n
1":
1h
1/
1"4
1E
b11011 S
1X
10
#446
b01101 m
b01101 O
b01101 N
b01101 y
b01101 M
b01101 k
0q
b01101 j
0E
b01101 .
0n
0":
00
0/
0h
b01101 a
0!
0i
0"&
0X
0"4
b01101 L
b01101 w
#451
1!
1"&
1q
1i
b01101 S
1n
1":
1h
1/
1"4
1E
1X
10
#456
b01011 O
b01011 N
b01011 j
b01011 M
b01011 y
0q
0E
b01011 k
0n
0":
00
0/
0h
0!
b01011 L
0i
0"&
0X
b01011 a
0"4
b01011 m
b01011 .
b01011 w
#461
1!
1"&
b01011 S
1q
1i
1n
1":
1h
1/
1"4
1E
1X
10
#466
b01100 w
b01100 M
b01100 N
0q
b01100 m
0E
0n
0":
00
0/
0h
b01100 a
0!
b01100 O
b01100 k
b01100 j
0i
0"&
0X
0"4
b01100 y
b01100 .
b01100 L
#471
1!
1"&
1q
1i
1n
1":
1h
1/
1"4
1E
b01100 S
1X
10
#476
b00011 w
b00011 j
b00011 M
0q
b00011 k
0E
0n
0":
00
b00011 L
0/
0h
0!
0i
0"&
0X
b00011 N
b00011 a
0"4
b00011 O
b00011 m
b00011 y
b00011 .
#481
1!
1"&
1q
1i
1n
1":
1h
1/
1"4
1E
b00011 S
1X
10
#486
b00101 N
0q
b00101 O
b00101 L
b00101 .
0E
b00101 m
0n
00
0":
0/
0h
0!
0i
0"&
0X
b00101 M
b00101 a
b00101 y
0"4
b00101 k
b00101 w
b00101 j
#491
1!
1"&
1q
1i
1n
1":
1h
1/
1"4
1E
1X
b00101 S
10
#496
b10011 N
0q
b10011 M
b10011 j
b10011 k
0E
b10011 O
0n
0":
00
0/
0h
0!
b10011 L
0i
0"&
0X
0"4
b10011 w
b10011 .
b10011 m
b10011 y
b10011 a
#501
1!
1"&
1q
1i
1n
1":
b10011 S
1h
1/
1"4
1E
1X
10
#506
b10111 O
b10111 L
b10111 w
b10111 .
b10111 M
0q
b10111 a
b10111 k
0E
b10111 m
0n
00
0":
b10111 j
0/
0h
0!
0i
0"&
0X
0"4
b10111 N
b10111 y
#511
1!
1"&
1q
1i
b10111 S
1n
1":
1h
1/
1"4
1E
1X
10
#516
b01111 m
b01111 j
b01111 L
b01111 y
b01111 w
0q
b01111 a
0E
b01111 O
0n
0":
00
b01111 .
0/
0h
b01111 N
0!
b01111 M
0i
0"&
0X
0"4
b01111 k
#521
1!
1"&
1q
1i
1n
1":
1h
1/
1"4
1E
b01111 S
1X
10
#526
b01000 N
b01000 a
0q
b01000 M
b01000 .
b01000 m
0E
b01000 w
0n
0":
00
b01000 k
b01000 y
0/
0h
0!
b01000 L
b01000 j
0i
0"&
0X
0"4
b01000 O
#531
b01000 S
1!
1"&
1q
1i
1n
1":
1h
1/
1"4
1E
1X
10
#536
b01001 M
b01001 m
0q
0E
b01001 O
0n
0":
00
b01001 w
0/
0h
0!
b01001 L
b01001 y
b01001 k
0i
0"&
0X
b01001 a
0"4
b01001 j
b01001 .
b01001 N
#541
1!
1"&
1q
1i
1n
b01001 S
1":
1h
1/
1"4
1E
1X
10
#546
b10101 L
b10101 O
0q
b10101 M
0E
0n
0":
00
b10101 y
b10101 N
0/
0h
b10101 a
0!
b10101 w
b10101 m
0i
0"&
0X
0"4
b10101 k
b10101 .
b10101 j
#551
1!
1"&
1q
1i
b10101 S
1n
1":
1h
1/
1"4
1E
1X
10
#556
b11100 j
b11100 M
b11100 k
b11100 w
0q
b11100 L
b11100 .
0E
b11100 a
b11100 N
0n
0":
00
0/
0h
0!
0i
0"&
0X
b11100 m
0"4
b11100 O
b11100 y
#561
b11100 S
1"&
1!
1q
1i
1n
1":
1h
1/
1"4
1E
1X
10
#566
b10000 M
b10000 k
b10000 y
b10000 L
0q
b10000 m
b10000 a
0E
b10000 O
0n
0":
00
0/
0h
0!
0i
0"&
0X
b10000 w
0"4
b10000 N
b10000 .
b10000 j
#571
1!
1"&
1q
1i
1n
1":
b10000 S
1h
1/
1"4
1E
1X
10
#576
b10010 .
b10010 O
b10010 a
0q
b10010 w
0E
0n
0":
00
b10010 M
0/
0h
b10010 m
0!
b10010 k
b10010 j
b10010 N
0i
0"&
0X
0"4
b10010 y
b10010 L
#581
1!
1"&
1q
1i
1n
1":
1h
1/
1"4
1E
1X
10
b10010 S
#586
b11010 .
b11010 N
0q
b11010 w
b11010 L
b11010 m
b11010 j
0E
0n
0":
00
0/
0h
0!
b11010 M
0i
0"&
0X
0"4
b11010 a
b11010 y
b11010 O
b11010 k
#591
1!
1"&
1q
1i
1n
1":
b11010 S
1h
1"4
1/
1E
1X
10
#596
b11111 a
b11111 M
0q
0E
b11111 L
b11111 m
0n
0":
00
b11111 .
0/
0h
0!
b11111 O
b11111 N
0i
0"&
0X
0"4
b11111 y
b11111 k
b11111 w
b11111 j
#601
1!
1"&
1q
1i
1n
1":
b11111 S
1h
1/
1"4
1E
1X
10
#606
b00010 j
b00010 y
b00010 m
b00010 M
0E
0":
00
b00000000000000000000010000000000 H
b00000000000000000000010000000000 ,
b00010 .
0!
b00000000000000000000010000000000 _
b00010 L
0"4
b00010 k
b00000000000000000000010000000000 "5
b00010 O
b00000000000000000000010000000000 "=
0q
b00010 N
b00000000000000000000010000000000 "8
b00000000000000000000010000000000 `
0n
b00000000000000000000010000000000 K
0/
0h
b00000000000000000000010000000000 "A
0i
0"&
0X
b00010 a
b00010 w
#611
1!
1"&
1q
1n
b00000000000000000000010000000000 =
1":
1/
1"4
1E
b00000000000000000000010000000000 1
b00000000000000000000010000000000 +
1X
b00000000000000000000010000000000 P
b00000000000000000000010000000000 ".
1i
b00000000000000000000010000000000 "$
1h
b00010 S
10
#616
b00000000000000000000000000000000 =
b00000000000000000000000000000000 "=
b11101 y
b00000000000000000000000000000000 K
b11101 w
b11101 j
b11101 m
b11101 N
0E
b00000000000000000000000000000000 ".
b00000000000000000000000000000000 P
0":
00
b00000000000000000000000000000000 "8
0!
b00000000000000000000000000000000 `
b11101 M
b00000000000000000000000000000000 1
b00000000000000000000000000000000 ,
b00000000000000000000000000000000 +
0"4
b00000000000000000000000000000000 "A
b11101 O
b11101 L
0q
b00000000000000000000000000000000 _
0n
0/
0h
0i
0"&
0X
b11101 .
b11101 a
b00000000000000000000000000000000 "5
b11101 k
b00000000000000000000000000000000 H
#621
1!
1"&
1q
1n
1":
1/
1"4
1E
1X
1i
b00000000000000000000000000000000 "$
1h
b11101 S
10
#626
b11001 .
b11001 L
0q
b11001 m
b11001 j
b11001 M
0E
b11001 y
b11001 O
0n
0":
00
0/
0h
0!
b11001 a
0i
0"&
0X
0"4
b11001 w
b11001 N
b11001 k
#631
1!
1"&
1q
1i
1n
1":
b11001 S
1h
1/
1"4
1E
1X
10
#636
b10110 j
b10110 y
0q
0E
b10110 M
b10110 m
0n
0":
00
b10110 .
0/
0h
0!
b10110 L
b10110 w
0i
0"&
0X
b10110 O
b10110 a
0"4
b10110 k
b10110 N
#641
1!
1"&
1q
b10110 S
1i
1n
1":
1h
1/
1"4
1E
1X
10
#646
b11110 k
b11110 L
b11110 j
0q
0E
b11110 N
b11110 M
0n
00
0":
0/
0h
0!
b11110 .
b11110 y
0i
0"&
0X
b11110 w
0"4
b11110 m
b11110 a
b11110 O
#651
1!
1"&
1q
1i
1n
b11110 S
1":
1h
1/
1"4
1E
1X
10
#656
1"#
1u
0<
b00000000000000000000000000000100 f
b00000000000000000000000000000100 Z
0E
1"B
b00000000000000000000000000000100 ">
b00000 a
0":
00
b00000000000000000000000000000100 "6
0!
b00000 .
b00000000000000000000000000000100 "0
16
1p
0@
0*
0"4
02
0#
0%
1D
b00000 y
b00000 w
0e
0C
b00000000000000000000000000000100 "+
b00000000000000000000000000000100 "!
0q
b00000 M
b00000 j
0n
b00000000000000000000000000000100 &
1"-
1z
b00000 N
0/
0h
b00000000000000000000000000000100 c
0""
1r
07
b00000 L
0i
0"&
0X
b00000 m
1"7
b00000 O
b00000 k
0b
0"
#661
1!
1"&
b00000000000000000000000000000100 d
1q
1n
1":
1\
1/
1"4
b00000000000000000000000000000100 5
b00000000000000000000000000000100 G
1E
1X
b00000000000000000000000000000100 "9
1i
0(
b00000 S
1h
b00000000000000000000000000000100 ")
b00000000000000000000000000000100 }
10
#666
b00000000000000000000000000000100 [
b00000000000000000000000000000100 F
0E
b00000000000000000000000000000100 ;
0":
00
b00000000000000000000000000001000 &
b00000000000000000000000000001000 ">
0!
b00000000000000000000000000001000 "+
0"4
b00000000000000000000000000001000 "0
b00000000000000000000000000001000 "!
b00000000000000000000000000000100 s
b00000000000000000000000000001000 "6
b00000000000000000000000000000100 I
b00000000000000000000000000000100 U
0q
b00000000000000000000000000000100 ?
b00000000000000000000000000001000 f
b00000000000000000000000000001000 Z
0n
0/
0h
b000000000100 B
b00000000000000000000000000000100 v
0i
0"&
0X
b00000000000000000000000000001000 c
b00000000000000000000000000000100 :
#671
b00000000000000000000000000001000 5
b00000000000000000000000000001000 d
b00000000000000000000000000001000 ")
1!
1"&
1q
1n
1":
b00000000000000000000000000001000 }
1/
1"4
1E
1X
b00000000000000000000000000001000 "9
b000000000100 "(
1i
b000000000100 -
b00000000000000000000000000001000 G
1h
b000000000100 "'
10
#676
b00000000000000000000000000001100 F
b00000000000000000000000000001100 ;
b00000000000000000000000000001100 v
0E
0":
00
b00000000000000000000000000010000 "!
0!
b00000000000000000000000000001100 s
b00000000000000000000000000010000 &
b00000000000000000000000000010000 Z
0"4
b00000000000000000000000000001100 U
b00000000000000000000000000001100 ?
b00000000000000000000000000010000 "+
b000000001100 B
b00000000000000000000000000010000 c
b00000000000000000000000000001100 I
b00000000000000000000000000010000 ">
b00000000000000000000000000001100 [
b00000000000000000000000000010000 "0
0q
b00000000000000000000000000010000 "6
0n
b00000000000000000000000000010000 f
0/
0h
0i
0"&
0X
b00000000000000000000000000001100 :
#681
b00000000000000000000000000010000 G
10
1!
1"&
b00000000000000000000000000010000 "9
1q
1n
b00000000000000000000000000010000 d
1":
b00000000000000000000000000010000 5
1/
1"4
1E
1X
b000000001100 "'
b00000000000000000000000000010000 ")
1i
1h
b000000001100 -
b000000001100 "(
b00000000000000000000000000010000 }
