waveforms/load2.s.vcd
$date
2021-12-01T09:30+0000
$end
$version
0.2
$end
$comment

$end
$timescale 1ns  $end
$scope module Tile $end
 $var wire 1 * io_regsWriteEnable $end
 $var wire 32 + io_regsReadData $end
 $var wire 32 4 io_IMEMAddress $end
 $var wire 1 < io_regsDeviceWriteEnable $end
 $var wire 32 I io_DMEMAddress $end
 $var wire 32 Z io_DMEMWriteData $end
 $var wire 1 ] CPU $end
 $var wire 32 _ io_regsDeviceWriteData $end
 $var wire 5 a io_regsDeviceWriteAddress $end
 $var wire 1 i clock $end
 $var wire 32 l io_currentPC $end
 $var wire 5 m io_regsAddress $end
 $var wire 1 u io_DMEMWriteEnable $end
 $var wire 32 v io_memDeviceWriteAddress $end
 $var wire 32 ~ io_IMEMWriteData $end
 $var wire 32 "! io_memDeviceWriteData $end
 $var wire 32 ") io_DMEMReadData $end
 $var wire 1 ", reset $end
 $var wire 1 "2 io_setup $end
 $var wire 1 "7 io_memDeviceWriteEnable $end
 $var wire 32 "A io_regsWriteData $end
  $scope module CPU.MEM $end
  $upscope $end
  $scope module CPU.ID.registers $end
  $upscope $end
  $scope module CPU.IF $end
  $upscope $end
  $scope module CPU.IF.IMEM $end
  $upscope $end
  $scope module CPU.MEM.DMEM $end
  $upscope $end
  $scope module CPU $end
   $var wire 1 2 testHarness_regUpdates_writeEnable $end
   $var wire 1 > ID $end
   $var wire 1 D testHarness_memUpdates_writeEnable $end
   $var wire 32 K testHarness_regUpdates_writeData $end
   $var wire 5 L testHarness_regUpdates_writeAddress $end
   $var wire 5 M testHarness_setupSignals_registerSignals_readAddress $end
   $var wire 32 P testHarness_testReadouts_registerRead $end
   $var wire 32 T testHarness_currentPC $end
   $var wire 1 W IF $end
   $var wire 32 [ testHarness_memUpdates_writeAddress $end
   $var wire 1 ^ testHarness_setupSignals_DMEMsignals_setup $end
   $var wire 32 d testHarness_testReadouts_DMEMread $end
   $var wire 32 f testHarness_setupSignals_DMEMsignals_dataIn $end
   $var wire 1 g testHarness_setupSignals_IMEMsignals_setup $end
   $var wire 1 q clock $end
   $var wire 32 s testHarness_setupSignals_DMEMsignals_dataAddress $end
   $var wire 1 x testHarness_setupSignals_registerSignals_setup $end
   $var wire 1 { MEM $end
   $var wire 1 "" testHarness_setupSignals_registerSignals_writeEnable $end
   $var wire 32 "6 testHarness_memUpdates_writeData $end
   $var wire 32 "= testHarness_setupSignals_registerSignals_writeData $end
   $var wire 1 "@ reset $end
   $var wire 1 "B testHarness_setupSignals_DMEMsignals_writeEnable $end
    $scope module MEM $end
     $var wire 1 8 DMEM $end
     $var wire 32 ; testHarness_testUpdates_writeAddress $end
     $var wire 32 U testHarness_DMEMsetup_dataAddress $end
     $var wire 1 p testHarness_testUpdates_writeEnable $end
     $var wire 1 z testHarness_DMEMsetup_writeEnable $end
     $var wire 32 } testHarness_DMEMpeek $end
     $var wire 1 "* testHarness_DMEMsetup_setup $end
     $var wire 32 "0 testHarness_testUpdates_writeData $end
     $var wire 1 "4 clock $end
     $var wire 32 "> testHarness_DMEMsetup_dataIn $end
      $scope module DMEM $end
       $var wire 32 & testHarness_testUpdates_writeData $end
       $var wire 1 ) _GEN_6 $end
       $var wire 12 - data__T_24_addr_pipe_0 $end
       $var wire 1 6 testHarness_testUpdates_writeEnable $end
       $var wire 32 : testHarness_setup_dataAddress $end
       $var wire 32 ? testHarness_testUpdates_writeAddress $end
       $var wire 32 F addressSource $end
       $var wire 32 J data $end
       $var wire 1 r testHarness_setup_writeEnable $end
       $var wire 1 t testHarness_setup_setup $end
       $var wire 1 "& clock $end
       $var wire 32 "+ testHarness_setup_dataIn $end
       $var wire 32 "9 io_dataOut $end
        $scope module data $end
          $scope module _T_26 $end
           $var wire 1 ! clk $end
           $var wire 12 B addr $end
           $var wire 32 G pipeline_data_0 $end
           $var wire 1 \ pipeline_valid_0 $end
           $var wire 32 c data $end
           $var wire 1 "# en $end
           $var wire 12 "' pipeline_addr_0 $end
           $var wire 1 "- valid $end
           $var wire 1 "< mask $end
          $upscope $end
          $scope module _T_24 $end
           $var wire 32 5 data $end
           $var wire 1 h clk $end
           $var wire 1 "% en $end
           $var wire 12 "( addr $end
          $upscope $end
        $upscope $end
      $upscope $end
    $upscope $end
    $scope module ID $end
     $var wire 1 " testHarness_registerSetup_writeEnable $end
     $var wire 32 = testHarness_registerPeek $end
     $var wire 1 C testHarness_testUpdates_writeEnable $end
     $var wire 32 H testHarness_registerSetup_writeData $end
     $var wire 5 N testHarness_testUpdates_writeAddress $end
     $var wire 5 k testHarness_registerSetup_readAddress $end
     $var wire 1 o registers $end
     $var wire 1 "3 testHarness_registerSetup_setup $end
     $var wire 32 "5 testHarness_testUpdates_writeData $end
     $var wire 1 ": clock $end
      $scope module registers $end
       $var wire 1 % testHarness_testUpdates_writeEnable $end
       $var wire 1 ' testHarness_setup_setup $end
       $var wire 32 , testHarness_testUpdates_writeData $end
       $var wire 5 . readAddress1 $end
       $var wire 1 0 clock $end
       $var wire 32 1 io_readData1 $end
       $var wire 32 3 registerFile $end
       $var wire 1 7 testHarness_setup_writeEnable $end
       $var wire 1 @ writeEnable $end
       $var wire 5 O testHarness_testUpdates_writeAddress $end
       $var wire 32 ` testHarness_setup_writeData $end
       $var wire 5 y testHarness_setup_readAddress $end
        $scope module registerFile $end
          $scope module _T_33 $end
           $var wire 1 # en $end
           $var wire 1 ( pipeline_valid_0 $end
           $var wire 1 / clk $end
           $var wire 5 S pipeline_addr_0 $end
           $var wire 1 V mask $end
           $var wire 1 e valid $end
           $var wire 5 w addr $end
           $var wire 32 "$ pipeline_data_0 $end
           $var wire 32 "8 data $end
          $upscope $end
          $scope module _T_41 $end
           $var wire 32 A data $end
           $var wire 1 R en $end
           $var wire 1 n clk $end
           $var wire 5 "1 addr $end
          $upscope $end
          $scope module _T_38 $end
           $var wire 1 E clk $end
           $var wire 1 b en $end
           $var wire 5 j addr $end
           $var wire 32 ". data $end
          $upscope $end
        $upscope $end
      $upscope $end
    $upscope $end
    $scope module IF $end
     $var wire 1 $ testHarness_IMEMsetup_setup $end
     $var wire 1 9 IMEM $end
     $var wire 32 Q PC $end
     $var wire 1 X clock $end
     $var wire 32 Y testHarness_PC $end
     $var wire 1 | reset $end
     $var wire 32 "? _GEN_0 $end
      $scope module IMEM $end
       $var wire 32 "/ testHarness_requestedAddress $end
       $var wire 32 "; io_instructionAddress $end
      $upscope $end
    $upscope $end
  $upscope $end
  $scope module CPU.ID $end
  $upscope $end
$upscope $end
$enddefinitions $end
$dumpvars
0X
0C
0"7
1"<
0""
b00000000000000000000000000000000 Y
b00000000000000000000000000000000 ">
0o
0R
b00000000000000000000000000000000 "8
b00000000000000000000000000000000 l
b00000000000000000000000000000000 :
b00000000000000000000000000000000 Q
b00000000000000000000000000000000 }
0g
b00000000000000000000000000000000 ".
b00000000000000000000000000000000 K
b00000000000000000000000000000000 `
b000000000000 "(
0"@
0D
0/
0"#
0x
0":
b00000 S
0z
0r
0]
1)
b00000000000000000000000000000000 s
b00000 j
0@
b00000000000000000000000000000000 A
0W
b00000 O
b00000000000000000000000000000000 ;
0%
b000000000000 -
b00000000000000000000000000000000 "=
b00000000000000000000000000000000 Z
0p
b00000000000000000000000000000000 T
0>
0"2
b00000000000000000000000000000000 ?
06
0!
b00000 .
b00000000000000000000000000000000 "9
0"4
b00000 y
b00000000000000000000000000000000 P
b00000000000000000000000000000000 3
0{
b00000000000000000000000000000000 "5
b00000000000000000000000000000000 J
b000000000000 "'
b00000000000000000000000000000000 "/
0"*
0b
0E
00
0(
b00000000000000000000000000000000 "+
b00000000000000000000000000000000 _
1V
0u
b00000000000000000000000000000000 [
b00000000000000000000000000000000 "6
b00000000000000000000000000000000 "!
0q
0i
b00000000000000000000000000000000 U
0"3
b00000 a
b00000 L
07
0"
09
0"-
b00000000000000000000000000000000 f
0e
b00000 "1
b00000000000000000000000000000000 I
b00000000000000000000000000000000 4
0|
b00000000000000000000000000000000 "0
b00000000000000000000000000000000 d
0"B
b00000000000000000000000000000000 G
b00000000000000000000000000000000 "A
b00000000000000000000000000000000 "$
b00000000000000000000000000000000 ,
b00000 M
0t
b00000000000000000000000000000000 ";
b00000000000000000000000000000000 &
0n
0<
0'
b00000000000000000000000000000000 =
b00000000000000000000000000000000 "?
b00000 w
08
0",
0#
02
b000000000000 B
b00000000000000000000000000000000 5
b00000000000000000000000000000000 ~
0h
b00000 m
b00000000000000000000000000000000 c
b00000000000000000000000000000000 ")
b00000000000000000000000000000000 F
b00000000000000000000000000000000 1
0\
b00000000000000000000000000000000 H
0"&
b00000000000000000000000000000000 +
0*
0^
b00000 k
b00000 N
0$
1"%
b00000000000000000000000000000000 v
$end
#0
1",
1|
1"@
#1
1"&
1/
1n
1E
1q
1i
1h
1":
1"4
10
1X
1!
#6
0n
0/
0"4
0E
0X
0":
0i
0q
00
0h
0"&
0!
#11
1"&
1/
1n
1E
1q
1i
1h
1":
1"4
10
1X
1!
#16
0n
0/
0"4
0E
0X
0":
0i
0q
00
0h
0"&
0!
#21
1"&
1/
1n
1E
1q
1i
1h
1":
1"4
10
1X
1!
#26
0n
0/
0"4
0E
0X
0":
0i
0q
00
0h
0"&
0!
#31
1"&
1/
1n
1E
1q
1i
1h
1":
1"4
10
1X
1!
#36
0n
0/
0"4
0E
0X
0":
0i
0q
00
0h
0"&
0!
#41
1"&
1/
1n
1E
1q
1i
1h
1":
1"4
10
1X
1!
#46
1"2
1t
1"3
1g
0"4
0E
0|
0q
00
0n
0/
1$
1'
0X
0"@
0":
0i
1x
0h
0"&
1^
1"*
0",
0!
b00000000010000000000000010010011 ~
#51
1"&
1/
1n
1E
1q
1i
1h
1":
1"4
10
1X
1!
#56
0"4
0E
0q
00
b00000000010000000000000100010011 ~
0n
b00000000000000000000000000000100 4
0/
0X
0":
0i
0h
0"&
0!
#61
1"&
1/
1n
1E
1q
1i
1h
1":
1"4
10
1X
1!
#66
0"4
0E
b00000000010000000000000110010011 ~
0q
00
0n
0/
b00000000000000000000000000001000 4
0X
0":
0i
0h
0"&
0!
#71
1"&
1/
1n
1E
1q
1i
1h
1":
1"4
10
1X
1!
#76
0"4
0E
0q
00
b00000000010000000000001000010011 ~
b00000000000000000000000000001100 4
0n
0/
0X
0":
0i
0h
0"&
0!
#81
1"&
1/
1n
1E
1q
1i
1h
1":
1"4
10
1X
1!
#86
0"4
b00000000000000000000000000010000 4
0E
0q
00
b00000000000000001010000010000011 ~
0n
0/
0X
0":
0i
0h
0"&
0!
#91
1"&
1/
1n
1E
1q
1i
1h
1":
1"4
10
1X
1!
#96
0"4
0E
0q
00
b00000000000100001000000010110011 ~
b00000000000000000000000000010100 4
0n
0/
0X
0":
0i
0h
0"&
0!
#101
1"&
1/
1n
1E
1q
1i
1h
1":
1"4
10
1X
1!
#106
0"4
0E
b00000000000000000000000000011000 4
0q
00
b00000000000000001010000010000011 ~
0n
0/
0X
0":
0i
0h
0"&
0!
#111
1"&
1/
1n
1E
1q
1i
1h
1":
1"4
10
1X
1!
#116
0"4
0E
0q
00
b00000000000000000000000000011100 4
0n
0/
b00000000000100001010001000100011 ~
0X
0":
0i
0h
0"&
0!
#121
1"&
1/
1n
1E
1q
1i
1h
1":
1"4
10
1X
1!
#126
0"4
0E
0q
00
b00000000010000001010000010000011 ~
0n
0/
b00000000000000000000000000100000 4
0X
0":
0i
0h
0"&
0!
#131
1"&
1/
1n
1E
1q
1i
1h
1":
1"4
10
1X
1!
#136
0"4
0E
0q
00
b00000000000000000000000000010011 ~
0n
0/
b00000000000000000000000000100100 4
0X
0":
0i
0h
0"&
0!
#141
1"&
1/
1n
1E
1q
1i
1h
1":
1"4
10
1X
1!
#146
b01110 j
1C
0"4
0E
1""
00
b01110 k
b01110 a
1#
0/
b01110 N
b01110 w
0":
0i
0h
b01110 .
b01110 L
b00000000000000000000111111111100 4
b01110 m
0q
b01110 M
1"
17
12
1e
b01110 O
0n
1@
1*
b01110 y
0X
1%
1b
0"&
1<
0!
b00000000000000000000000000000000 ~
#151
1/
1E
1(
1h
b01110 S
1X
1"&
1n
1q
1i
1":
1"4
10
1!
#156
b01010 N
0"4
b01010 k
b01010 y
0E
0q
00
b01010 a
b01010 .
b01010 M
b01010 L
b01010 w
0n
0/
0X
b01010 O
0":
0i
b01010 m
b01010 j
0h
0"&
0!
#161
1"&
1/
1n
1E
1q
b01010 S
1i
1h
1":
1"4
10
1X
1!
#166
b10001 O
b10001 M
0"4
b10001 m
0E
b10001 N
b10001 j
0q
00
b10001 a
b10001 y
0n
0/
b10001 L
b10001 w
0X
0":
0i
b10001 .
0h
0"&
b10001 k
0!
#171
1"&
1/
1n
1E
1q
1i
b10001 S
1h
1":
1"4
10
1X
1!
#176
b00000 a
0"4
0E
b00000 O
0e
0q
00
b00000 j
b00000 M
0n
0/
0b
b00000 .
0#
b00000 L
b00000 m
0X
b00000 w
0":
0i
b00000 k
0h
0"&
0!
b00000 N
b00000 y
#181
1/
1E
0(
1h
1X
1"&
1n
1q
b00000 S
1i
1":
1"4
10
1!
#186
0"4
0E
b00100 O
b00100 N
0q
00
1e
b00100 L
b00100 j
0n
1#
0/
b00100 y
b00100 k
b00100 M
0X
0":
0i
b00100 a
b00100 .
0h
0"&
b00100 w
1b
b00100 m
0!
#191
1/
b00100 S
1E
1(
1h
1X
1"&
1n
1q
1i
1":
1"4
10
1!
#196
0"4
0E
b11000 m
b11000 .
b11000 j
b11000 k
0q
00
b11000 y
0n
b11000 M
0/
b11000 L
b11000 w
0X
0":
0i
b11000 N
0h
0"&
0!
b11000 O
b11000 a
#201
1"&
1/
1n
1E
1q
1i
1h
1":
b11000 S
1"4
10
1X
1!
#206
b00110 j
0"4
0E
b00110 m
b00110 a
0q
00
b00110 w
b00110 L
0n
b00110 k
0/
b00110 O
b00110 N
0X
0":
0i
0h
0"&
0!
b00110 y
b00110 M
b00110 .
#211
1"&
1/
1n
1E
1q
b00110 S
1i
1h
1":
1"4
10
1X
1!
#216
b10100 O
0"4
b10100 k
0E
b10100 y
b10100 .
0q
00
b10100 w
0n
0/
b10100 N
0X
b10100 M
0":
0i
b10100 a
b10100 L
0h
0"&
b10100 m
b10100 j
0!
#221
b10100 S
1"&
1/
1n
1E
1q
1i
1h
1":
1"4
10
1X
1!
#226
0"4
b00111 a
0E
b00111 M
0q
00
b00111 j
b00111 m
b00111 L
0n
0/
b00111 k
0X
b00111 w
0":
0i
b00111 .
0h
0"&
b00111 O
0!
b00111 y
b00111 N
#231
1"&
1/
1n
1E
1q
1i
1h
1":
b00111 S
1"4
10
1X
1!
#236
b00001 L
0"4
0E
0q
00
b00001 N
b00001 w
b00001 M
b00001 .
0n
b00001 k
0/
b00001 y
b00001 j
b00001 m
b00001 O
0X
0":
0i
0h
0"&
0!
b00001 a
#241
1"&
1/
1n
1E
1q
1i
1h
1":
1"4
b00001 S
10
1X
1!
#246
b11011 k
0"4
0E
b11011 w
0q
00
b11011 O
b11011 m
b11011 L
0n
b11011 N
0/
b11011 j
b11011 .
0X
b11011 y
0":
0i
0h
0"&
b11011 a
b11011 M
0!
#251
1"&
1/
1n
b11011 S
1E
1q
1i
1h
1":
1"4
10
1X
1!
#256
b01101 .
b01101 w
0"4
0E
b01101 M
0q
00
b01101 k
b01101 m
b01101 N
b01101 a
b01101 j
0n
0/
b01101 L
0X
0":
0i
0h
0"&
b01101 y
0!
b01101 O
#261
1"&
1/
1n
b01101 S
1E
1q
1i
1h
1":
1"4
10
1X
1!
#266
b01011 N
b01011 m
0"4
0E
b01011 y
0q
00
b01011 .
0n
0/
b01011 k
b01011 L
b01011 j
b01011 O
0X
0":
0i
b01011 a
b01011 M
0h
0"&
b01011 w
0!
#271
1"&
1/
1n
1E
1q
1i
1h
1":
b01011 S
1"4
10
1X
1!
#276
b01100 N
b01100 .
b01100 k
0"4
b01100 y
b01100 M
0E
b01100 j
0q
00
b01100 m
b01100 L
0n
b01100 O
0/
0X
0":
0i
b01100 a
0h
0"&
b01100 w
0!
#281
1"&
1/
1n
1E
1q
1i
b01100 S
1h
1":
1"4
10
1X
1!
#286
b00011 w
0"4
b00011 m
0E
b00011 O
0q
00
b00011 M
b00011 .
b00011 a
0n
0/
b00011 N
b00011 j
0X
0":
0i
b00011 L
0h
0"&
b00011 k
0!
b00011 y
#291
1"&
1/
1n
1E
1q
b00011 S
1i
1h
1":
1"4
10
1X
1!
#296
b00101 w
b00101 a
0"4
0E
0q
00
b00101 .
b00101 k
b00101 y
b00101 m
0n
0/
b00101 M
b00101 j
b00101 L
0X
0":
0i
b00101 N
0h
0"&
0!
b00101 O
#301
1"&
1/
1n
1E
1q
1i
b00101 S
1h
1":
1"4
10
1X
1!
#306
b10011 j
b10011 k
0"4
b10011 w
0E
0q
00
b10011 y
b10011 M
b10011 .
0n
0/
b10011 m
b10011 L
b10011 a
0X
0":
0i
0h
0"&
b10011 N
0!
b10011 O
#311
b10011 S
1"&
1/
1n
1E
1q
1i
1h
1":
1"4
10
1X
1!
#316
b10111 M
b10111 N
0"4
b10111 L
0E
b10111 .
b10111 k
0q
00
b10111 w
0n
0/
0X
b10111 m
0":
0i
0h
0"&
b10111 y
b10111 j
0!
b10111 a
b10111 O
#321
1"&
1/
1n
1E
1q
1i
b10111 S
1h
1":
1"4
10
1X
1!
#326
b01111 a
b01111 N
0"4
b01111 M
0E
0q
00
b01111 j
b01111 y
b01111 m
0n
b01111 O
b01111 w
0/
b01111 k
0X
b01111 L
0":
0i
0h
0"&
b01111 .
0!
#331
1"&
1/
1n
1E
1q
1i
b01111 S
1h
1":
1"4
10
1X
1!
#336
b01000 a
b01000 L
b01000 M
0"4
0E
b01000 y
b01000 N
b01000 .
0q
00
b01000 O
0n
b01000 j
0/
0X
0":
0i
0h
0"&
b01000 k
b01000 w
0!
b01000 m
#341
1"&
1/
1n
1E
1q
1i
1h
1":
1"4
10
1X
b01000 S
1!
#346
b01001 k
b01001 w
b01001 M
b01001 O
0"4
b01001 N
0E
b01001 L
0q
00
b01001 y
0n
0/
b01001 .
b01001 m
0X
b01001 a
0":
0i
b01001 j
0h
0"&
0!
#351
1"&
b01001 S
1/
1n
1E
1q
1i
1h
1":
1"4
10
1X
1!
#356
b10101 L
b10101 k
0"4
0E
b10101 m
b10101 N
b10101 .
0q
00
b10101 a
b10101 y
b10101 w
0n
b10101 O
0/
b10101 j
0X
b10101 M
0":
0i
0h
0"&
0!
#361
1"&
1/
1n
1E
1q
b10101 S
1i
1h
1":
1"4
10
1X
1!
#366
b11100 L
b11100 M
b11100 m
b11100 O
0"4
b11100 .
0E
b11100 y
0q
00
b11100 N
0n
0/
b11100 j
0X
0":
0i
b11100 k
0h
0"&
b11100 a
b11100 w
0!
#371
1"&
1/
1n
1E
1q
1i
1h
1":
1"4
10
1X
1!
b11100 S
#376
0"4
0E
b10000 M
b10000 O
b10000 a
0q
00
b10000 w
b10000 k
0n
b10000 L
b10000 j
0/
b10000 .
0X
0":
0i
b10000 y
b10000 N
0h
0"&
b10000 m
0!
#381
1"&
1/
1n
1E
1q
1i
1h
1":
1"4
10
1X
b10000 S
1!
#386
b10010 L
b10010 w
0"4
0E
0q
00
b10010 O
b10010 M
0n
0/
b10010 N
b10010 .
b10010 a
0X
b10010 y
0":
0i
b10010 m
0h
0"&
0!
b10010 j
b10010 k
#391
b10010 S
1"&
1/
1n
1E
1q
1i
1h
1":
1"4
10
1X
1!
#396
b11010 y
0"4
b11010 w
0E
b11010 m
0q
00
b11010 L
b11010 j
0n
b11010 O
0/
b11010 N
b11010 a
0X
0":
0i
0h
0"&
b11010 M
0!
b11010 k
b11010 .
#401
1"&
1/
1n
1E
1q
1i
1h
1":
b11010 S
1"4
10
1X
1!
#406
b11111 m
b11111 .
0"4
b11111 k
0E
b11111 a
b11111 j
0q
00
b11111 L
0n
b11111 O
0/
b11111 y
0X
0":
0i
0h
0"&
b11111 M
b11111 w
0!
b11111 N
#411
1"&
1/
1n
1E
1q
1i
1h
1":
1"4
b11111 S
10
1X
1!
#416
b00010 a
0"4
0E
b00000000000000000000010000000000 ,
00
b00010 L
0/
b00010 O
0":
0i
b00000000000000000000010000000000 "A
0h
b00000000000000000000010000000000 K
b00000000000000000000010000000000 H
b00010 m
b00010 .
b00010 j
b00000000000000000000010000000000 "5
b00010 w
b00000000000000000000010000000000 "8
0q
b00010 N
b00010 k
b00010 y
0n
b00010 M
b00000000000000000000010000000000 `
0X
0"&
b00000000000000000000010000000000 _
0!
b00000000000000000000010000000000 "=
#421
1/
b00000000000000000000010000000000 1
1E
b00000000000000000000010000000000 ".
b00000000000000000000010000000000 P
1h
b00000000000000000000010000000000 +
b00000000000000000000010000000000 =
1X
1"&
1n
1q
1i
b00010 S
b00000000000000000000010000000000 "$
1":
1"4
10
1!
#426
b00000000000000000000000000000000 ,
b00000000000000000000000000000000 _
0"4
0E
00
b11101 y
b11101 N
b00000000000000000000000000000000 ".
b11101 k
b00000000000000000000000000000000 K
0/
b00000000000000000000000000000000 `
0":
0i
b00000000000000000000000000000000 "5
b00000000000000000000000000000000 P
0h
b11101 .
b11101 j
b00000000000000000000000000000000 +
b11101 O
b00000000000000000000000000000000 H
b11101 w
b11101 M
0q
b00000000000000000000000000000000 "8
0n
b11101 m
b00000000000000000000000000000000 1
b00000000000000000000000000000000 "=
b11101 a
0X
b00000000000000000000000000000000 "A
b00000000000000000000000000000000 =
0"&
b11101 L
0!
#431
1/
1E
1h
b11101 S
1X
1"&
1n
1q
1i
1":
1"4
b00000000000000000000000000000000 "$
10
1!
#436
b11001 .
b11001 L
0"4
0E
0q
00
b11001 k
b11001 w
b11001 j
b11001 N
0n
b11001 m
0/
b11001 y
b11001 a
0X
0":
0i
0h
0"&
b11001 M
0!
b11001 O
#441
1"&
1/
1n
1E
1q
1i
1h
1":
b11001 S
1"4
10
1X
1!
#446
b10110 O
b10110 m
0"4
0E
b10110 N
0q
00
b10110 .
0n
b10110 j
0/
b10110 y
b10110 M
b10110 L
0X
b10110 a
0":
0i
0h
0"&
b10110 k
b10110 w
0!
#451
b10110 S
1"&
1/
1n
1E
1q
1i
1h
1":
1"4
10
1X
1!
#456
b11110 j
b11110 y
b11110 w
b11110 O
0"4
0E
0q
00
b11110 M
0n
0/
b11110 m
b11110 L
0X
0":
0i
0h
0"&
b11110 a
b11110 .
0!
b11110 N
b11110 k
#461
1"&
1/
b11110 S
1n
1E
1q
1i
1h
1":
1"4
10
1X
1!
#466
07
1D
0"4
1"7
1u
0E
1"#
0"
16
00
b00000000000000000000000000000100 "!
b00000000000000000000000000000100 "6
b00000 j
b00000 M
1r
b00000000000000000000000000000100 "0
0/
1p
b00000 L
0":
0i
b00000000000000000000000000000100 Z
b00000000000000000000000000000100 &
0h
b00000 k
0<
b00000 N
1z
b00000 a
02
0@
b00000 O
0e
1"-
0""
0q
b00000000000000000000000000000100 "+
1"B
b00000000000000000000000000000100 f
b00000000000000000000000000000100 c
0%
0n
0b
b00000 .
0#
b00000 m
0X
0*
0C
b00000 w
0"&
0!
b00000 y
b00000000000000000000000000000100 ">
#471
1/
1E
1\
0(
1h
b00000000000000000000000000000100 5
1X
1"&
b00000000000000000000000000000100 d
1n
1q
b00000000000000000000000000000100 }
b00000 S
1i
1":
1"4
b00000000000000000000000000000100 "9
10
b00000000000000000000000000000100 G
1!
b00000000000000000000000000000100 ")
#476
0"4
0E
00
b000000000100 B
b00000000000000000000000000001000 "0
0/
b00000000000000000000000000000100 :
b00000000000000000000000000001000 "+
0":
0i
b00000000000000000000000000000100 U
b00000000000000000000000000000100 F
0h
b00000000000000000000000000001000 f
b00000000000000000000000000000100 ;
b00000000000000000000000000001000 &
b00000000000000000000000000000100 [
b00000000000000000000000000001000 c
b00000000000000000000000000001000 "6
0q
0n
b00000000000000000000000000001000 Z
0X
b00000000000000000000000000000100 ?
b00000000000000000000000000001000 ">
0"&
b00000000000000000000000000000100 s
b00000000000000000000000000000100 v
0!
b00000000000000000000000000000100 I
b00000000000000000000000000001000 "!
#481
1/
b00000000000000000000000000001000 "9
1E
b000000000100 "(
1h
b00000000000000000000000000001000 d
b00000000000000000000000000001000 }
1X
b00000000000000000000000000001000 ")
1"&
1n
b000000000100 -
1q
b00000000000000000000000000001000 5
1i
1":
1"4
b000000000100 "'
10
1!
b00000000000000000000000000001000 G
#486
0"4
0E
00
b00000000000000000000000000010100 f
b00000000000000000000000000011000 ?
b00000000000000000000000000011000 I
0/
b00000000000000000000000000010100 ">
b00000000000000000000000000011000 U
0":
0i
0h
b00000000000000000000000000010100 "+
b00000000000000000000000000011000 :
b00000000000000000000000000010100 c
b00000000000000000000000000010100 "!
b000000011000 B
b00000000000000000000000000011000 ;
b00000000000000000000000000010100 "0
b00000000000000000000000000010100 &
b00000000000000000000000000010100 Z
0q
b00000000000000000000000000011000 F
b00000000000000000000000000010100 "6
b00000000000000000000000000011000 s
0n
b00000000000000000000000000011000 [
0X
b00000000000000000000000000011000 v
0"&
0!
#491
1/
b000000011000 "(
1E
1h
b00000000000000000000000000010100 5
b00000000000000000000000000010100 d
1X
b00000000000000000000000000010100 }
b00000000000000000000000000010100 G
1"&
1n
b00000000000000000000000000010100 "9
1q
b00000000000000000000000000010100 ")
1i
1":
b000000011000 -
1"4
b000000011000 "'
10
1!
#496
b00000000000000000000000000010100 F
b00000000000000000000000000010100 v
0"4
b000000010100 B
0E
b00000000000000000000000000010100 ;
b00000000000000000000000000010100 [
b00000000000000000000000000010100 I
0q
00
b00000000000000000000000000010100 :
0n
b00000000000000000000000000010100 U
0/
0X
0":
0i
0h
0"&
0!
b00000000000000000000000000010100 ?
b00000000000000000000000000010100 s
#501
b000000010100 "(
1/
1E
1h
b000000010100 -
1X
1"&
1n
1q
1i
1":
1"4
b000000010100 "'
10
1!
#506
b00000000000000000000000000100000 I
0"4
0E
b00000000000000000000000000100000 ?
b000000100000 B
0q
00
b00000000000000000000000000100000 :
b00000000000000000000000000100000 s
0n
b00000000000000000000000000100000 [
0/
b00000000000000000000000000100000 ;
b00000000000000000000000000100000 v
0X
0":
0i
b00000000000000000000000000100000 U
0h
0"&
b00000000000000000000000000100000 F
0!
#511
1/
1E
1h
b000000100000 "(
1X
1"&
1n
b000000100000 "'
1q
1i
1":
1"4
10
1!
b000000100000 -
#516
b00000000000000000000000000010000 c
0"4
0E
b00000000000000000000000000010000 "6
b00000000000000000000000000010000 "!
b00000000000000000000000000010000 Z
b00000000000000000000000000001100 I
b00000000000000000000000000010000 ">
00
0/
b00000000000000000000000000010000 &
0":
0i
0h
b00000000000000000000000000001100 [
b00000000000000000000000000010000 f
b00000000000000000000000000001100 v
b00000000000000000000000000010000 "0
b00000000000000000000000000001100 F
b00000000000000000000000000001100 ;
b00000000000000000000000000010000 "+
b000000001100 B
0q
b00000000000000000000000000001100 U
0n
b00000000000000000000000000001100 ?
0X
b00000000000000000000000000001100 :
0"&
b00000000000000000000000000001100 s
0!
#521
b00000000000000000000000000010000 G
b00000000000000000000000000010000 ")
1/
1E
b00000000000000000000000000010000 5
1h
b00000000000000000000000000010000 "9
b000000001100 "(
b00000000000000000000000000010000 d
b000000001100 -
1X
b000000001100 "'
1"&
1n
1q
b00000000000000000000000000010000 }
1i
1":
1"4
10
1!
#526
0"4
0E
b00000000000000000000000000001100 c
00
b00000000000000000000000000001000 U
b00000000000000000000000000001100 &
b00000000000000000000000000001000 I
b00000000000000000000000000001000 F
0/
0":
0i
b00000000000000000000000000001000 ;
0h
b00000000000000000000000000001100 "0
b00000000000000000000000000001100 "!
b00000000000000000000000000001100 "6
b00000000000000000000000000001000 v
0q
b00000000000000000000000000001000 :
b00000000000000000000000000001100 Z
b00000000000000000000000000001100 ">
0n
b00000000000000000000000000001100 f
b00000000000000000000000000001000 ?
b00000000000000000000000000001000 s
b000000001000 B
0X
b00000000000000000000000000001100 "+
0"&
b00000000000000000000000000001000 [
0!
#531
1/
1E
b00000000000000000000000000001100 d
b00000000000000000000000000001100 "9
1h
b00000000000000000000000000001100 ")
b000000001000 "(
b00000000000000000000000000001100 }
1X
b00000000000000000000000000001100 G
1"&
b000000001000 -
1n
1q
1i
1":
b000000001000 "'
1"4
b00000000000000000000000000001100 5
10
1!
#536
0"4
b00000000000000000000000000011100 s
b00000000000000000000000000011100 [
0E
00
b00000000000000000000000000010100 f
b00000000000000000000000000011100 U
b00000000000000000000000000011100 F
b00000000000000000000000000010100 ">
0/
b00000000000000000000000000011100 v
b00000000000000000000000000011100 I
0":
0i
b00000000000000000000000000011100 ;
0h
b00000000000000000000000000010100 "+
b00000000000000000000000000010100 c
b00000000000000000000000000010100 "!
b00000000000000000000000000011100 :
b00000000000000000000000000010100 "0
b00000000000000000000000000010100 &
b00000000000000000000000000010100 Z
0q
b00000000000000000000000000010100 "6
0n
b00000000000000000000000000011100 ?
b000000011100 B
0X
0"&
0!
#541
b000000011100 "'
1/
1E
b000000011100 "(
1h
b00000000000000000000000000010100 5
b00000000000000000000000000010100 d
1X
b00000000000000000000000000010100 }
b000000011100 -
b00000000000000000000000000010100 G
1"&
1n
b00000000000000000000000000010100 "9
1q
b00000000000000000000000000010100 ")
1i
1":
1"4
10
1!
#546
0"4
b00000000000000000000000000010000 I
0E
0q
00
b000000010000 B
b00000000000000000000000000010000 [
b00000000000000000000000000010000 F
b00000000000000000000000000010000 U
0n
b00000000000000000000000000010000 ;
0/
b00000000000000000000000000010000 :
0X
0":
0i
0h
0"&
0!
b00000000000000000000000000010000 ?
b00000000000000000000000000010000 s
b00000000000000000000000000010000 v
#551
1/
1E
1h
b000000010000 "(
b000000010000 -
1X
1"&
1n
1q
1i
b000000010000 "'
1":
1"4
10
1!
