waveforms/memoFib.s.vcd
$date
2021-12-01T09:31+0000
$end
$version
0.2
$end
$comment

$end
$timescale 1ns  $end
$scope module Tile $end
 $var wire 1 * io_regsWriteEnable $end
 $var wire 32 + io_regsReadData $end
 $var wire 32 4 io_IMEMAddress $end
 $var wire 1 < io_regsDeviceWriteEnable $end
 $var wire 32 I io_DMEMAddress $end
 $var wire 32 Z io_DMEMWriteData $end
 $var wire 1 ] CPU $end
 $var wire 32 _ io_regsDeviceWriteData $end
 $var wire 5 a io_regsDeviceWriteAddress $end
 $var wire 1 i clock $end
 $var wire 32 l io_currentPC $end
 $var wire 5 m io_regsAddress $end
 $var wire 1 u io_DMEMWriteEnable $end
 $var wire 32 v io_memDeviceWriteAddress $end
 $var wire 32 ~ io_IMEMWriteData $end
 $var wire 32 "! io_memDeviceWriteData $end
 $var wire 32 ") io_DMEMReadData $end
 $var wire 1 ", reset $end
 $var wire 1 "2 io_setup $end
 $var wire 1 "7 io_memDeviceWriteEnable $end
 $var wire 32 "A io_regsWriteData $end
  $scope module CPU.MEM $end
  $upscope $end
  $scope module CPU.ID.registers $end
  $upscope $end
  $scope module CPU.IF $end
  $upscope $end
  $scope module CPU.IF.IMEM $end
  $upscope $end
  $scope module CPU.MEM.DMEM $end
  $upscope $end
  $scope module CPU $end
   $var wire 1 2 testHarness_regUpdates_writeEnable $end
   $var wire 1 > ID $end
   $var wire 1 D testHarness_memUpdates_writeEnable $end
   $var wire 32 K testHarness_regUpdates_writeData $end
   $var wire 5 L testHarness_regUpdates_writeAddress $end
   $var wire 5 M testHarness_setupSignals_registerSignals_readAddress $end
   $var wire 32 P testHarness_testReadouts_registerRead $end
   $var wire 32 T testHarness_currentPC $end
   $var wire 1 W IF $end
   $var wire 32 [ testHarness_memUpdates_writeAddress $end
   $var wire 1 ^ testHarness_setupSignals_DMEMsignals_setup $end
   $var wire 32 d testHarness_testReadouts_DMEMread $end
   $var wire 32 f testHarness_setupSignals_DMEMsignals_dataIn $end
   $var wire 1 g testHarness_setupSignals_IMEMsignals_setup $end
   $var wire 1 q clock $end
   $var wire 32 s testHarness_setupSignals_DMEMsignals_dataAddress $end
   $var wire 1 x testHarness_setupSignals_registerSignals_setup $end
   $var wire 1 { MEM $end
   $var wire 1 "" testHarness_setupSignals_registerSignals_writeEnable $end
   $var wire 32 "6 testHarness_memUpdates_writeData $end
   $var wire 32 "= testHarness_setupSignals_registerSignals_writeData $end
   $var wire 1 "@ reset $end
   $var wire 1 "B testHarness_setupSignals_DMEMsignals_writeEnable $end
    $scope module MEM $end
     $var wire 1 8 DMEM $end
     $var wire 32 ; testHarness_testUpdates_writeAddress $end
     $var wire 32 U testHarness_DMEMsetup_dataAddress $end
     $var wire 1 p testHarness_testUpdates_writeEnable $end
     $var wire 1 z testHarness_DMEMsetup_writeEnable $end
     $var wire 32 } testHarness_DMEMpeek $end
     $var wire 1 "* testHarness_DMEMsetup_setup $end
     $var wire 32 "0 testHarness_testUpdates_writeData $end
     $var wire 1 "4 clock $end
     $var wire 32 "> testHarness_DMEMsetup_dataIn $end
      $scope module DMEM $end
       $var wire 32 & testHarness_testUpdates_writeData $end
       $var wire 1 ) _GEN_6 $end
       $var wire 12 - data__T_24_addr_pipe_0 $end
       $var wire 1 6 testHarness_testUpdates_writeEnable $end
       $var wire 32 : testHarness_setup_dataAddress $end
       $var wire 32 ? testHarness_testUpdates_writeAddress $end
       $var wire 32 F addressSource $end
       $var wire 32 J data $end
       $var wire 1 r testHarness_setup_writeEnable $end
       $var wire 1 t testHarness_setup_setup $end
       $var wire 1 "& clock $end
       $var wire 32 "+ testHarness_setup_dataIn $end
       $var wire 32 "9 io_dataOut $end
        $scope module data $end
          $scope module _T_26 $end
           $var wire 1 ! clk $end
           $var wire 12 B addr $end
           $var wire 32 G pipeline_data_0 $end
           $var wire 1 \ pipeline_valid_0 $end
           $var wire 32 c data $end
           $var wire 1 "# en $end
           $var wire 12 "' pipeline_addr_0 $end
           $var wire 1 "- valid $end
           $var wire 1 "< mask $end
          $upscope $end
          $scope module _T_24 $end
           $var wire 32 5 data $end
           $var wire 1 h clk $end
           $var wire 1 "% en $end
           $var wire 12 "( addr $end
          $upscope $end
        $upscope $end
      $upscope $end
    $upscope $end
    $scope module ID $end
     $var wire 1 " testHarness_registerSetup_writeEnable $end
     $var wire 32 = testHarness_registerPeek $end
     $var wire 1 C testHarness_testUpdates_writeEnable $end
     $var wire 32 H testHarness_registerSetup_writeData $end
     $var wire 5 N testHarness_testUpdates_writeAddress $end
     $var wire 5 k testHarness_registerSetup_readAddress $end
     $var wire 1 o registers $end
     $var wire 1 "3 testHarness_registerSetup_setup $end
     $var wire 32 "5 testHarness_testUpdates_writeData $end
     $var wire 1 ": clock $end
      $scope module registers $end
       $var wire 1 % testHarness_testUpdates_writeEnable $end
       $var wire 1 ' testHarness_setup_setup $end
       $var wire 32 , testHarness_testUpdates_writeData $end
       $var wire 5 . readAddress1 $end
       $var wire 1 0 clock $end
       $var wire 32 1 io_readData1 $end
       $var wire 32 3 registerFile $end
       $var wire 1 7 testHarness_setup_writeEnable $end
       $var wire 1 @ writeEnable $end
       $var wire 5 O testHarness_testUpdates_writeAddress $end
       $var wire 32 ` testHarness_setup_writeData $end
       $var wire 5 y testHarness_setup_readAddress $end
        $scope module registerFile $end
          $scope module _T_33 $end
           $var wire 1 # en $end
           $var wire 1 ( pipeline_valid_0 $end
           $var wire 1 / clk $end
           $var wire 5 S pipeline_addr_0 $end
           $var wire 1 V mask $end
           $var wire 1 e valid $end
           $var wire 5 w addr $end
           $var wire 32 "$ pipeline_data_0 $end
           $var wire 32 "8 data $end
          $upscope $end
          $scope module _T_41 $end
           $var wire 32 A data $end
           $var wire 1 R en $end
           $var wire 1 n clk $end
           $var wire 5 "1 addr $end
          $upscope $end
          $scope module _T_38 $end
           $var wire 1 E clk $end
           $var wire 1 b en $end
           $var wire 5 j addr $end
           $var wire 32 ". data $end
          $upscope $end
        $upscope $end
      $upscope $end
    $upscope $end
    $scope module IF $end
     $var wire 1 $ testHarness_IMEMsetup_setup $end
     $var wire 1 9 IMEM $end
     $var wire 32 Q PC $end
     $var wire 1 X clock $end
     $var wire 32 Y testHarness_PC $end
     $var wire 1 | reset $end
     $var wire 32 "? _GEN_0 $end
      $scope module IMEM $end
       $var wire 32 "/ testHarness_requestedAddress $end
       $var wire 32 "; io_instructionAddress $end
      $upscope $end
    $upscope $end
  $upscope $end
  $scope module CPU.ID $end
  $upscope $end
$upscope $end
$enddefinitions $end
$dumpvars
b00000000000000000000000000000000 Y
0C
0X
1"<
0""
0"7
0o
b00000000000000000000000000000000 ">
0R
b00000000000000000000000000000000 "8
b00000000000000000000000000000000 l
b00000000000000000000000000000000 :
b00000000000000000000000000000000 Q
b00000000000000000000000000000000 }
0g
b00000000000000000000000000000000 ".
b00000000000000000000000000000000 K
b00000000000000000000000000000000 `
b000000000000 "(
0"@
0D
0/
0"#
0x
0":
b00000 S
0z
0r
b00000000000000000000000000000000 s
0]
1)
b00000 j
0@
b00000000000000000000000000000000 A
0W
b00000000000000000000000000000000 ;
0%
b00000 O
b000000000000 -
b00000000000000000000000000000000 "=
b00000000000000000000000000000000 Z
0p
b00000000000000000000000000000000 T
0>
0"2
b00000000000000000000000000000000 ?
06
0!
b00000 .
b00000000000000000000000000000000 "9
0"4
b00000 y
b00000000000000000000000000000000 P
b00000000000000000000000000000000 3
0{
b00000000000000000000000000000000 "5
b00000000000000000000000000000000 J
b000000000000 "'
b00000000000000000000000000000000 "/
0"*
0b
0E
00
0(
b00000000000000000000000000000000 "+
b00000000000000000000000000000000 _
0u
1V
b00000000000000000000000000000000 [
b00000000000000000000000000000000 "6
b00000000000000000000000000000000 "!
0q
0i
b00000000000000000000000000000000 U
0"3
b00000 a
b00000 L
0"
07
09
0"-
b00000000000000000000000000000000 f
0e
b00000 "1
b00000000000000000000000000000000 I
b00000000000000000000000000000000 4
0|
b00000000000000000000000000000000 "0
b00000000000000000000000000000000 d
0"B
b00000000000000000000000000000000 G
b00000000000000000000000000000000 "A
b00000000000000000000000000000000 "$
b00000000000000000000000000000000 ,
b00000 M
0t
b00000000000000000000000000000000 ";
b00000000000000000000000000000000 &
0n
0<
0'
b00000000000000000000000000000000 =
b00000000000000000000000000000000 "?
b00000 w
08
0",
0#
02
b000000000000 B
b00000000000000000000000000000000 5
b00000000000000000000000000000000 ~
0h
b00000 m
b00000000000000000000000000000000 c
b00000000000000000000000000000000 ")
b00000000000000000000000000000000 F
b00000000000000000000000000000000 1
0\
b00000000000000000000000000000000 H
0"&
b00000000000000000000000000000000 +
0*
0^
b00000 k
b00000 N
0$
1"%
b00000000000000000000000000000000 v
$end
#0
1|
1",
1"@
#1
1":
1/
1E
1i
10
1"4
1"&
1q
1n
1h
1!
1X
#6
0E
0":
0n
0h
0i
0/
0"4
00
0!
0"&
0q
0X
#11
1":
1/
1E
1i
10
1"4
1"&
1q
1n
1h
1!
1X
#16
0E
0":
0n
0h
0i
0/
0"4
00
0!
0"&
0q
0X
#21
1":
1/
1E
1i
10
1"4
1"&
1q
1n
1h
1!
1X
#26
0E
0":
0n
0h
0i
0/
0"4
00
0!
0"&
0q
0X
#31
1":
1/
1E
1i
10
1"4
1"&
1q
1n
1h
1!
1X
#36
0E
0":
0n
0h
0i
0/
0"4
00
0!
0"&
0q
0X
#41
1":
1/
1E
1i
10
1"4
1"&
1q
1n
1h
1!
1X
#46
0E
0":
1g
1"*
0/
1'
1"3
0",
0q
0X
1x
1t
1"2
0n
0h
0i
1^
0|
1$
0"4
b11111110000000010000000100010011 ~
0"@
00
0!
0"&
#51
1":
1/
1E
1i
10
1"4
1"&
1q
1n
1h
1!
1X
#56
b00000000000000000000000000000100 4
0E
0":
0/
0q
0X
b00000000000100010010111000100011 ~
0n
0h
0i
0"4
00
0!
0"&
#61
1":
1/
1E
1i
10
1"4
1"&
1q
1n
1h
1!
1X
#66
0E
0":
0/
b00000000100000010010110000100011 ~
b00000000000000000000000000001000 4
0q
0X
0n
0h
0i
0"4
00
0!
0"&
#71
1":
1/
1E
1i
10
1"4
1"&
1q
1n
1h
1!
1X
#76
0E
0":
0/
b00000010000000010000010000010011 ~
b00000000000000000000000000001100 4
0q
0X
0n
0h
0i
0"4
00
0!
0"&
#81
1":
1/
1E
1i
10
1"4
1"&
1q
1n
1h
1!
1X
#86
b11111110000001000010011000100011 ~
0E
0":
0/
0q
0X
0n
0h
0i
b00000000000000000000000000010000 4
0"4
00
0!
0"&
#91
1":
1/
1E
1i
10
1"4
1"&
1q
1n
1h
1!
1X
#96
0E
0":
b00000110010000000000011110010011 ~
0/
0q
0X
b00000000000000000000000000010100 4
0n
0h
0i
0"4
00
0!
0"&
#101
1":
1/
1E
1i
10
1"4
1"&
1q
1n
1h
1!
1X
#106
0E
0":
0/
0q
0X
0n
b00000000000000000000000000011000 4
0h
0i
0"4
b11111110111101000010010000100011 ~
00
0!
0"&
#111
1":
1/
1E
1i
10
1"4
1"&
1q
1n
1h
1!
1X
#116
0E
0":
0/
0q
b11111110110001000010010110000011 ~
0X
0n
0h
0i
0"4
b00000000000000000000000000011100 4
00
0!
0"&
#121
1":
1/
1E
1i
10
1"4
1"&
1q
1n
1h
1!
1X
#126
0E
0":
0/
0q
0X
0n
0h
0i
0"4
00
b00000000000000000000000000100000 4
0!
b00000000101100000000010100010011 ~
0"&
#131
1":
1/
1E
1i
10
1"4
1"&
1q
1n
1h
1!
1X
#136
0E
0":
0/
0q
0X
0n
0h
0i
b00000000000000000000000000100100 4
0"4
b00010011100000000000000011101111 ~
00
0!
0"&
#141
1":
1/
1E
1i
10
1"4
1"&
1q
1n
1h
1!
1X
#146
0E
0":
b11111110100001000010010110000011 ~
0/
0q
0X
b00000000000000000000000000101000 4
0n
0h
0i
0"4
00
0!
0"&
#151
1":
1/
1E
1i
10
1"4
1"&
1q
1n
1h
1!
1X
#156
0E
0":
0/
0q
0X
0n
b00000000000000000000000000101100 4
0h
0i
0"4
00
0!
0"&
b00000000101100000000010100010011 ~
#161
1":
1/
1E
1i
10
1"4
1"&
1q
1n
1h
1!
1X
#166
b00010010110000000000000011101111 ~
0E
0":
0/
0q
0X
0n
0h
0i
0"4
00
0!
b00000000000000000000000000110000 4
0"&
#171
1":
1/
1E
1i
10
1"4
1"&
1q
1n
1h
1!
1X
#176
0E
0":
b00000000000000000000000000110100 4
0/
0q
0X
0n
0h
0i
0"4
00
b11111110100001000010011000000011 ~
0!
0"&
#181
1":
1/
1E
1i
10
1"4
1"&
1q
1n
1h
1!
1X
#186
0E
0":
0/
0q
b11111110110001000010010110000011 ~
b00000000000000000000000000111000 4
0X
0n
0h
0i
0"4
00
0!
0"&
#191
1":
1/
1E
1i
10
1"4
1"&
1q
1n
1h
1!
1X
#196
0E
0":
0/
b00000000000000000000000000111100 4
0q
0X
b00000000101000000000010100010011 ~
0n
0h
0i
0"4
00
0!
0"&
#201
1":
1/
1E
1i
10
1"4
1"&
1q
1n
1h
1!
1X
#206
0E
0":
0/
b00000000000000000000000001000000 4
0q
0X
b00000001110000000000000011101111 ~
0n
0h
0i
0"4
00
0!
0"&
#211
1":
1/
1E
1i
10
1"4
1"&
1q
1n
1h
1!
1X
#216
0E
0":
b00000000000000000000000001000100 4
0/
b00000000000000000000011110010011 ~
0q
0X
0n
0h
0i
0"4
00
0!
0"&
#221
1":
1/
1E
1i
10
1"4
1"&
1q
1n
1h
1!
1X
#226
0E
0":
b00000000000001111000010100110011 ~
0/
b00000000000000000000000001001000 4
0q
0X
0n
0h
0i
0"4
00
0!
0"&
#231
1":
1/
1E
1i
10
1"4
1"&
1q
1n
1h
1!
1X
#236
0E
0":
0/
0q
0X
0n
0h
0i
b00000001110000010010000010000011 ~
0"4
b00000000000000000000000001001100 4
00
0!
0"&
#241
1":
1/
1E
1i
10
1"4
1"&
1q
1n
1h
1!
1X
#246
0E
0":
0/
b00000001100000010010010000000011 ~
0q
0X
0n
0h
0i
b00000000000000000000000001010000 4
0"4
00
0!
0"&
#251
1":
1/
1E
1i
10
1"4
1"&
1q
1n
1h
1!
1X
#256
0E
0":
b00000010000000010000000100010011 ~
0/
0q
0X
b00000000000000000000000001010100 4
0n
0h
0i
0"4
00
0!
0"&
#261
1":
1/
1E
1i
10
1"4
1"&
1q
1n
1h
1!
1X
#266
0E
0":
b00000000000000000000000001011000 4
0/
b00000000000000001000000001100111 ~
0q
0X
0n
0h
0i
0"4
00
0!
0"&
#271
1":
1/
1E
1i
10
1"4
1"&
1q
1n
1h
1!
1X
#276
0E
0":
0/
b00000000000000000000000001011100 4
0q
0X
0n
0h
0i
0"4
b11111101000000010000000100010011 ~
00
0!
0"&
#281
1":
1/
1E
1i
10
1"4
1"&
1q
1n
1h
1!
1X
#286
0E
0":
0/
0q
0X
0n
0h
0i
b00000000000000000000000001100000 4
0"4
b00000010000100010010011000100011 ~
00
0!
0"&
#291
1":
1/
1E
1i
10
1"4
1"&
1q
1n
1h
1!
1X
#296
0E
0":
0/
0q
0X
b00000000000000000000000001100100 4
0n
0h
0i
b00000010100000010010010000100011 ~
0"4
00
0!
0"&
#301
1":
1/
1E
1i
10
1"4
1"&
1q
1n
1h
1!
1X
#306
b00000010100100010010001000100011 ~
0E
0":
0/
0q
0X
b00000000000000000000000001101000 4
0n
0h
0i
0"4
00
0!
0"&
#311
1":
1/
1E
1i
10
1"4
1"&
1q
1n
1h
1!
1X
#316
0E
0":
0/
b00000000000000000000000001101100 4
0q
0X
0n
0h
0i
0"4
b00000011000000010000010000010011 ~
00
0!
0"&
#321
1":
1/
1E
1i
10
1"4
1"&
1q
1n
1h
1!
1X
#326
b11111100101001000010111000100011 ~
0E
0":
0/
b00000000000000000000000001110000 4
0q
0X
0n
0h
0i
0"4
00
0!
0"&
#331
1":
1/
1E
1i
10
1"4
1"&
1q
1n
1h
1!
1X
#336
0E
0":
0/
b11111100101101000010110000100011 ~
b00000000000000000000000001110100 4
0q
0X
0n
0h
0i
0"4
00
0!
0"&
#341
1":
1/
1E
1i
10
1"4
1"&
1q
1n
1h
1!
1X
#346
b11111100110001000010101000100011 ~
0E
0":
0/
b00000000000000000000000001111000 4
0q
0X
0n
0h
0i
0"4
00
0!
0"&
#351
1":
1/
1E
1i
10
1"4
1"&
1q
1n
1h
1!
1X
#356
0E
0":
0/
0q
0X
b00000000000000000000000001111100 4
0n
0h
0i
b11111101110001000010011110000011 ~
0"4
00
0!
0"&
#361
1":
1/
1E
1i
10
1"4
1"&
1q
1n
1h
1!
1X
#366
0E
0":
0/
0q
0X
0n
0h
0i
b00000000001001111001011110010011 ~
b00000000000000000000000010000000 4
0"4
00
0!
0"&
#371
1":
1/
1E
1i
10
1"4
1"&
1q
1n
1h
1!
1X
#376
0E
0":
0/
0q
0X
0n
b11111101100001000010011100000011 ~
0h
0i
0"4
00
0!
0"&
b00000000000000000000000010000100 4
#381
1":
1/
1E
1i
10
1"4
1"&
1q
1n
1h
1!
1X
#386
0E
0":
0/
b00000000000000000000000010001000 4
0q
0X
0n
0h
0i
b00000000111101110000011110110011 ~
0"4
00
0!
0"&
#391
1":
1/
1E
1i
10
1"4
1"&
1q
1n
1h
1!
1X
#396
0E
0":
0/
0q
0X
b00000000000000000000000010001100 4
b00000000000001111010011110000011 ~
0n
0h
0i
0"4
00
0!
0"&
#401
1":
1/
1E
1i
10
1"4
1"&
1q
1n
1h
1!
1X
#406
0E
0":
0/
0q
0X
b00000000000001111000111001100011 ~
0n
b00000000000000000000000010010000 4
0h
0i
0"4
00
0!
0"&
#411
1":
1/
1E
1i
10
1"4
1"&
1q
1n
1h
1!
1X
#416
0E
0":
0/
0q
0X
0n
0h
0i
b11111101110001000010011110000011 ~
0"4
b00000000000000000000000010010100 4
00
0!
0"&
#421
1":
1/
1E
1i
10
1"4
1"&
1q
1n
1h
1!
1X
#426
0E
0":
0/
b00000000000000000000000010011000 4
0q
0X
0n
0h
0i
b00000000001001111001011110010011 ~
0"4
00
0!
0"&
#431
1":
1/
1E
1i
10
1"4
1"&
1q
1n
1h
1!
1X
#436
0E
0":
0/
b11111101010001000010011100000011 ~
b00000000000000000000000010011100 4
0q
0X
0n
0h
0i
0"4
00
0!
0"&
#441
1":
1/
1E
1i
10
1"4
1"&
1q
1n
1h
1!
1X
#446
0E
0":
0/
0q
0X
b00000000000000000000000010100000 4
0n
0h
0i
b00000000111101110000011110110011 ~
0"4
00
0!
0"&
#451
1":
1/
1E
1i
10
1"4
1"&
1q
1n
1h
1!
1X
#456
0E
0":
0/
0q
0X
b00000000000001111010011110000011 ~
0n
b00000000000000000000000010100100 4
0h
0i
0"4
00
0!
0"&
#461
1":
1/
1E
1i
10
1"4
1"&
1q
1n
1h
1!
1X
#466
0E
0":
0/
b00000000000000000000000010101000 4
0q
0X
0n
0h
0i
0"4
00
0!
0"&
b00001001110000000000000001101111 ~
#471
1":
1/
1E
1i
10
1"4
1"&
1q
1n
1h
1!
1X
#476
b00000000000000000000000010101100 4
0E
0":
0/
0q
0X
0n
0h
0i
b11111101110001000010011110000011 ~
0"4
00
0!
0"&
#481
1":
1/
1E
1i
10
1"4
1"&
1q
1n
1h
1!
1X
#486
0E
0":
b00000000000001111001011001100011 ~
0/
0q
0X
0n
b00000000000000000000000010110000 4
0h
0i
0"4
00
0!
0"&
#491
1":
1/
1E
1i
10
1"4
1"&
1q
1n
1h
1!
1X
#496
0E
0":
0/
b00000000000000000000011110010011 ~
0q
0X
0n
0h
0i
0"4
b00000000000000000000000010110100 4
00
0!
0"&
#501
1":
1/
1E
1i
10
1"4
1"&
1q
1n
1h
1!
1X
#506
0E
0":
0/
0q
0X
0n
0h
0i
0"4
b00000000000000000000000010111000 4
00
0!
b00001000110000000000000001101111 ~
0"&
#511
1":
1/
1E
1i
10
1"4
1"&
1q
1n
1h
1!
1X
#516
0E
0":
0/
b11111101110001000010011100000011 ~
0q
0X
0n
0h
0i
0"4
00
b00000000000000000000000010111100 4
0!
0"&
#521
1":
1/
1E
1i
10
1"4
1"&
1q
1n
1h
1!
1X
#526
0E
0":
b00000000000000000000000011000000 4
0/
0q
0X
0n
0h
0i
b00000000000100000000011110010011 ~
0"4
00
0!
0"&
#531
1":
1/
1E
1i
10
1"4
1"&
1q
1n
1h
1!
1X
#536
0E
0":
0/
0q
0X
0n
0h
0i
0"4
b00000000111101110001011001100011 ~
b00000000000000000000000011000100 4
00
0!
0"&
#541
1":
1/
1E
1i
10
1"4
1"&
1q
1n
1h
1!
1X
#546
0E
0":
0/
0q
0X
0n
0h
0i
b00000000000100000000011110010011 ~
0"4
00
b00000000000000000000000011001000 4
0!
0"&
#551
1":
1/
1E
1i
10
1"4
1"&
1q
1n
1h
1!
1X
#556
0E
0":
0/
0q
0X
0n
0h
0i
b00000000000000000000000011001100 4
b00000111100000000000000001101111 ~
0"4
00
0!
0"&
#561
1":
1/
1E
1i
10
1"4
1"&
1q
1n
1h
1!
1X
#566
0E
0":
0/
b00000000000000000000000011010000 4
0q
0X
0n
0h
0i
b11111101110001000010011110000011 ~
0"4
00
0!
0"&
#571
1":
1/
1E
1i
10
1"4
1"&
1q
1n
1h
1!
1X
#576
0E
0":
0/
0q
0X
0n
0h
0i
b00000000000000000000000011010100 4
0"4
00
0!
b11111111111101111000011110010011 ~
0"&
#581
1":
1/
1E
1i
10
1"4
1"&
1q
1n
1h
1!
1X
#586
0E
0":
0/
b00000000000000000000000011011000 4
0q
0X
0n
0h
0i
0"4
00
0!
0"&
b11111101010001000010011000000011 ~
#591
1":
1/
1E
1i
10
1"4
1"&
1q
1n
1h
1!
1X
#596
0E
0":
0/
0q
0X
0n
0h
0i
b11111101100001000010010110000011 ~
0"4
b00000000000000000000000011011100 4
00
0!
0"&
#601
1":
1/
1E
1i
10
1"4
1"&
1q
1n
1h
1!
1X
#606
0E
0":
b00000000000001111000010100110011 ~
0/
b00000000000000000000000011100000 4
0q
0X
0n
0h
0i
0"4
00
0!
0"&
#611
1":
1/
1E
1i
10
1"4
1"&
1q
1n
1h
1!
1X
#616
0E
0":
b11110111100111111111000011101111 ~
0/
b00000000000000000000000011100100 4
0q
0X
0n
0h
0i
0"4
00
0!
0"&
#621
1":
1/
1E
1i
10
1"4
1"&
1q
1n
1h
1!
1X
#626
0E
0":
0/
b00000000000001010000010010110011 ~
0q
0X
b00000000000000000000000011101000 4
0n
0h
0i
0"4
00
0!
0"&
#631
1":
1/
1E
1i
10
1"4
1"&
1q
1n
1h
1!
1X
#636
b00000000000000000000000011101100 4
0E
0":
0/
0q
0X
0n
0h
0i
b11111101110001000010011110000011 ~
0"4
00
0!
0"&
#641
1":
1/
1E
1i
10
1"4
1"&
1q
1n
1h
1!
1X
#646
0E
0":
b00000000000000000000000011110000 4
0/
b11111111111001111000011110010011 ~
0q
0X
0n
0h
0i
0"4
00
0!
0"&
#651
1":
1/
1E
1i
10
1"4
1"&
1q
1n
1h
1!
1X
#656
0E
0":
0/
0q
0X
0n
b00000000000000000000000011110100 4
0h
0i
0"4
00
0!
0"&
b11111101010001000010011000000011 ~
#661
1":
1/
1E
1i
10
1"4
1"&
1q
1n
1h
1!
1X
#666
0E
0":
0/
0q
0X
b00000000000000000000000011111000 4
0n
0h
0i
b11111101100001000010010110000011 ~
0"4
00
0!
0"&
#671
1":
1/
1E
1i
10
1"4
1"&
1q
1n
1h
1!
1X
#676
0E
0":
b00000000000001111000010100110011 ~
0/
0q
0X
0n
0h
0i
0"4
00
0!
0"&
b00000000000000000000000011111100 4
#681
1":
1/
1E
1i
10
1"4
1"&
1q
1n
1h
1!
1X
#686
0E
0":
b00000000000000000000000100000000 4
0/
0q
0X
0n
0h
0i
b11110101110111111111000011101111 ~
0"4
00
0!
0"&
#691
1":
1/
1E
1i
10
1"4
1"&
1q
1n
1h
1!
1X
#696
0E
0":
0/
0q
0X
b00000000000001010000011110110011 ~
0n
0h
0i
0"4
00
0!
0"&
b00000000000000000000000100000100 4
#701
1":
1/
1E
1i
10
1"4
1"&
1q
1n
1h
1!
1X
#706
0E
0":
0/
b00000000000000000000000100001000 4
0q
0X
0n
0h
0i
b00000000111101001000011110110011 ~
0"4
00
0!
0"&
#711
1":
1/
1E
1i
10
1"4
1"&
1q
1n
1h
1!
1X
#716
0E
0":
0/
0q
0X
0n
0h
0i
0"4
00
0!
0"&
b00000000000000000000000100001100 4
b11111110111101000010011000100011 ~
#721
1":
1/
1E
1i
10
1"4
1"&
1q
1n
1h
1!
1X
#726
0E
0":
0/
0q
0X
0n
0h
0i
b11111101110001000010011110000011 ~
0"4
b00000000000000000000000100010000 4
00
0!
0"&
#731
1":
1/
1E
1i
10
1"4
1"&
1q
1n
1h
1!
1X
#736
0E
0":
0/
0q
0X
0n
0h
0i
b00000000001001111001011110010011 ~
0"4
b00000000000000000000000100010100 4
00
0!
0"&
#741
1":
1/
1E
1i
10
1"4
1"&
1q
1n
1h
1!
1X
#746
0E
0":
b00000000000000000000000100011000 4
0/
0q
0X
0n
b11111101100001000010011100000011 ~
0h
0i
0"4
00
0!
0"&
#751
1":
1/
1E
1i
10
1"4
1"&
1q
1n
1h
1!
1X
#756
0E
0":
b00000000000000000000000100011100 4
0/
0q
0X
0n
0h
0i
b00000000111101110000011110110011 ~
0"4
00
0!
0"&
#761
1":
1/
1E
1i
10
1"4
1"&
1q
1n
1h
1!
1X
#766
0E
0":
0/
0q
0X
0n
0h
0i
0"4
b00000000000100000000011100010011 ~
b00000000000000000000000100100000 4
00
0!
0"&
#771
1":
1/
1E
1i
10
1"4
1"&
1q
1n
1h
1!
1X
#776
0E
0":
0/
b00000000000000000000000100100100 4
0q
0X
0n
0h
0i
0"4
00
0!
0"&
b00000000111001111010000000100011 ~
#781
1":
1/
1E
1i
10
1"4
1"&
1q
1n
1h
1!
1X
#786
0E
0":
0/
0q
0X
0n
0h
0i
b11111101110001000010011110000011 ~
0"4
b00000000000000000000000100101000 4
00
0!
0"&
#791
1":
1/
1E
1i
10
1"4
1"&
1q
1n
1h
1!
1X
#796
0E
0":
0/
b00000000000000000000000100101100 4
0q
0X
0n
0h
0i
b00000000001001111001011110010011 ~
0"4
00
0!
0"&
#801
1":
1/
1E
1i
10
1"4
1"&
1q
1n
1h
1!
1X
#806
0E
0":
0/
b11111101010001000010011100000011 ~
0q
0X
0n
0h
0i
0"4
b00000000000000000000000100110000 4
00
0!
0"&
#811
1":
1/
1E
1i
10
1"4
1"&
1q
1n
1h
1!
1X
#816
0E
0":
0/
0q
0X
0n
0h
0i
b00000000111101110000011110110011 ~
0"4
b00000000000000000000000100110100 4
00
0!
0"&
#821
1":
1/
1E
1i
10
1"4
1"&
1q
1n
1h
1!
1X
#826
b11111110110001000010011100000011 ~
0E
0":
0/
0q
0X
0n
b00000000000000000000000100111000 4
0h
0i
0"4
00
0!
0"&
#831
1":
1/
1E
1i
10
1"4
1"&
1q
1n
1h
1!
1X
#836
0E
0":
0/
0q
0X
0n
b00000000000000000000000100111100 4
0h
0i
0"4
00
0!
0"&
b00000000111001111010000000100011 ~
#841
1":
1/
1E
1i
10
1"4
1"&
1q
1n
1h
1!
1X
#846
0E
0":
b00000000000000000000000101000000 4
0/
0q
0X
0n
0h
0i
0"4
b11111110110001000010011110000011 ~
00
0!
0"&
#851
1":
1/
1E
1i
10
1"4
1"&
1q
1n
1h
1!
1X
#856
0E
0":
b00000000000001111000010100110011 ~
0/
0q
0X
0n
0h
0i
b00000000000000000000000101000100 4
0"4
00
0!
0"&
#861
1":
1/
1E
1i
10
1"4
1"&
1q
1n
1h
1!
1X
#866
0E
0":
0/
b00000010110000010010000010000011 ~
0q
0X
0n
0h
0i
0"4
00
0!
b00000000000000000000000101001000 4
0"&
#871
1":
1/
1E
1i
10
1"4
1"&
1q
1n
1h
1!
1X
#876
0E
0":
b00000010100000010010010000000011 ~
0/
b00000000000000000000000101001100 4
0q
0X
0n
0h
0i
0"4
00
0!
0"&
#881
1":
1/
1E
1i
10
1"4
1"&
1q
1n
1h
1!
1X
#886
0E
0":
0/
b00000010010000010010010010000011 ~
0q
0X
0n
b00000000000000000000000101010000 4
0h
0i
0"4
00
0!
0"&
#891
1":
1/
1E
1i
10
1"4
1"&
1q
1n
1h
1!
1X
#896
0E
0":
0/
0q
0X
b00000011000000010000000100010011 ~
0n
b00000000000000000000000101010100 4
0h
0i
0"4
00
0!
0"&
#901
1":
1/
1E
1i
10
1"4
1"&
1q
1n
1h
1!
1X
#906
0E
0":
0/
b00000000000000001000000001100111 ~
0q
0X
0n
0h
0i
0"4
00
0!
0"&
b00000000000000000000000101011000 4
#911
1":
1/
1E
1i
10
1"4
1"&
1q
1n
1h
1!
1X
#916
0E
0":
b00000000000000000000000101011100 4
0/
0q
0X
0n
0h
0i
0"4
b11111101000000010000000100010011 ~
00
0!
0"&
#921
1":
1/
1E
1i
10
1"4
1"&
1q
1n
1h
1!
1X
#926
0E
0":
b00000010100000010010011000100011 ~
0/
0q
0X
0n
0h
0i
b00000000000000000000000101100000 4
0"4
00
0!
0"&
#931
1":
1/
1E
1i
10
1"4
1"&
1q
1n
1h
1!
1X
#936
0E
0":
0/
0q
0X
0n
b00000000000000000000000101100100 4
0h
0i
0"4
b00000011000000010000010000010011 ~
00
0!
0"&
#941
1":
1/
1E
1i
10
1"4
1"&
1q
1n
1h
1!
1X
#946
b11111100101001000010111000100011 ~
0E
0":
0/
b00000000000000000000000101101000 4
0q
0X
0n
0h
0i
0"4
00
0!
0"&
#951
1":
1/
1E
1i
10
1"4
1"&
1q
1n
1h
1!
1X
#956
0E
0":
0/
b11111100101101000010110000100011 ~
0q
0X
0n
0h
0i
0"4
00
0!
0"&
b00000000000000000000000101101100 4
