waveforms/naiveFib.s.vcd
$date
2021-12-01T09:31+0000
$end
$version
0.2
$end
$comment

$end
$timescale 1ns  $end
$scope module Tile $end
 $var wire 1 * io_regsWriteEnable $end
 $var wire 32 + io_regsReadData $end
 $var wire 32 4 io_IMEMAddress $end
 $var wire 1 < io_regsDeviceWriteEnable $end
 $var wire 32 I io_DMEMAddress $end
 $var wire 32 Z io_DMEMWriteData $end
 $var wire 1 ] CPU $end
 $var wire 32 _ io_regsDeviceWriteData $end
 $var wire 5 a io_regsDeviceWriteAddress $end
 $var wire 1 i clock $end
 $var wire 32 l io_currentPC $end
 $var wire 5 m io_regsAddress $end
 $var wire 1 u io_DMEMWriteEnable $end
 $var wire 32 v io_memDeviceWriteAddress $end
 $var wire 32 ~ io_IMEMWriteData $end
 $var wire 32 "! io_memDeviceWriteData $end
 $var wire 32 ") io_DMEMReadData $end
 $var wire 1 ", reset $end
 $var wire 1 "2 io_setup $end
 $var wire 1 "7 io_memDeviceWriteEnable $end
 $var wire 32 "A io_regsWriteData $end
  $scope module CPU.MEM $end
  $upscope $end
  $scope module CPU.ID.registers $end
  $upscope $end
  $scope module CPU.IF $end
  $upscope $end
  $scope module CPU.IF.IMEM $end
  $upscope $end
  $scope module CPU.MEM.DMEM $end
  $upscope $end
  $scope module CPU $end
   $var wire 1 2 testHarness_regUpdates_writeEnable $end
   $var wire 1 > ID $end
   $var wire 1 D testHarness_memUpdates_writeEnable $end
   $var wire 32 K testHarness_regUpdates_writeData $end
   $var wire 5 L testHarness_regUpdates_writeAddress $end
   $var wire 5 M testHarness_setupSignals_registerSignals_readAddress $end
   $var wire 32 P testHarness_testReadouts_registerRead $end
   $var wire 32 T testHarness_currentPC $end
   $var wire 1 W IF $end
   $var wire 32 [ testHarness_memUpdates_writeAddress $end
   $var wire 1 ^ testHarness_setupSignals_DMEMsignals_setup $end
   $var wire 32 d testHarness_testReadouts_DMEMread $end
   $var wire 32 f testHarness_setupSignals_DMEMsignals_dataIn $end
   $var wire 1 g testHarness_setupSignals_IMEMsignals_setup $end
   $var wire 1 q clock $end
   $var wire 32 s testHarness_setupSignals_DMEMsignals_dataAddress $end
   $var wire 1 x testHarness_setupSignals_registerSignals_setup $end
   $var wire 1 { MEM $end
   $var wire 1 "" testHarness_setupSignals_registerSignals_writeEnable $end
   $var wire 32 "6 testHarness_memUpdates_writeData $end
   $var wire 32 "= testHarness_setupSignals_registerSignals_writeData $end
   $var wire 1 "@ reset $end
   $var wire 1 "B testHarness_setupSignals_DMEMsignals_writeEnable $end
    $scope module MEM $end
     $var wire 1 8 DMEM $end
     $var wire 32 ; testHarness_testUpdates_writeAddress $end
     $var wire 32 U testHarness_DMEMsetup_dataAddress $end
     $var wire 1 p testHarness_testUpdates_writeEnable $end
     $var wire 1 z testHarness_DMEMsetup_writeEnable $end
     $var wire 32 } testHarness_DMEMpeek $end
     $var wire 1 "* testHarness_DMEMsetup_setup $end
     $var wire 32 "0 testHarness_testUpdates_writeData $end
     $var wire 1 "4 clock $end
     $var wire 32 "> testHarness_DMEMsetup_dataIn $end
      $scope module DMEM $end
       $var wire 32 & testHarness_testUpdates_writeData $end
       $var wire 1 ) _GEN_6 $end
       $var wire 12 - data__T_24_addr_pipe_0 $end
       $var wire 1 6 testHarness_testUpdates_writeEnable $end
       $var wire 32 : testHarness_setup_dataAddress $end
       $var wire 32 ? testHarness_testUpdates_writeAddress $end
       $var wire 32 F addressSource $end
       $var wire 32 J data $end
       $var wire 1 r testHarness_setup_writeEnable $end
       $var wire 1 t testHarness_setup_setup $end
       $var wire 1 "& clock $end
       $var wire 32 "+ testHarness_setup_dataIn $end
       $var wire 32 "9 io_dataOut $end
        $scope module data $end
          $scope module _T_26 $end
           $var wire 1 ! clk $end
           $var wire 12 B addr $end
           $var wire 32 G pipeline_data_0 $end
           $var wire 1 \ pipeline_valid_0 $end
           $var wire 32 c data $end
           $var wire 1 "# en $end
           $var wire 12 "' pipeline_addr_0 $end
           $var wire 1 "- valid $end
           $var wire 1 "< mask $end
          $upscope $end
          $scope module _T_24 $end
           $var wire 32 5 data $end
           $var wire 1 h clk $end
           $var wire 1 "% en $end
           $var wire 12 "( addr $end
          $upscope $end
        $upscope $end
      $upscope $end
    $upscope $end
    $scope module ID $end
     $var wire 1 " testHarness_registerSetup_writeEnable $end
     $var wire 32 = testHarness_registerPeek $end
     $var wire 1 C testHarness_testUpdates_writeEnable $end
     $var wire 32 H testHarness_registerSetup_writeData $end
     $var wire 5 N testHarness_testUpdates_writeAddress $end
     $var wire 5 k testHarness_registerSetup_readAddress $end
     $var wire 1 o registers $end
     $var wire 1 "3 testHarness_registerSetup_setup $end
     $var wire 32 "5 testHarness_testUpdates_writeData $end
     $var wire 1 ": clock $end
      $scope module registers $end
       $var wire 1 % testHarness_testUpdates_writeEnable $end
       $var wire 1 ' testHarness_setup_setup $end
       $var wire 32 , testHarness_testUpdates_writeData $end
       $var wire 5 . readAddress1 $end
       $var wire 1 0 clock $end
       $var wire 32 1 io_readData1 $end
       $var wire 32 3 registerFile $end
       $var wire 1 7 testHarness_setup_writeEnable $end
       $var wire 1 @ writeEnable $end
       $var wire 5 O testHarness_testUpdates_writeAddress $end
       $var wire 32 ` testHarness_setup_writeData $end
       $var wire 5 y testHarness_setup_readAddress $end
        $scope module registerFile $end
          $scope module _T_33 $end
           $var wire 1 # en $end
           $var wire 1 ( pipeline_valid_0 $end
           $var wire 1 / clk $end
           $var wire 5 S pipeline_addr_0 $end
           $var wire 1 V mask $end
           $var wire 1 e valid $end
           $var wire 5 w addr $end
           $var wire 32 "$ pipeline_data_0 $end
           $var wire 32 "8 data $end
          $upscope $end
          $scope module _T_41 $end
           $var wire 32 A data $end
           $var wire 1 R en $end
           $var wire 1 n clk $end
           $var wire 5 "1 addr $end
          $upscope $end
          $scope module _T_38 $end
           $var wire 1 E clk $end
           $var wire 1 b en $end
           $var wire 5 j addr $end
           $var wire 32 ". data $end
          $upscope $end
        $upscope $end
      $upscope $end
    $upscope $end
    $scope module IF $end
     $var wire 1 $ testHarness_IMEMsetup_setup $end
     $var wire 1 9 IMEM $end
     $var wire 32 Q PC $end
     $var wire 1 X clock $end
     $var wire 32 Y testHarness_PC $end
     $var wire 1 | reset $end
     $var wire 32 "? _GEN_0 $end
      $scope module IMEM $end
       $var wire 32 "/ testHarness_requestedAddress $end
       $var wire 32 "; io_instructionAddress $end
      $upscope $end
    $upscope $end
  $upscope $end
  $scope module CPU.ID $end
  $upscope $end
$upscope $end
$enddefinitions $end
$dumpvars
0X
0C
b00000000000000000000000000000000 Y
1"<
0""
0"7
b00000000000000000000000000000000 ">
0o
0R
b00000000000000000000000000000000 "8
b00000000000000000000000000000000 l
b00000000000000000000000000000000 :
b00000000000000000000000000000000 Q
b00000000000000000000000000000000 }
0g
b00000000000000000000000000000000 ".
b00000000000000000000000000000000 `
b00000000000000000000000000000000 K
b000000000000 "(
0"@
0D
0/
0"#
0x
0":
b00000 S
0z
b00000000000000000000000000000000 s
0r
1)
0]
b00000 j
b00000000000000000000000000000000 A
0@
0W
b00000000000000000000000000000000 ;
b00000 O
0%
b000000000000 -
b00000000000000000000000000000000 "=
b00000000000000000000000000000000 Z
0p
b00000000000000000000000000000000 T
b00000000000000000000000000000000 ?
0"2
0>
06
0!
b00000 .
b00000000000000000000000000000000 "9
0"4
b00000 y
b00000000000000000000000000000000 P
b00000000000000000000000000000000 3
0{
b00000000000000000000000000000000 "5
b00000000000000000000000000000000 J
b000000000000 "'
b00000000000000000000000000000000 "/
0"*
0b
0E
00
0(
b00000000000000000000000000000000 "+
b00000000000000000000000000000000 _
0u
1V
b00000000000000000000000000000000 [
b00000000000000000000000000000000 "6
b00000000000000000000000000000000 "!
0q
0i
b00000000000000000000000000000000 U
0"3
b00000 a
b00000 L
07
0"
09
0"-
b00000000000000000000000000000000 f
0e
b00000 "1
b00000000000000000000000000000000 I
b00000000000000000000000000000000 4
0|
b00000000000000000000000000000000 "0
b00000000000000000000000000000000 d
0"B
b00000000000000000000000000000000 G
b00000000000000000000000000000000 "A
b00000000000000000000000000000000 "$
b00000000000000000000000000000000 ,
b00000 M
0t
b00000000000000000000000000000000 ";
b00000000000000000000000000000000 &
0n
0<
0'
b00000000000000000000000000000000 =
b00000000000000000000000000000000 "?
b00000 w
08
0",
0#
02
b000000000000 B
b00000000000000000000000000000000 5
b00000000000000000000000000000000 ~
0h
b00000 m
b00000000000000000000000000000000 c
b00000000000000000000000000000000 ")
b00000000000000000000000000000000 F
b00000000000000000000000000000000 1
0\
b00000000000000000000000000000000 H
0"&
0*
b00000000000000000000000000000000 +
0^
b00000 k
1"%
b00000 N
0$
b00000000000000000000000000000000 v
$end
#0
1|
1"@
1",
#1
1":
1/
10
1"&
1i
1X
1h
1n
1E
1!
1q
1"4
#6
0q
0i
00
0!
0"&
0h
0n
0E
0"4
0/
0":
0X
#11
1":
1/
10
1"&
1i
1X
1h
1n
1E
1!
1q
1"4
#16
0q
0i
00
0!
0"&
0h
0n
0E
0"4
0/
0":
0X
#21
1":
1/
10
1"&
1i
1X
1h
1n
1E
1!
1q
1"4
#26
0q
0i
00
0!
0"&
0h
0n
0E
0"4
0/
0":
0X
#31
1":
1/
10
1"&
1i
1X
1h
1n
1E
1!
1q
1"4
#36
0q
0i
00
0!
0"&
0h
0n
0E
0"4
0/
0":
0X
#41
1":
1/
10
1"&
1i
1X
1h
1n
1E
1!
1q
1"4
#46
1"*
0i
1$
1g
0h
0E
0",
1'
0"4
0":
0X
1"3
00
0|
0!
1t
0"&
1"2
0n
b11111111000000010000000100010011 ~
0"@
1^
0/
0q
1x
#51
1":
1/
10
1"&
1i
1X
1h
1n
1E
1!
1q
1"4
#56
0i
0h
0E
b00000000000100010010011000100011 ~
0"4
0":
0X
00
b00000000000000000000000000000100 4
0!
0"&
0n
0/
0q
#61
1":
1/
10
1"&
1i
1X
1h
1n
1E
1!
1q
1"4
#66
0i
0h
0E
0"4
0":
0X
00
0!
b00000000000000000000000000001000 4
b00000000100000010010010000100011 ~
0"&
0n
0/
0q
#71
1":
1/
10
1"&
1i
1X
1h
1n
1E
1!
1q
1"4
#76
0i
0h
b00000000000000000000000000001100 4
0E
0"4
0":
0X
00
b00000001000000010000010000010011 ~
0!
0"&
0n
0/
0q
#81
1":
1/
10
1"&
1i
1X
1h
1n
1E
1!
1q
1"4
#86
0i
0h
0E
0"4
b00000000011000000000010100010011 ~
0":
0X
00
0!
0"&
0n
b00000000000000000000000000010000 4
0/
0q
#91
1":
1/
10
1"&
1i
1X
1h
1n
1E
1!
1q
1"4
#96
0i
0h
0E
0"4
b00000001110000000000000011101111 ~
0":
0X
b00000000000000000000000000010100 4
00
0!
0"&
0n
0/
0q
#101
1":
1/
10
1"&
1i
1X
1h
1n
1E
1!
1q
1"4
#106
0i
0h
b00000000000001010000011110110011 ~
0E
0"4
0":
0X
00
0!
0"&
0n
b00000000000000000000000000011000 4
0q
0/
#111
1":
1/
10
1"&
1i
1X
1h
1n
1E
1!
1q
1"4
#116
0i
0h
0E
0"4
0":
0X
00
b00000000000001111000010100110011 ~
0!
0"&
b00000000000000000000000000011100 4
0n
0/
0q
#121
1":
1/
10
1"&
1i
1X
1h
1n
1E
1!
1q
1"4
#126
0i
0h
0E
0"4
0":
0X
00
0!
0"&
0n
b00000000000000000000000000100000 4
b00000000110000010010000010000011 ~
0/
0q
#131
1":
1/
10
1"&
1i
1X
1h
1n
1E
1!
1q
1"4
#136
0i
b00000000100000010010010000000011 ~
0h
0E
0"4
0":
0X
00
0!
0"&
0n
b00000000000000000000000000100100 4
0/
0q
#141
1":
1/
10
1"&
1i
1X
1h
1n
1E
1!
1q
1"4
#146
0i
0h
0E
b00000000000000000000000000101000 4
0"4
0":
0X
00
0!
b00000001000000010000000100010011 ~
0"&
0n
0/
0q
#151
1":
1/
10
1"&
1i
1X
1h
1n
1E
1!
1q
1"4
#156
0i
0h
0E
b00000000000000001000000001100111 ~
0"4
0":
b00000000000000000000000000101100 4
0X
00
0!
0"&
0n
0/
0q
#161
1":
1/
10
1"&
1i
1X
1h
1n
1E
1!
1q
1"4
#166
0i
b11111110000000010000000100010011 ~
b00000000000000000000000000110000 4
0h
0E
0"4
0":
0X
00
0!
0"&
0n
0/
0q
#171
1":
1/
10
1"&
1i
1X
1h
1n
1E
1!
1q
1"4
#176
0i
0h
0E
0"4
0":
0X
00
b00000000000000000000000000110100 4
0!
0"&
0n
b00000000000100010010111000100011 ~
0/
0q
#181
1":
1/
10
1"&
1i
1X
1h
1n
1E
1!
1q
1"4
#186
0i
0h
0E
b00000000000000000000000000111000 4
0"4
b00000000100000010010110000100011 ~
0":
0X
00
0!
0"&
0n
0/
0q
#191
1":
1/
10
1"&
1i
1X
1h
1n
1E
1!
1q
1"4
#196
0i
0h
0E
b00000000100100010010101000100011 ~
0"4
0":
0X
00
0!
0"&
0n
b00000000000000000000000000111100 4
0/
0q
#201
1":
1/
10
1"&
1i
1X
1h
1n
1E
1!
1q
1"4
#206
0i
0h
0E
0"4
b00000010000000010000010000010011 ~
0":
0X
b00000000000000000000000001000000 4
00
0!
0"&
0n
0/
0q
#211
1":
1/
10
1"&
1i
1X
1h
1n
1E
1!
1q
1"4
#216
0i
0h
0E
0"4
b11111110101001000010011000100011 ~
0":
0X
b00000000000000000000000001000100 4
00
0!
0"&
0n
0/
0q
#221
1":
1/
10
1"&
1i
1X
1h
1n
1E
1!
1q
1"4
#226
b00000000000000000000000001001000 4
0i
0h
0E
0"4
0":
0X
b11111110110001000010011110000011 ~
00
0!
0"&
0n
0/
0q
#231
1":
1/
10
1"&
1i
1X
1h
1n
1E
1!
1q
1"4
#236
0i
b00000000000000000000000001001100 4
0h
0E
b00000000000001111001011001100011 ~
0"4
0":
0X
00
0!
0"&
0n
0/
0q
#241
1":
1/
10
1"&
1i
1X
1h
1n
1E
1!
1q
1"4
#246
0i
0h
0E
0"4
0":
0X
00
0!
0"&
b00000000000000000000000001010000 4
0n
b00000000000000000000011110010011 ~
0/
0q
#251
1":
1/
10
1"&
1i
1X
1h
1n
1E
1!
1q
1"4
#256
0i
0h
0E
b00000000000000000000000001010100 4
0"4
0":
0X
00
0!
0"&
0n
b00000100010000000000000001101111 ~
0/
0q
#261
1":
1/
10
1"&
1i
1X
1h
1n
1E
1!
1q
1"4
#266
0i
0h
0E
0"4
0":
0X
00
b11111110110001000010011100000011 ~
0!
0"&
0n
b00000000000000000000000001011000 4
0/
0q
#271
1":
1/
10
1"&
1i
1X
1h
1n
1E
1!
1q
1"4
#276
0i
b00000000000100000000011110010011 ~
0h
0E
0"4
0":
0X
00
0!
0"&
0n
b00000000000000000000000001011100 4
0/
0q
#281
1":
1/
10
1"&
1i
1X
1h
1n
1E
1!
1q
1"4
#286
0i
0h
0E
0"4
b00000000000000000000000001100000 4
0":
0X
00
0!
0"&
0n
b00000000111101110001011001100011 ~
0/
0q
#291
1":
1/
10
1"&
1i
1X
1h
1n
1E
1!
1q
1"4
#296
0i
b00000000000100000000011110010011 ~
0h
0E
0"4
0":
0X
00
0!
0"&
0n
b00000000000000000000000001100100 4
0/
0q
#301
1":
1/
10
1"&
1i
1X
1h
1n
1E
1!
1q
1"4
#306
0i
0h
b00000011000000000000000001101111 ~
0E
b00000000000000000000000001101000 4
0"4
0":
0X
00
0!
0"&
0n
0/
0q
#311
1":
1/
10
1"&
1i
1X
1h
1n
1E
1!
1q
1"4
#316
0i
b00000000000000000000000001101100 4
0h
0E
0"4
0":
0X
b11111110110001000010011110000011 ~
00
0!
0"&
0n
0/
0q
#321
1":
1/
10
1"&
1i
1X
1h
1n
1E
1!
1q
1"4
#326
0i
0h
0E
0"4
0":
0X
00
0!
b00000000000000000000000001110000 4
0"&
b11111111111101111000011110010011 ~
0n
0/
0q
#331
1":
1/
10
1"&
1i
1X
1h
1n
1E
1!
1q
1"4
#336
0i
0h
0E
0"4
0":
0X
b00000000000000000000000001110100 4
00
b00000000000001111000010100110011 ~
0!
0"&
0n
0/
0q
#341
1":
1/
10
1"&
1i
1X
1h
1n
1E
1!
1q
1"4
#346
0i
b11111011100111111111000011101111 ~
0h
0E
b00000000000000000000000001111000 4
0"4
0":
0X
00
0!
0"&
0n
0/
0q
#351
1":
1/
10
1"&
1i
1X
1h
1n
1E
1!
1q
1"4
#356
0i
0h
0E
0"4
0":
0X
00
0!
0"&
b00000000000001010000010010110011 ~
0n
b00000000000000000000000001111100 4
0/
0q
#361
1":
1/
10
1"&
1i
1X
1h
1n
1E
1!
1q
1"4
#366
0i
0h
0E
0"4
0":
0X
b11111110110001000010011110000011 ~
00
0!
0"&
0n
b00000000000000000000000010000000 4
0/
0q
#371
1":
1/
10
1"&
1i
1X
1h
1n
1E
1!
1q
1"4
#376
0i
0h
0E
b00000000000000000000000010000100 4
b11111111111001111000011110010011 ~
0"4
0":
0X
00
0!
0"&
0n
0/
0q
#381
1":
1/
10
1"&
1i
1X
1h
1n
1E
1!
1q
1"4
#386
0i
0h
0E
0"4
b00000000000000000000000010001000 4
0":
0X
00
b00000000000001111000010100110011 ~
0!
0"&
0n
0/
0q
#391
1":
1/
10
1"&
1i
1X
1h
1n
1E
1!
1q
1"4
#396
0i
0h
0E
b11111010010111111111000011101111 ~
0"4
0":
0X
00
0!
0"&
0n
b00000000000000000000000010001100 4
0/
0q
#401
1":
1/
10
1"&
1i
1X
1h
1n
1E
1!
1q
1"4
#406
0i
0h
b00000000000001010000011110110011 ~
0E
0"4
0":
0X
00
0!
0"&
b00000000000000000000000010010000 4
0n
0/
0q
#411
1":
1/
10
1"&
1i
1X
1h
1n
1E
1!
1q
1"4
#416
0i
0h
0E
0"4
0":
0X
00
0!
0"&
0n
b00000000111101001000011110110011 ~
b00000000000000000000000010010100 4
0/
0q
#421
1":
1/
10
1"&
1i
1X
1h
1n
1E
1!
1q
1"4
#426
0i
0h
0E
0"4
0":
0X
b00000000000000000000000010011000 4
00
b00000000000001111000010100110011 ~
0!
0"&
0n
0/
0q
#431
1":
1/
10
1"&
1i
1X
1h
1n
1E
1!
1q
1"4
#436
0i
b00000000000000000000000010011100 4
0h
0E
0"4
0":
0X
b00000001110000010010000010000011 ~
00
0!
0"&
0n
0/
0q
#441
1":
1/
10
1"&
1i
1X
1h
1n
1E
1!
1q
1"4
#446
0i
0h
0E
0"4
0":
0X
00
b00000001100000010010010000000011 ~
0!
0"&
0n
b00000000000000000000000010100000 4
0/
0q
#451
1":
1/
10
1"&
1i
1X
1h
1n
1E
1!
1q
1"4
#456
b00000000000000000000000010100100 4
0i
0h
0E
0"4
0":
0X
00
b00000001010000010010010010000011 ~
0!
0"&
0n
0/
0q
#461
1":
1/
10
1"&
1i
1X
1h
1n
1E
1!
1q
1"4
#466
0i
0h
0E
0"4
b00000000000000000000000010101000 4
0":
0X
00
b00000010000000010000000100010011 ~
0!
0"&
0n
0/
0q
#471
1":
1/
10
1"&
1i
1X
1h
1n
1E
1!
1q
1"4
#476
0i
0h
0E
b00000000000000001000000001100111 ~
0"4
0":
0X
00
0!
0"&
b00000000000000000000000010101100 4
0n
0/
0q
#481
1":
1/
10
1"&
1i
1X
1h
1n
1E
1!
1q
1"4
#486
0i
b01110 N
b00000000000000000000111111111100 4
1"
1#
0E
1@
b01110 m
b01110 .
17
0":
0X
00
1<
1C
1*
0q
1""
1e
b01110 M
0h
b01110 k
b00000000000000000000000000000000 ~
0"4
b01110 j
0!
0"&
12
0n
b01110 y
b01110 L
b01110 O
b01110 w
1%
1b
0/
b01110 a
#491
1X
1E
1":
1/
10
1"&
1i
b01110 S
1(
1h
1n
1!
1q
1"4
#496
0i
b01010 O
b01010 y
b01010 m
b01010 N
0h
b01010 k
b01010 a
b01010 .
0E
0"4
0":
0X
b01010 M
00
b01010 L
0!
b01010 w
0"&
b01010 j
0n
0/
0q
#501
1":
1/
10
1"&
1i
b01010 S
1h
1X
1n
1E
1!
1q
1"4
#506
0i
b10001 m
b10001 y
b10001 M
0h
0E
b10001 w
b10001 a
0"4
0":
0X
00
b10001 L
0!
0"&
b10001 O
b10001 j
0n
b10001 k
b10001 N
0/
0q
b10001 .
#511
1":
1/
10
1"&
b10001 S
1i
1X
1h
1n
1E
1!
1q
1"4
#516
0i
b00000 a
b00000 y
0h
0E
b00000 .
b00000 k
0"4
0":
0X
b00000 O
0e
00
0!
0"&
b00000 M
0#
0n
0b
b00000 j
b00000 L
b00000 w
b00000 m
0/
0q
b00000 N
#521
0(
1X
1E
1":
1/
10
1"&
b00000 S
1i
1h
1n
1!
1q
1"4
#526
0i
b00100 N
b00100 j
b00100 M
1e
0h
b00100 k
1#
b00100 .
0E
b00100 y
b00100 a
b00100 m
0"4
0":
0X
00
0!
0"&
b00100 L
0n
b00100 w
b00100 O
1b
0/
0q
#531
1X
1E
1":
1/
10
1"&
1i
1(
1h
1n
1!
1q
b00100 S
1"4
#536
0i
b11000 L
b11000 j
b11000 N
0h
0E
b11000 m
0"4
b11000 O
b11000 .
0":
0X
b11000 y
00
0!
b11000 M
0"&
b11000 k
0n
b11000 a
0/
0q
b11000 w
#541
1":
1/
b11000 S
1"&
10
1i
1X
1h
1n
1E
1!
1q
1"4
#546
b00110 w
0i
0h
b00110 y
0E
b00110 N
b00110 O
0"4
b00110 k
0":
0X
b00110 a
00
b00110 j
0!
b00110 .
0"&
0n
b00110 m
b00110 M
0/
0q
b00110 L
#551
1":
1/
10
1"&
1i
b00110 S
1h
1X
1n
1E
1!
1q
1"4
#556
b10100 y
0i
b10100 N
b10100 L
b10100 j
0h
b10100 a
0E
b10100 O
0"4
b10100 w
0":
0X
00
b10100 m
0!
0"&
0n
b10100 .
b10100 M
b10100 k
0/
0q
#561
1":
b10100 S
1/
10
1"&
1i
1X
1h
1n
1E
1!
1q
1"4
#566
0i
b00111 m
b00111 k
b00111 a
b00111 j
0h
0E
b00111 L
0"4
b00111 w
b00111 M
0":
0X
b00111 .
00
0!
0"&
b00111 O
0n
b00111 N
b00111 y
0/
0q
#571
1":
1/
10
1"&
b00111 S
1i
1X
1h
1n
1E
1!
1q
1"4
#576
0i
b00001 a
0E
b11101011000111001110101100011100 `
b00001 N
0":
0X
00
b00001 m
b00001 k
b00001 y
b11101011000111001110101100011100 "=
0q
b00001 .
b11101011000111001110101100011100 "5
b11101011000111001110101100011100 "8
b11101011000111001110101100011100 ,
b11101011000111001110101100011100 _
0h
b11101011000111001110101100011100 K
0"4
b11101011000111001110101100011100 H
b00001 O
0!
0"&
0n
b00001 M
b00001 L
b00001 w
b00001 j
b11101011000111001110101100011100 "A
0/
#581
b00001 S
b11101011000111001110101100011100 =
b11101011000111001110101100011100 1
1X
1E
1":
b11101011000111001110101100011100 +
b11101011000111001110101100011100 ".
1/
10
1"&
b11101011000111001110101100011100 P
1i
b11101011000111001110101100011100 "$
1h
1n
1!
1q
1"4
#586
0i
b11011 L
b00000000000000000000000000000000 H
b00000000000000000000000000000000 "=
0E
b11011 M
0":
0X
b00000000000000000000000000000000 `
00
b11011 w
b00000000000000000000000000000000 P
b11011 a
0q
b00000000000000000000000000000000 1
0h
b11011 m
b11011 N
b00000000000000000000000000000000 "A
b11011 O
b00000000000000000000000000000000 "8
0"4
b11011 y
0!
b00000000000000000000000000000000 K
b00000000000000000000000000000000 +
0"&
b11011 .
b00000000000000000000000000000000 ".
0n
b11011 k
b00000000000000000000000000000000 =
b11011 j
b00000000000000000000000000000000 ,
b00000000000000000000000000000000 "5
0/
b00000000000000000000000000000000 _
#591
b11011 S
1X
1E
1":
b00000000000000000000000000000000 "$
1/
10
1"&
1i
1h
1n
1!
1q
1"4
#596
0i
b01101 a
b01101 .
b01101 L
0h
b01101 M
0E
b01101 k
b01101 O
0"4
b01101 y
0":
0X
00
0!
b01101 m
0"&
0n
b01101 w
b01101 N
0/
0q
b01101 j
#601
1":
1/
10
1"&
b01101 S
1i
1X
1h
1n
1E
1!
1q
1"4
#606
0i
b01011 a
b01011 y
b01011 M
0h
b01011 .
0E
b01011 w
b01011 L
0"4
0":
0X
b01011 m
00
0!
b01011 k
0"&
b01011 j
0n
b01011 N
b01011 O
0/
0q
#611
1":
b01011 S
1/
10
1"&
1i
1X
1h
1n
1E
1!
1q
1"4
#616
0i
b01100 j
b01100 L
b01100 m
0h
0E
b01100 k
0"4
0":
0X
b01100 O
00
0!
b01100 .
0"&
b01100 w
b01100 y
0n
b01100 M
b01100 a
b01100 N
0/
0q
#621
1":
1/
10
1"&
b01100 S
1i
1X
1h
1n
1E
1!
1q
1"4
#626
b00011 L
0i
b00011 M
b00011 O
b00011 j
0h
b00011 .
0E
0"4
0":
0X
00
0!
0"&
b00011 k
0n
b00011 w
b00011 a
b00011 y
b00011 m
0/
0q
b00011 N
#631
1":
b00011 S
1/
10
1"&
1i
1X
1h
1n
1E
1!
1q
1"4
#636
0i
0h
b00101 m
b00101 k
0E
b00101 N
0"4
0":
0X
b00101 L
b00101 j
00
0!
b00101 y
0"&
b00101 M
b00101 a
b00101 .
0n
b00101 O
b00101 w
0/
0q
#641
1":
1/
10
b00101 S
1"&
1i
1X
1h
1n
1E
1!
1q
1"4
#646
0i
b10011 y
b10011 m
b10011 a
0h
0E
b10011 O
0"4
0":
0X
00
0!
b10011 k
b10011 j
0"&
0n
b10011 M
b10011 N
b10011 L
b10011 .
b10011 w
0/
0q
#651
1":
1/
10
1"&
1i
b10011 S
1X
1h
1n
1E
1!
1q
1"4
#656
0i
b10111 a
0h
b10111 N
b10111 L
0E
0"4
0":
0X
b10111 y
b10111 .
00
b10111 O
0!
b10111 k
b10111 m
0"&
0n
b10111 j
b10111 M
b10111 w
0/
0q
#661
1":
1/
10
1"&
1i
b10111 S
1X
1h
1n
1E
1!
1q
1"4
#666
b01111 k
0i
b01111 M
b01111 O
b01111 y
0h
b01111 j
0E
0"4
0":
0X
b01111 m
00
b01111 a
0!
0"&
0n
b01111 .
b01111 L
b01111 N
0/
0q
b01111 w
#671
1":
1/
10
1"&
1i
b01111 S
1X
1h
1n
1E
1!
1q
1"4
#676
0i
b01000 a
b01000 m
b01000 N
b01000 O
b01000 M
0h
0E
0"4
0":
0X
b01000 k
b01000 w
00
b01000 L
0!
b01000 j
0"&
0n
b01000 .
b01000 y
0/
0q
#681
1":
1/
10
1"&
1i
1X
1h
1n
b01000 S
1!
1q
1E
1"4
#686
0i
b01001 M
b01001 O
b01001 a
0h
b01001 y
0E
0"4
0":
0X
b01001 L
b01001 N
00
b01001 .
0!
b01001 m
0"&
b01001 k
b01001 j
b01001 w
0n
0/
0q
#691
1":
b01001 S
1/
10
1"&
1i
1X
1h
1n
1E
1!
1q
1"4
#696
0i
b10101 a
b10101 N
0h
b10101 M
0E
b10101 y
b10101 L
0"4
b10101 O
b10101 j
0":
0X
b10101 w
00
0!
b10101 m
0"&
b10101 .
0n
b10101 k
0/
0q
#701
1":
1/
10
1"&
1i
b10101 S
1X
1h
1n
1E
1!
1q
1"4
#706
0i
b11100 N
0h
0E
0"4
b11100 m
0":
0X
b11100 y
00
0!
0"&
b11100 M
b11100 j
0n
b11100 O
b11100 a
b11100 k
b11100 L
b11100 w
0/
0q
b11100 .
#711
1":
1/
b11100 S
1"&
10
1i
1X
1h
1n
1E
1!
1q
1"4
#716
b10000 O
0i
b10000 m
b10000 j
0h
0E
0"4
0":
0X
b10000 a
00
0!
b10000 .
b10000 M
0"&
0n
b10000 L
b10000 y
b10000 k
b10000 w
b10000 N
0/
0q
#721
b10000 S
1":
1/
10
1"&
1i
1X
1h
1n
1E
1!
1q
1"4
#726
0i
b10010 y
b10010 N
b10010 L
0h
0E
0"4
b10010 a
0":
0X
b10010 O
b10010 .
00
0!
b10010 m
b10010 k
0"&
0n
b10010 w
b10010 j
b10010 M
0q
0/
#731
1":
1/
10
1"&
1i
b10010 S
1X
1h
1n
1E
1!
1q
1"4
#736
0i
b11010 k
b11010 O
b11010 M
0h
b11010 m
0E
b11010 N
0"4
b11010 y
0":
0X
b11010 j
00
0!
0"&
0n
b11010 L
b11010 a
b11010 .
0/
0q
b11010 w
#741
1":
1/
10
1"&
1i
1X
1h
1n
b11010 S
1!
1q
1E
1"4
#746
0i
b11111 m
b11111 M
0h
b11111 N
0E
0"4
b11111 O
0":
0X
b11111 L
b11111 .
00
0!
0"&
0n
b11111 k
b11111 y
b11111 a
b11111 j
0/
0q
b11111 w
#751
1":
1/
10
1"&
1i
1X
1h
1n
1E
1!
1q
b11111 S
1"4
#756
0i
b00010 w
b00000000000000000000010000000000 ,
0E
b00000000000000000000010000000000 `
0":
0X
b00000000000000000000010000000000 _
b00010 .
00
b00010 M
b00000000000000000000010000000000 "=
b00010 a
b00010 O
b00000000000000000000010000000000 H
b00010 y
0q
b00010 N
b00010 L
b00000000000000000000010000000000 "8
0h
b00010 k
0"4
b00000000000000000000010000000000 "5
b00010 j
b00000000000000000000010000000000 K
0!
b00000000000000000000010000000000 "A
0"&
b00010 m
0n
0/
#761
1X
b00000000000000000000010000000000 ".
1E
1":
b00000000000000000000010000000000 1
b00000000000000000000010000000000 +
1/
10
1"&
b00000000000000000000010000000000 =
1i
1h
b00000000000000000000010000000000 P
1n
b00010 S
1!
1q
b00000000000000000000010000000000 "$
1"4
