waveforms/palindrome.s.vcd
$date
2021-12-01T09:31+0000
$end
$version
0.2
$end
$comment

$end
$timescale 1ns  $end
$scope module Tile $end
 $var wire 1 * io_regsWriteEnable $end
 $var wire 32 + io_regsReadData $end
 $var wire 32 4 io_IMEMAddress $end
 $var wire 1 < io_regsDeviceWriteEnable $end
 $var wire 32 I io_DMEMAddress $end
 $var wire 32 Z io_DMEMWriteData $end
 $var wire 1 ] CPU $end
 $var wire 32 _ io_regsDeviceWriteData $end
 $var wire 5 a io_regsDeviceWriteAddress $end
 $var wire 1 i clock $end
 $var wire 32 l io_currentPC $end
 $var wire 5 m io_regsAddress $end
 $var wire 1 u io_DMEMWriteEnable $end
 $var wire 32 v io_memDeviceWriteAddress $end
 $var wire 32 ~ io_IMEMWriteData $end
 $var wire 32 "! io_memDeviceWriteData $end
 $var wire 32 ") io_DMEMReadData $end
 $var wire 1 ", reset $end
 $var wire 1 "2 io_setup $end
 $var wire 1 "7 io_memDeviceWriteEnable $end
 $var wire 32 "A io_regsWriteData $end
  $scope module CPU.MEM $end
  $upscope $end
  $scope module CPU.ID.registers $end
  $upscope $end
  $scope module CPU.IF $end
  $upscope $end
  $scope module CPU.IF.IMEM $end
  $upscope $end
  $scope module CPU.MEM.DMEM $end
  $upscope $end
  $scope module CPU $end
   $var wire 1 2 testHarness_regUpdates_writeEnable $end
   $var wire 1 > ID $end
   $var wire 1 D testHarness_memUpdates_writeEnable $end
   $var wire 32 K testHarness_regUpdates_writeData $end
   $var wire 5 L testHarness_regUpdates_writeAddress $end
   $var wire 5 M testHarness_setupSignals_registerSignals_readAddress $end
   $var wire 32 P testHarness_testReadouts_registerRead $end
   $var wire 32 T testHarness_currentPC $end
   $var wire 1 W IF $end
   $var wire 32 [ testHarness_memUpdates_writeAddress $end
   $var wire 1 ^ testHarness_setupSignals_DMEMsignals_setup $end
   $var wire 32 d testHarness_testReadouts_DMEMread $end
   $var wire 32 f testHarness_setupSignals_DMEMsignals_dataIn $end
   $var wire 1 g testHarness_setupSignals_IMEMsignals_setup $end
   $var wire 1 q clock $end
   $var wire 32 s testHarness_setupSignals_DMEMsignals_dataAddress $end
   $var wire 1 x testHarness_setupSignals_registerSignals_setup $end
   $var wire 1 { MEM $end
   $var wire 1 "" testHarness_setupSignals_registerSignals_writeEnable $end
   $var wire 32 "6 testHarness_memUpdates_writeData $end
   $var wire 32 "= testHarness_setupSignals_registerSignals_writeData $end
   $var wire 1 "@ reset $end
   $var wire 1 "B testHarness_setupSignals_DMEMsignals_writeEnable $end
    $scope module MEM $end
     $var wire 1 8 DMEM $end
     $var wire 32 ; testHarness_testUpdates_writeAddress $end
     $var wire 32 U testHarness_DMEMsetup_dataAddress $end
     $var wire 1 p testHarness_testUpdates_writeEnable $end
     $var wire 1 z testHarness_DMEMsetup_writeEnable $end
     $var wire 32 } testHarness_DMEMpeek $end
     $var wire 1 "* testHarness_DMEMsetup_setup $end
     $var wire 32 "0 testHarness_testUpdates_writeData $end
     $var wire 1 "4 clock $end
     $var wire 32 "> testHarness_DMEMsetup_dataIn $end
      $scope module DMEM $end
       $var wire 32 & testHarness_testUpdates_writeData $end
       $var wire 1 ) _GEN_6 $end
       $var wire 12 - data__T_24_addr_pipe_0 $end
       $var wire 1 6 testHarness_testUpdates_writeEnable $end
       $var wire 32 : testHarness_setup_dataAddress $end
       $var wire 32 ? testHarness_testUpdates_writeAddress $end
       $var wire 32 F addressSource $end
       $var wire 32 J data $end
       $var wire 1 r testHarness_setup_writeEnable $end
       $var wire 1 t testHarness_setup_setup $end
       $var wire 1 "& clock $end
       $var wire 32 "+ testHarness_setup_dataIn $end
       $var wire 32 "9 io_dataOut $end
        $scope module data $end
          $scope module _T_26 $end
           $var wire 1 ! clk $end
           $var wire 12 B addr $end
           $var wire 32 G pipeline_data_0 $end
           $var wire 1 \ pipeline_valid_0 $end
           $var wire 32 c data $end
           $var wire 1 "# en $end
           $var wire 12 "' pipeline_addr_0 $end
           $var wire 1 "- valid $end
           $var wire 1 "< mask $end
          $upscope $end
          $scope module _T_24 $end
           $var wire 32 5 data $end
           $var wire 1 h clk $end
           $var wire 1 "% en $end
           $var wire 12 "( addr $end
          $upscope $end
        $upscope $end
      $upscope $end
    $upscope $end
    $scope module ID $end
     $var wire 1 " testHarness_registerSetup_writeEnable $end
     $var wire 32 = testHarness_registerPeek $end
     $var wire 1 C testHarness_testUpdates_writeEnable $end
     $var wire 32 H testHarness_registerSetup_writeData $end
     $var wire 5 N testHarness_testUpdates_writeAddress $end
     $var wire 5 k testHarness_registerSetup_readAddress $end
     $var wire 1 o registers $end
     $var wire 1 "3 testHarness_registerSetup_setup $end
     $var wire 32 "5 testHarness_testUpdates_writeData $end
     $var wire 1 ": clock $end
      $scope module registers $end
       $var wire 1 % testHarness_testUpdates_writeEnable $end
       $var wire 1 ' testHarness_setup_setup $end
       $var wire 32 , testHarness_testUpdates_writeData $end
       $var wire 5 . readAddress1 $end
       $var wire 1 0 clock $end
       $var wire 32 1 io_readData1 $end
       $var wire 32 3 registerFile $end
       $var wire 1 7 testHarness_setup_writeEnable $end
       $var wire 1 @ writeEnable $end
       $var wire 5 O testHarness_testUpdates_writeAddress $end
       $var wire 32 ` testHarness_setup_writeData $end
       $var wire 5 y testHarness_setup_readAddress $end
        $scope module registerFile $end
          $scope module _T_33 $end
           $var wire 1 # en $end
           $var wire 1 ( pipeline_valid_0 $end
           $var wire 1 / clk $end
           $var wire 5 S pipeline_addr_0 $end
           $var wire 1 V mask $end
           $var wire 1 e valid $end
           $var wire 5 w addr $end
           $var wire 32 "$ pipeline_data_0 $end
           $var wire 32 "8 data $end
          $upscope $end
          $scope module _T_41 $end
           $var wire 32 A data $end
           $var wire 1 R en $end
           $var wire 1 n clk $end
           $var wire 5 "1 addr $end
          $upscope $end
          $scope module _T_38 $end
           $var wire 1 E clk $end
           $var wire 1 b en $end
           $var wire 5 j addr $end
           $var wire 32 ". data $end
          $upscope $end
        $upscope $end
      $upscope $end
    $upscope $end
    $scope module IF $end
     $var wire 1 $ testHarness_IMEMsetup_setup $end
     $var wire 1 9 IMEM $end
     $var wire 32 Q PC $end
     $var wire 1 X clock $end
     $var wire 32 Y testHarness_PC $end
     $var wire 1 | reset $end
     $var wire 32 "? _GEN_0 $end
      $scope module IMEM $end
       $var wire 32 "/ testHarness_requestedAddress $end
       $var wire 32 "; io_instructionAddress $end
      $upscope $end
    $upscope $end
  $upscope $end
  $scope module CPU.ID $end
  $upscope $end
$upscope $end
$enddefinitions $end
$dumpvars
b00000000000000000000000000000000 Y
0X
0"7
1"<
0""
0C
0o
b00000000000000000000000000000000 ">
0R
b00000000000000000000000000000000 "8
b00000000000000000000000000000000 l
b00000000000000000000000000000000 :
b00000000000000000000000000000000 Q
b00000000000000000000000000000000 }
0g
b00000000000000000000000000000000 ".
b00000000000000000000000000000000 K
b00000000000000000000000000000000 `
b000000000000 "(
0"@
0D
0/
0"#
0x
0":
b00000 S
0z
b00000000000000000000000000000000 s
0r
0]
1)
b00000 j
b00000000000000000000000000000000 A
0@
0W
b00000 O
0%
b00000000000000000000000000000000 ;
b000000000000 -
b00000000000000000000000000000000 "=
b00000000000000000000000000000000 Z
0p
b00000000000000000000000000000000 T
0>
b00000000000000000000000000000000 ?
0"2
06
0!
b00000 .
b00000000000000000000000000000000 "9
0"4
b00000 y
b00000000000000000000000000000000 P
b00000000000000000000000000000000 3
0{
b00000000000000000000000000000000 "5
b00000000000000000000000000000000 J
b000000000000 "'
b00000000000000000000000000000000 "/
0"*
0b
0E
00
0(
b00000000000000000000000000000000 "+
b00000000000000000000000000000000 _
1V
0u
b00000000000000000000000000000000 [
b00000000000000000000000000000000 "6
b00000000000000000000000000000000 "!
0q
0i
b00000000000000000000000000000000 U
0"3
b00000 a
b00000 L
0"
07
09
0"-
0e
b00000000000000000000000000000000 f
b00000 "1
b00000000000000000000000000000000 I
b00000000000000000000000000000000 4
0|
b00000000000000000000000000000000 "0
b00000000000000000000000000000000 d
0"B
b00000000000000000000000000000000 G
b00000000000000000000000000000000 "A
b00000000000000000000000000000000 "$
b00000000000000000000000000000000 ,
b00000 M
0t
b00000000000000000000000000000000 ";
b00000000000000000000000000000000 &
0n
b00000000000000000000000000000000 =
0'
0<
b00000000000000000000000000000000 "?
b00000 w
08
0#
0",
02
b000000000000 B
b00000000000000000000000000000000 5
b00000000000000000000000000000000 ~
0h
b00000 m
b00000000000000000000000000000000 c
b00000000000000000000000000000000 ")
b00000000000000000000000000000000 F
b00000000000000000000000000000000 1
0\
b00000000000000000000000000000000 H
0"&
b00000000000000000000000000000000 +
0*
0^
b00000 k
1"%
0$
b00000 N
b00000000000000000000000000000000 v
$end
#0
1|
1"@
1",
#1
1E
1h
1i
1n
1/
1q
1!
1":
1X
10
1"4
1"&
#6
0"4
0!
0/
0X
0":
0E
00
0i
0q
0"&
0h
0n
#11
1E
1h
1i
1n
1/
1q
1!
1":
1X
10
1"4
1"&
#16
0"4
0!
0/
0X
0":
0E
00
0i
0q
0"&
0h
0n
#21
1E
1h
1i
1n
1/
1q
1!
1":
1X
10
1"4
1"&
#26
0"4
0!
0/
0X
0":
0E
00
0i
0q
0"&
0h
0n
#31
1E
1h
1i
1n
1/
1q
1!
1":
1X
10
1"4
1"&
#36
0"4
0!
0/
0X
0":
0E
00
0i
0q
0"&
0h
0n
#41
1E
1h
1i
1n
1/
1q
1!
1":
1X
10
1"4
1"&
#46
0!
1^
1'
0X
0":
0E
00
0",
0i
1g
0q
0|
1$
0h
1"2
1"3
0"4
0/
b11111110000000010000000100010011 ~
1x
1"*
0"@
1t
0"&
0n
#51
1E
1h
1i
1n
1/
1q
1!
1":
1X
10
1"4
1"&
#56
b00000000000000000000000000000100 4
0!
0X
0":
0E
00
0i
0q
0h
0"4
0/
0"&
b00000000000100010010111000100011 ~
0n
#61
1E
1h
1i
1n
1/
1q
1!
1":
1X
10
1"4
1"&
#66
0!
0X
0":
0E
00
0i
0q
0h
0"4
0/
b00000000000000000000000000001000 4
b00000000100000010010110000100011 ~
0"&
0n
#71
1E
1h
1i
1n
1/
1q
1!
1":
1X
10
1"4
1"&
#76
0!
0X
0":
0E
00
0i
0q
0h
0"4
0/
b00000000000000000000000000001100 4
0"&
b00000010000000010000010000010011 ~
0n
#81
1E
1h
1i
1n
1/
1q
1!
1":
1X
10
1"4
1"&
#86
0!
0X
0":
0E
00
0i
b00000000000000000000000000010000 4
0q
0h
0"4
0/
b11111110000001000010011000100011 ~
0"&
0n
#91
1E
1h
1i
1n
1/
1q
1!
1":
1X
10
1"4
1"&
#96
0!
0X
0":
0E
00
0i
0q
0h
b00000010000000000000011110010011 ~
0"4
0/
b00000000000000000000000000010100 4
0"&
0n
#101
1E
1h
1i
1n
1/
1q
1!
1":
1X
10
1"4
1"&
#106
0!
0X
0":
0E
00
0i
0q
0h
0"4
0/
b11111110111101000010010000100011 ~
b00000000000000000000000000011000 4
0"&
0n
#111
1E
1h
1i
1n
1/
1q
1!
1":
1X
10
1"4
1"&
#116
0!
0X
b00000000000000000000000000011100 4
0":
0E
00
0i
b00000000011100000000011000010011 ~
0q
0h
0"4
0/
0"&
0n
#121
1E
1h
1i
1n
1/
1q
1!
1":
1X
10
1"4
1"&
#126
0!
0X
0":
0E
00
0i
0q
0h
b00000000000000000000010110010011 ~
0"4
0/
b00000000000000000000000000100000 4
0"&
0n
#131
1E
1h
1i
1n
1/
1q
1!
1":
1X
10
1"4
1"&
#136
0!
0X
0":
0E
00
0i
0q
0h
b11111110110001000010010100000011 ~
b00000000000000000000000000100100 4
0"4
0/
0"&
0n
#141
1E
1h
1i
1n
1/
1q
1!
1":
1X
10
1"4
1"&
#146
0!
0X
0":
0E
00
0i
b00000100010000000000000011101111 ~
0q
0h
0"4
0/
b00000000000000000000000000101000 4
0"&
0n
#151
1E
1h
1i
1n
1/
1q
1!
1":
1X
10
1"4
1"&
#156
0!
b00000000000001010000011110110011 ~
0X
0":
0E
00
0i
0q
0h
0"4
0/
b00000000000000000000000000101100 4
0"&
0n
#161
1E
1h
1i
1n
1/
1q
1!
1":
1X
10
1"4
1"&
#166
b00000000000000000000000000110000 4
0!
0X
0":
0E
00
0i
0q
0h
0"4
0/
b00000010000001111000001001100011 ~
0"&
0n
#171
1E
1h
1i
1n
1/
1q
1!
1":
1X
10
1"4
1"&
#176
0!
b00000000111100000000011000010011 ~
0X
0":
0E
00
0i
0q
0h
0"4
0/
b00000000000000000000000000110100 4
0"&
0n
#181
1E
1h
1i
1n
1/
1q
1!
1":
1X
10
1"4
1"&
#186
b00000000000000000000000000111000 4
0!
0X
0":
0E
00
0i
0q
0h
b00000000000000000000010110010011 ~
0"4
0/
0"&
0n
#191
1E
1h
1i
1n
1/
1q
1!
1":
1X
10
1"4
1"&
#196
0!
0X
0":
0E
00
b11111110100001000010010100000011 ~
0i
0q
0h
0"4
b00000000000000000000000000111100 4
0/
0"&
0n
#201
1E
1h
1i
1n
1/
1q
1!
1":
1X
10
1"4
1"&
#206
0!
0X
0":
0E
00
0i
0q
b00000010110000000000000011101111 ~
0h
0"4
b00000000000000000000000001000000 4
0/
0"&
0n
#211
1E
1h
1i
1n
1/
1q
1!
1":
1X
10
1"4
1"&
#216
0!
b00000000000001010000011110110011 ~
0X
0":
0E
00
0i
0q
b00000000000000000000000001000100 4
0h
0"4
0/
0"&
0n
#221
1E
1h
1i
1n
1/
1q
1!
1":
1X
10
1"4
1"&
#226
0!
b00000000000001111000011001100011 ~
0X
0":
0E
00
0i
0q
b00000000000000000000000001001000 4
0h
0"4
0/
0"&
0n
#231
1E
1h
1i
1n
1/
1q
1!
1":
1X
10
1"4
1"&
#236
b00000000000000000000000001001100 4
0!
0X
0":
0E
00
0i
0q
0h
0"4
0/
b00000000000100000000011110010011 ~
0"&
0n
#241
1E
1h
1i
1n
1/
1q
1!
1":
1X
10
1"4
1"&
#246
0!
0X
0":
0E
00
0i
0q
0h
0"4
b00000000100000000000000001101111 ~
0/
b00000000000000000000000001010000 4
0"&
0n
#251
1E
1h
1i
1n
1/
1q
1!
1":
1X
10
1"4
1"&
#256
b00000000000000000000000001010100 4
0!
0X
0":
0E
00
0i
0q
b00000000000000000000011110010011 ~
0h
0"4
0/
0"&
0n
#261
1E
1h
1i
1n
1/
1q
1!
1":
1X
10
1"4
1"&
#266
0!
0X
0":
0E
00
0i
0q
0h
0"4
0/
b00000000000000000000000001011000 4
b00000000000001111000010100110011 ~
0"&
0n
#271
1E
1h
1i
1n
1/
1q
1!
1":
1X
10
1"4
1"&
#276
b00000001110000010010000010000011 ~
0!
0X
0":
0E
00
0i
0q
0h
0"4
0/
b00000000000000000000000001011100 4
0"&
0n
#281
1E
1h
1i
1n
1/
1q
1!
1":
1X
10
1"4
1"&
#286
0n
0!
0X
0":
0E
00
0i
0q
0h
0"4
b00000000000000000000000001100000 4
0/
0"&
b00000001100000010010010000000011 ~
#291
1E
1h
1i
1n
1/
1q
1!
1":
1X
10
1"4
1"&
#296
0!
0X
b00000000000000000000000001100100 4
0":
0E
00
0i
0q
0h
0"4
0/
0"&
b00000010000000010000000100010011 ~
0n
#301
1E
1h
1i
1n
1/
1q
1!
1":
1X
10
1"4
1"&
#306
b00000000000000001000000001100111 ~
0!
0X
0":
0E
00
0i
0q
0h
0"4
0/
b00000000000000000000000001101000 4
0"&
0n
#311
1E
1h
1i
1n
1/
1q
1!
1":
1X
10
1"4
1"&
#316
0!
0X
0":
0E
00
0i
0q
0h
b11111101000000010000000100010011 ~
0"4
0/
b00000000000000000000000001101100 4
0"&
0n
#321
1E
1h
1i
1n
1/
1q
1!
1":
1X
10
1"4
1"&
#326
0!
0X
0":
0E
00
0i
0q
0h
0"4
0/
b00000010000100010010011000100011 ~
b00000000000000000000000001110000 4
0"&
0n
#331
1E
1h
1i
1n
1/
1q
1!
1":
1X
10
1"4
1"&
#336
0!
b00000010100000010010010000100011 ~
0X
0":
0E
00
0i
0q
0h
b00000000000000000000000001110100 4
0"4
0/
0"&
0n
#341
1E
1h
1i
1n
1/
1q
1!
1":
1X
10
1"4
1"&
#346
0!
b00000011000000010000010000010011 ~
0X
0":
0E
00
0i
0q
0h
0"4
0/
b00000000000000000000000001111000 4
0"&
0n
#351
1E
1h
1i
1n
1/
1q
1!
1":
1X
10
1"4
1"&
#356
b11111100101001000010111000100011 ~
0!
0X
0":
0E
00
0i
0q
0h
0"4
0/
b00000000000000000000000001111100 4
0"&
0n
#361
1E
1h
1i
1n
1/
1q
1!
1":
1X
10
1"4
1"&
#366
b11111100101101000010110000100011 ~
0!
0X
0":
0E
00
0i
0q
0h
0"4
0/
0"&
b00000000000000000000000010000000 4
0n
#371
1E
1h
1i
1n
1/
1q
1!
1":
1X
10
1"4
1"&
#376
0!
b11111100110001000010101000100011 ~
0X
0":
0E
00
0i
0q
b00000000000000000000000010000100 4
0h
0"4
0/
0"&
0n
#381
1E
1h
1i
1n
1/
1q
1!
1":
1X
10
1"4
1"&
#386
0!
0X
b11111101100001000010011100000011 ~
0":
0E
00
0i
b00000000000000000000000010001000 4
0q
0h
0"4
0/
0"&
0n
#391
1E
1h
1i
1n
1/
1q
1!
1":
1X
10
1"4
1"&
#396
0!
b11111101010001000010011110000011 ~
0X
0":
0E
00
0i
0q
0h
b00000000000000000000000010001100 4
0"4
0/
0"&
0n
#401
1E
1h
1i
1n
1/
1q
1!
1":
1X
10
1"4
1"&
#406
0!
0X
0":
0E
00
b00000000000000000000000010010000 4
0i
0q
0h
b00000000111101110100011001100011 ~
0"4
0/
0"&
0n
#411
1E
1h
1i
1n
1/
1q
1!
1":
1X
10
1"4
1"&
#416
0!
b00000000000000000000000010010100 4
0X
0":
0E
00
0i
0q
0h
0"4
0/
b00000000000100000000011110010011 ~
0"&
0n
#421
1E
1h
1i
1n
1/
1q
1!
1":
1X
10
1"4
1"&
#426
0!
0X
0":
0E
00
0i
b00000000000000000000000010011000 4
0q
0h
0"4
0/
b00000111100000000000000001101111 ~
0"&
0n
#431
1E
1h
1i
1n
1/
1q
1!
1":
1X
10
1"4
1"&
#436
b11111101100001000010011110000011 ~
0!
0X
0":
0E
00
0i
0q
0h
0"4
0/
b00000000000000000000000010011100 4
0"&
0n
#441
1E
1h
1i
1n
1/
1q
1!
1":
1X
10
1"4
1"&
#446
b00000000000000000000000010100000 4
0!
0X
0":
0E
00
0i
0q
0h
0"4
0/
b00000000001001111001011110010011 ~
0"&
0n
#451
1E
1h
1i
1n
1/
1q
1!
1":
1X
10
1"4
1"&
#456
0!
b11111101110001000010011100000011 ~
0X
0":
0E
00
0i
b00000000000000000000000010100100 4
0q
0h
0"4
0/
0"&
0n
#461
1E
1h
1i
1n
1/
1q
1!
1":
1X
10
1"4
1"&
#466
0!
0X
0":
0E
00
b00000000000000000000000010101000 4
0i
0q
0h
0"4
0/
b00000000111101110000011110110011 ~
0"&
0n
#471
1E
1h
1i
1n
1/
1q
1!
1":
1X
10
1"4
1"&
#476
0!
b00000000000000000000000010101100 4
0X
0":
0E
00
b00000000000001111010011100000011 ~
0i
0q
0h
0"4
0/
0"&
0n
#481
1E
1h
1i
1n
1/
1q
1!
1":
1X
10
1"4
1"&
#486
0!
b11111101010001000010011110000011 ~
0X
0":
0E
00
0i
0q
0h
0"4
b00000000000000000000000010110000 4
0/
0"&
0n
#491
1E
1h
1i
1n
1/
1q
1!
1":
1X
10
1"4
1"&
#496
0!
0X
0":
0E
00
0i
0q
0h
0"4
0/
b00000000001001111001011110010011 ~
0"&
b00000000000000000000000010110100 4
0n
#501
1E
1h
1i
1n
1/
1q
1!
1":
1X
10
1"4
1"&
#506
0!
0X
b00000000000000000000000010111000 4
0":
0E
00
0i
0q
0h
b11111101110001000010011010000011 ~
0"4
0/
0"&
0n
#511
1E
1h
1i
1n
1/
1q
1!
1":
1X
10
1"4
1"&
#516
0!
b00000000000000000000000010111100 4
0X
0":
0E
00
0i
0q
0h
0"4
0/
0"&
b00000000111101101000011110110011 ~
0n
#521
1E
1h
1i
1n
1/
1q
1!
1":
1X
10
1"4
1"&
#526
0!
0X
0":
0E
00
0i
0q
0h
b00000000000000000000000011000000 4
0"4
0/
b00000000000001111010011110000011 ~
0"&
0n
#531
1E
1h
1i
1n
1/
1q
1!
1":
1X
10
1"4
1"&
#536
b01000000111101110000011110110011 ~
0!
0X
0":
0E
00
0i
0q
b00000000000000000000000011000100 4
0h
0"4
0/
0"&
0n
#541
1E
1h
1i
1n
1/
1q
1!
1":
1X
10
1"4
1"&
#546
0!
0X
b00000000000000000000000011001000 4
0":
0E
00
b00000000000101111011011110010011 ~
0i
0q
0h
0"4
0/
0"&
0n
#551
1E
1h
1i
1n
1/
1q
1!
1":
1X
10
1"4
1"&
#556
0!
0X
0":
0E
00
0i
0q
0h
0"4
0/
0"&
b00000000000000000000000011001100 4
b00001111111101111111011110010011 ~
0n
#561
1E
1h
1i
1n
1/
1q
1!
1":
1X
10
1"4
1"&
#566
0!
0X
0":
0E
00
0i
0q
0h
0"4
0/
b00000000000000000000000011010000 4
b11111110111101000010011000100011 ~
0"&
0n
#571
1E
1h
1i
1n
1/
1q
1!
1":
1X
10
1"4
1"&
#576
b11111110110001000010011110000011 ~
0!
0X
0":
0E
00
0i
0q
0h
0"4
b00000000000000000000000011010100 4
0/
0"&
0n
#581
1E
1h
1i
1n
1/
1q
1!
1":
1X
10
1"4
1"&
#586
0!
0X
0":
0E
00
0i
0q
0h
b00000000000000000000000011011000 4
b00000010000001111000101001100011 ~
0"4
0/
0"&
0n
#591
1E
1h
1i
1n
1/
1q
1!
1":
1X
10
1"4
1"&
#596
b11111101100001000010011110000011 ~
0!
b00000000000000000000000011011100 4
0X
0":
0E
00
0i
0q
0h
0"4
0/
0"&
0n
#601
1E
1h
1i
1n
1/
1q
1!
1":
1X
10
1"4
1"&
#606
b00000000000000000000000011100000 4
0!
0X
0":
0E
00
0i
0q
0h
0"4
0/
b00000000000101111000011100010011 ~
0"&
0n
#611
1E
1h
1i
1n
1/
1q
1!
1":
1X
10
1"4
1"&
#616
0!
b11111101010001000010011110000011 ~
0X
0":
0E
00
0i
0q
0h
0"4
0/
0"&
b00000000000000000000000011100100 4
0n
#621
1E
1h
1i
1n
1/
1q
1!
1":
1X
10
1"4
1"&
#626
0!
b11111111111101111000011110010011 ~
0X
0":
0E
00
0i
0q
0h
0"4
0/
b00000000000000000000000011101000 4
0"&
0n
#631
1E
1h
1i
1n
1/
1q
1!
1":
1X
10
1"4
1"&
#636
0!
b00000000000001111000011000110011 ~
0X
0":
0E
00
0i
0q
b00000000000000000000000011101100 4
0h
0"4
0/
0"&
0n
#641
1E
1h
1i
1n
1/
1q
1!
1":
1X
10
1"4
1"&
#646
0!
b00000000000001110000010110110011 ~
0X
0":
0E
00
0i
0q
0h
0"4
0/
0"&
b00000000000000000000000011110000 4
0n
#651
1E
1h
1i
1n
1/
1q
1!
1":
1X
10
1"4
1"&
#656
0!
0X
0":
0E
00
0i
0q
0h
0"4
0/
b11111101110001000010010100000011 ~
b00000000000000000000000011110100 4
0"&
0n
#661
1E
1h
1i
1n
1/
1q
1!
1":
1X
10
1"4
1"&
#666
0!
0X
0":
0E
00
0i
0q
0h
0"4
0/
b11110111010111111111000011101111 ~
0"&
b00000000000000000000000011111000 4
0n
#671
1E
1h
1i
1n
1/
1q
1!
1":
1X
10
1"4
1"&
#676
0!
b00000000000001010000011110110011 ~
0X
0":
0E
00
0i
0q
0h
0"4
0/
b00000000000000000000000011111100 4
0"&
0n
#681
1E
1h
1i
1n
1/
1q
1!
1":
1X
10
1"4
1"&
#686
0!
b00000000000000000000000100000000 4
b00000000000001111000011001100011 ~
0X
0":
0E
00
0i
0q
0h
0"4
0/
0"&
0n
#691
1E
1h
1i
1n
1/
1q
1!
1":
1X
10
1"4
1"&
#696
0!
0X
0":
0E
00
0i
0q
0h
0"4
b00000000000000000000000100000100 4
0/
b00000000000100000000011110010011 ~
0"&
0n
#701
1E
1h
1i
1n
1/
1q
1!
1":
1X
10
1"4
1"&
#706
0!
0X
0":
0E
00
0i
0q
0h
b00000000000000000000000100001000 4
0"4
b00000000100000000000000001101111 ~
0/
0"&
0n
#711
1E
1h
1i
1n
1/
1q
1!
1":
1X
10
1"4
1"&
#716
b00000000000000000000000100001100 4
0!
0X
0":
0E
00
0i
0q
b00000000000000000000011110010011 ~
0h
0"4
0/
0"&
0n
#721
1E
1h
1i
1n
1/
1q
1!
1":
1X
10
1"4
1"&
#726
0n
0!
0X
0":
0E
00
0i
0q
0h
0"4
0/
b00000000000001111000010100110011 ~
0"&
b00000000000000000000000100010000 4
#731
1E
1h
1i
1n
1/
1q
1!
1":
1X
10
1"4
1"&
#736
0!
0X
0":
0E
00
0i
0q
0h
0"4
0/
b00000000000000000000000100010100 4
b00000010110000010010000010000011 ~
0"&
0n
#741
1E
1h
1i
1n
1/
1q
1!
1":
1X
10
1"4
1"&
#746
0!
0X
0":
0E
00
0i
0q
0h
0"4
b00000000000000000000000100011000 4
0/
b00000010100000010010010000000011 ~
0"&
0n
#751
1E
1h
1i
1n
1/
1q
1!
1":
1X
10
1"4
1"&
#756
0!
b00000011000000010000000100010011 ~
0X
0":
0E
00
0i
0q
0h
0"4
0/
b00000000000000000000000100011100 4
0"&
0n
#761
1E
1h
1i
1n
1/
1q
1!
1":
1X
10
1"4
1"&
#766
b00000000000000001000000001100111 ~
0!
0X
0":
0E
00
0i
0q
0h
0"4
0/
b00000000000000000000000100100000 4
0"&
0n
#771
1E
1h
1i
1n
1/
1q
1!
1":
1X
10
1"4
1"&
#776
1e
1@
0":
0q
12
0h
0"4
b00000000000000000000111111111100 4
b01110 m
0/
b01110 M
1"
b01110 L
b00000000000000000000000000000000 ~
b01110 w
1<
0n
1""
0!
b01110 y
1b
b01110 j
1%
0X
0E
00
0i
b01110 a
1#
b01110 O
1*
b01110 k
1C
0"&
b01110 .
b01110 N
17
#781
1h
1n
1!
1":
1X
1"4
1"&
1E
1i
1(
b01110 S
1/
1q
10
#786
b01010 O
0!
b01010 .
b01010 M
0X
0":
0E
00
b01010 y
0i
0q
b01010 a
b01010 k
0h
0"4
b01010 L
0/
b01010 j
b01010 N
b01010 m
0"&
b01010 w
0n
#791
1E
1h
1i
1n
1/
1q
1!
1":
1X
b01010 S
10
1"4
1"&
#796
b10001 m
b10001 w
b10001 .
0!
b10001 M
b10001 O
0X
b10001 j
0":
0E
00
0i
0q
0h
0"4
b10001 k
b10001 y
b10001 N
0/
b10001 a
0"&
b10001 L
0n
#801
1E
1h
1i
1n
1/
1q
1!
1":
1X
b10001 S
10
1"4
1"&
#806
0!
b00000 m
b00000 a
0#
0X
b00000 y
0":
0E
00
b00000 k
0i
0b
0q
0h
b00000 j
b00000 L
0"4
b00000 w
0/
b00000 O
b00000 .
b00000 M
b00000 N
0e
0"&
0n
#811
1h
1n
1!
1":
1X
b00000 S
1"4
1"&
1E
0(
1i
1/
1q
10
#816
1e
0!
b00100 N
1b
b00100 .
b00100 j
b00100 k
0X
0":
0E
00
b00100 O
0i
b00100 m
0q
b00100 L
b00100 a
0h
0"4
1#
0/
b00100 w
b00100 M
b00100 y
0"&
0n
#821
1h
1n
1!
1":
1X
1"4
1"&
1E
1i
1(
1/
1q
b00100 S
10
#826
b11000 L
b11000 w
0!
b11000 k
b11000 m
0X
b11000 M
0":
0E
00
b11000 j
0i
0q
b11000 O
0h
b11000 y
0"4
0/
b11000 .
0"&
b11000 a
b11000 N
0n
#831
1E
1h
1i
1n
1/
1q
1!
1":
1X
b11000 S
10
1"4
1"&
#836
b00110 k
0!
b00110 m
b00110 w
b00110 N
0X
0":
0E
00
0i
0q
0h
b00110 j
b00110 L
0"4
b00110 y
0/
b00110 M
b00110 O
b00110 a
0"&
b00110 .
0n
#841
1E
1h
1i
1n
b00110 S
1/
1q
1!
1":
1X
10
1"4
1"&
#846
b10100 O
b10100 N
0!
b10100 M
b10100 j
b10100 m
0X
0":
0E
00
b10100 L
0i
0q
0h
b10100 w
b10100 .
0"4
b10100 y
0/
b10100 k
0"&
b10100 a
0n
#851
1E
b10100 S
1h
1i
1n
1/
1q
1!
1":
1X
10
1"4
1"&
#856
b00111 N
0!
b00111 w
0X
0":
0E
00
b00111 a
0i
b00111 M
0q
b00111 .
0h
b00111 k
0"4
b00111 y
b00111 L
0/
b00111 m
b00111 O
0"&
b00111 j
0n
#861
1E
1h
1i
1n
b00111 S
1/
1q
1!
1":
1X
10
1"4
1"&
#866
b00001 w
0":
0q
b00001 O
0h
b11101011000111001110101100011100 "5
0"4
b11101011000111001110101100011100 K
b00001 j
0/
b11101011000111001110101100011100 `
b00001 N
b11101011000111001110101100011100 H
b00001 a
b00001 y
0n
b00001 k
b00001 .
0!
b11101011000111001110101100011100 "A
0X
b00001 L
0E
00
0i
b00001 M
b11101011000111001110101100011100 "8
b00001 m
b11101011000111001110101100011100 ,
b11101011000111001110101100011100 _
0"&
b11101011000111001110101100011100 "=
#871
1h
1n
1!
1":
1X
b11101011000111001110101100011100 +
b11101011000111001110101100011100 ".
1"4
1"&
b11101011000111001110101100011100 1
1E
1i
b00001 S
b11101011000111001110101100011100 "$
1q
1/
b11101011000111001110101100011100 P
10
b11101011000111001110101100011100 =
