waveforms/palindromeO3.s.vcd
$date
2021-12-01T09:31+0000
$end
$version
0.2
$end
$comment

$end
$timescale 1ns  $end
$scope module Tile $end
 $var wire 1 * io_regsWriteEnable $end
 $var wire 32 + io_regsReadData $end
 $var wire 32 4 io_IMEMAddress $end
 $var wire 1 < io_regsDeviceWriteEnable $end
 $var wire 32 I io_DMEMAddress $end
 $var wire 32 Z io_DMEMWriteData $end
 $var wire 1 ] CPU $end
 $var wire 32 _ io_regsDeviceWriteData $end
 $var wire 5 a io_regsDeviceWriteAddress $end
 $var wire 1 i clock $end
 $var wire 32 l io_currentPC $end
 $var wire 5 m io_regsAddress $end
 $var wire 1 u io_DMEMWriteEnable $end
 $var wire 32 v io_memDeviceWriteAddress $end
 $var wire 32 ~ io_IMEMWriteData $end
 $var wire 32 "! io_memDeviceWriteData $end
 $var wire 32 ") io_DMEMReadData $end
 $var wire 1 ", reset $end
 $var wire 1 "2 io_setup $end
 $var wire 1 "7 io_memDeviceWriteEnable $end
 $var wire 32 "A io_regsWriteData $end
  $scope module CPU.MEM $end
  $upscope $end
  $scope module CPU.ID.registers $end
  $upscope $end
  $scope module CPU.IF $end
  $upscope $end
  $scope module CPU.IF.IMEM $end
  $upscope $end
  $scope module CPU.MEM.DMEM $end
  $upscope $end
  $scope module CPU $end
   $var wire 1 2 testHarness_regUpdates_writeEnable $end
   $var wire 1 > ID $end
   $var wire 1 D testHarness_memUpdates_writeEnable $end
   $var wire 32 K testHarness_regUpdates_writeData $end
   $var wire 5 L testHarness_regUpdates_writeAddress $end
   $var wire 5 M testHarness_setupSignals_registerSignals_readAddress $end
   $var wire 32 P testHarness_testReadouts_registerRead $end
   $var wire 32 T testHarness_currentPC $end
   $var wire 1 W IF $end
   $var wire 32 [ testHarness_memUpdates_writeAddress $end
   $var wire 1 ^ testHarness_setupSignals_DMEMsignals_setup $end
   $var wire 32 d testHarness_testReadouts_DMEMread $end
   $var wire 32 f testHarness_setupSignals_DMEMsignals_dataIn $end
   $var wire 1 g testHarness_setupSignals_IMEMsignals_setup $end
   $var wire 1 q clock $end
   $var wire 32 s testHarness_setupSignals_DMEMsignals_dataAddress $end
   $var wire 1 x testHarness_setupSignals_registerSignals_setup $end
   $var wire 1 { MEM $end
   $var wire 1 "" testHarness_setupSignals_registerSignals_writeEnable $end
   $var wire 32 "6 testHarness_memUpdates_writeData $end
   $var wire 32 "= testHarness_setupSignals_registerSignals_writeData $end
   $var wire 1 "@ reset $end
   $var wire 1 "B testHarness_setupSignals_DMEMsignals_writeEnable $end
    $scope module MEM $end
     $var wire 1 8 DMEM $end
     $var wire 32 ; testHarness_testUpdates_writeAddress $end
     $var wire 32 U testHarness_DMEMsetup_dataAddress $end
     $var wire 1 p testHarness_testUpdates_writeEnable $end
     $var wire 1 z testHarness_DMEMsetup_writeEnable $end
     $var wire 32 } testHarness_DMEMpeek $end
     $var wire 1 "* testHarness_DMEMsetup_setup $end
     $var wire 32 "0 testHarness_testUpdates_writeData $end
     $var wire 1 "4 clock $end
     $var wire 32 "> testHarness_DMEMsetup_dataIn $end
      $scope module DMEM $end
       $var wire 32 & testHarness_testUpdates_writeData $end
       $var wire 1 ) _GEN_6 $end
       $var wire 12 - data__T_24_addr_pipe_0 $end
       $var wire 1 6 testHarness_testUpdates_writeEnable $end
       $var wire 32 : testHarness_setup_dataAddress $end
       $var wire 32 ? testHarness_testUpdates_writeAddress $end
       $var wire 32 F addressSource $end
       $var wire 32 J data $end
       $var wire 1 r testHarness_setup_writeEnable $end
       $var wire 1 t testHarness_setup_setup $end
       $var wire 1 "& clock $end
       $var wire 32 "+ testHarness_setup_dataIn $end
       $var wire 32 "9 io_dataOut $end
        $scope module data $end
          $scope module _T_26 $end
           $var wire 1 ! clk $end
           $var wire 12 B addr $end
           $var wire 32 G pipeline_data_0 $end
           $var wire 1 \ pipeline_valid_0 $end
           $var wire 32 c data $end
           $var wire 1 "# en $end
           $var wire 12 "' pipeline_addr_0 $end
           $var wire 1 "- valid $end
           $var wire 1 "< mask $end
          $upscope $end
          $scope module _T_24 $end
           $var wire 32 5 data $end
           $var wire 1 h clk $end
           $var wire 1 "% en $end
           $var wire 12 "( addr $end
          $upscope $end
        $upscope $end
      $upscope $end
    $upscope $end
    $scope module ID $end
     $var wire 1 " testHarness_registerSetup_writeEnable $end
     $var wire 32 = testHarness_registerPeek $end
     $var wire 1 C testHarness_testUpdates_writeEnable $end
     $var wire 32 H testHarness_registerSetup_writeData $end
     $var wire 5 N testHarness_testUpdates_writeAddress $end
     $var wire 5 k testHarness_registerSetup_readAddress $end
     $var wire 1 o registers $end
     $var wire 1 "3 testHarness_registerSetup_setup $end
     $var wire 32 "5 testHarness_testUpdates_writeData $end
     $var wire 1 ": clock $end
      $scope module registers $end
       $var wire 1 % testHarness_testUpdates_writeEnable $end
       $var wire 1 ' testHarness_setup_setup $end
       $var wire 32 , testHarness_testUpdates_writeData $end
       $var wire 5 . readAddress1 $end
       $var wire 1 0 clock $end
       $var wire 32 1 io_readData1 $end
       $var wire 32 3 registerFile $end
       $var wire 1 7 testHarness_setup_writeEnable $end
       $var wire 1 @ writeEnable $end
       $var wire 5 O testHarness_testUpdates_writeAddress $end
       $var wire 32 ` testHarness_setup_writeData $end
       $var wire 5 y testHarness_setup_readAddress $end
        $scope module registerFile $end
          $scope module _T_33 $end
           $var wire 1 # en $end
           $var wire 1 ( pipeline_valid_0 $end
           $var wire 1 / clk $end
           $var wire 5 S pipeline_addr_0 $end
           $var wire 1 V mask $end
           $var wire 1 e valid $end
           $var wire 5 w addr $end
           $var wire 32 "$ pipeline_data_0 $end
           $var wire 32 "8 data $end
          $upscope $end
          $scope module _T_41 $end
           $var wire 32 A data $end
           $var wire 1 R en $end
           $var wire 1 n clk $end
           $var wire 5 "1 addr $end
          $upscope $end
          $scope module _T_38 $end
           $var wire 1 E clk $end
           $var wire 1 b en $end
           $var wire 5 j addr $end
           $var wire 32 ". data $end
          $upscope $end
        $upscope $end
      $upscope $end
    $upscope $end
    $scope module IF $end
     $var wire 1 $ testHarness_IMEMsetup_setup $end
     $var wire 1 9 IMEM $end
     $var wire 32 Q PC $end
     $var wire 1 X clock $end
     $var wire 32 Y testHarness_PC $end
     $var wire 1 | reset $end
     $var wire 32 "? _GEN_0 $end
      $scope module IMEM $end
       $var wire 32 "/ testHarness_requestedAddress $end
       $var wire 32 "; io_instructionAddress $end
      $upscope $end
    $upscope $end
  $upscope $end
  $scope module CPU.ID $end
  $upscope $end
$upscope $end
$enddefinitions $end
$dumpvars
0X
0C
0"7
0""
1"<
b00000000000000000000000000000000 Y
0o
b00000000000000000000000000000000 ">
0R
b00000000000000000000000000000000 "8
b00000000000000000000000000000000 l
b00000000000000000000000000000000 :
b00000000000000000000000000000000 Q
b00000000000000000000000000000000 }
0g
b00000000000000000000000000000000 `
b00000000000000000000000000000000 ".
b00000000000000000000000000000000 K
b000000000000 "(
0"@
0D
0/
0"#
0x
0":
b00000 S
0z
0r
b00000000000000000000000000000000 s
1)
0]
b00000 j
b00000000000000000000000000000000 A
0@
0W
b00000000000000000000000000000000 ;
b00000 O
0%
b000000000000 -
b00000000000000000000000000000000 "=
b00000000000000000000000000000000 Z
0p
b00000000000000000000000000000000 T
0>
0"2
b00000000000000000000000000000000 ?
06
0!
b00000 .
b00000000000000000000000000000000 "9
0"4
b00000 y
b00000000000000000000000000000000 P
b00000000000000000000000000000000 3
0{
b00000000000000000000000000000000 "5
b00000000000000000000000000000000 J
b000000000000 "'
b00000000000000000000000000000000 "/
0"*
0b
0E
00
0(
b00000000000000000000000000000000 "+
b00000000000000000000000000000000 _
1V
0u
b00000000000000000000000000000000 [
b00000000000000000000000000000000 "6
b00000000000000000000000000000000 "!
0q
0i
b00000000000000000000000000000000 U
0"3
b00000 a
07
0"
b00000 L
09
0"-
b00000000000000000000000000000000 f
0e
b00000 "1
b00000000000000000000000000000000 I
b00000000000000000000000000000000 4
0|
b00000000000000000000000000000000 "0
b00000000000000000000000000000000 d
0"B
b00000000000000000000000000000000 G
b00000000000000000000000000000000 "A
b00000000000000000000000000000000 "$
b00000000000000000000000000000000 ,
b00000 M
0t
b00000000000000000000000000000000 ";
b00000000000000000000000000000000 &
0n
b00000000000000000000000000000000 =
0'
0<
b00000000000000000000000000000000 "?
b00000 w
08
0#
0",
02
b000000000000 B
b00000000000000000000000000000000 5
b00000000000000000000000000000000 ~
0h
b00000 m
b00000000000000000000000000000000 c
b00000000000000000000000000000000 ")
b00000000000000000000000000000000 F
b00000000000000000000000000000000 1
0\
b00000000000000000000000000000000 H
0"&
b00000000000000000000000000000000 +
0*
0^
b00000 k
b00000 N
0$
1"%
b00000000000000000000000000000000 v
$end
#0
1|
1"@
1",
#1
1"4
1!
1E
1X
1":
1n
1i
1q
1"&
1h
1/
10
#6
0h
0"&
0"4
0n
00
0":
0q
0/
0E
0i
0!
0X
#11
1"4
1!
1E
1X
1":
1n
1i
1q
1"&
1h
1/
10
#16
0h
0"&
0"4
0n
00
0":
0q
0/
0E
0i
0!
0X
#21
1"4
1!
1E
1X
1":
1n
1i
1q
1"&
1h
1/
10
#26
0h
0"&
0"4
0n
00
0":
0q
0/
0E
0i
0!
0X
#31
1"4
1!
1E
1X
1":
1n
1i
1q
1"&
1h
1/
10
#36
0h
0"&
0"4
0n
00
0":
0q
0/
0E
0i
0!
0X
#41
1"4
1!
1E
1X
1":
1n
1i
1q
1"&
1h
1/
10
#46
1'
0"4
0":
0q
0/
0E
1"3
b11111111000000010000000100010011 ~
1^
1"*
1x
0"@
1t
0!
0",
1$
0h
0"&
0n
0|
00
1g
0i
1"2
0X
#51
1"4
1!
1E
1X
1":
1n
1i
1q
1"&
1h
1/
10
#56
0"4
0":
0q
0/
0E
0!
0h
0"&
0n
00
b00000000011100000000011000010011 ~
b00000000000000000000000000000100 4
0i
0X
#61
1"4
1!
1E
1X
1":
1n
1i
1q
1"&
1h
1/
10
#66
0"4
0":
0q
0/
0E
b00000000000000000000000000001000 4
0!
0h
0"&
0n
00
b00000000000000000000010110010011 ~
0i
0X
#71
1"4
1!
1E
1X
1":
1n
1i
1q
1"&
1h
1/
10
#76
0"4
0":
0q
0/
0E
b00000000000000000000010100010011 ~
0!
0h
0"&
0n
b00000000000000000000000000001100 4
00
0i
0X
#81
1"4
1!
1E
1X
1":
1n
1i
1q
1"&
1h
1/
10
#86
0"4
0":
0q
0/
0E
0!
0h
0"&
0n
00
b00000000000000000000000000010000 4
0i
b00000000000100010010011000100011 ~
0X
#91
1"4
1!
1E
1X
1":
1n
1i
1q
1"&
1h
1/
10
#96
0"4
b00000000000000000000000000010100 4
0":
0q
0/
0E
0!
0h
0"&
0n
b00000000100000000000000011101111 ~
00
0i
0X
#101
1"4
1!
1E
1X
1":
1n
1i
1q
1"&
1h
1/
10
#106
0"4
0":
0q
0/
0E
b00000110000001010001010001100011 ~
0!
0h
0"&
0n
00
b00000000000000000000000000011000 4
0i
0X
#111
1"4
1!
1E
1X
1":
1n
1i
1q
1"&
1h
1/
10
#116
0"4
b00000000001001011001011100010011 ~
0":
0q
0/
0E
0!
0h
0"&
0n
00
b00000000000000000000000000011100 4
0i
0X
#121
1"4
1!
1E
1X
1":
1n
1i
1q
1"&
1h
1/
10
#126
0"4
b00000000001001100001011010010011 ~
0":
b00000000000000000000000000100000 4
0q
0/
0E
0!
0h
0"&
0n
00
0i
0X
#131
1"4
1!
1E
1X
1":
1n
1i
1q
1"&
1h
1/
10
#136
0"4
b00000000111001010000011100110011 ~
0":
0q
0/
0E
0!
0h
0"&
0n
b00000000000000000000000000100100 4
00
0i
0X
#141
1"4
1!
1E
1X
1":
1n
1i
1q
1"&
1h
1/
10
#146
0"4
0":
0q
0/
0E
b00000000000000000000000000101000 4
0!
0h
0"&
0n
00
b00000000110101010000011110110011 ~
0i
0X
#151
1"4
1!
1E
1X
1":
1n
1i
1q
1"&
1h
1/
10
#156
0"4
0":
0q
0/
0E
0!
0h
0"&
0n
00
b00000000000001110010011100000011 ~
0i
b00000000000000000000000000101100 4
0X
#161
1"4
1!
1E
1X
1":
1n
1i
1q
1"&
1h
1/
10
#166
0"4
0":
0q
0/
0E
0!
b00000000000000000000000000110000 4
0h
0"&
b00000000000001111010011110000011 ~
0n
00
0i
0X
#171
1"4
1!
1E
1X
1":
1n
1i
1q
1"&
1h
1/
10
#176
0"4
0":
0q
0/
0E
b00000000111101110000100001100011 ~
b00000000000000000000000000110100 4
0!
0h
0"&
0n
00
0i
0X
#181
1"4
1!
1E
1X
1":
1n
1i
1q
1"&
1h
1/
10
#186
0"4
0":
0q
0/
0E
b00000000000000000000000000111000 4
0!
0h
0"&
0n
00
0i
b00000000000000000000011110010011 ~
0X
#191
1"4
1!
1E
1X
1":
1n
1i
1q
1"&
1h
1/
10
#196
0X
0"4
0":
0q
0/
0E
0!
0h
0"&
0n
00
0i
b00000000000001111000010100110011 ~
b00000000000000000000000000111100 4
#201
1"4
1!
1E
1X
1":
1n
1i
1q
1"&
1h
1/
10
#206
0"4
0":
0q
0/
0E
b00000000000000000000000001000000 4
b00000000000000001000000001100111 ~
0!
0h
0"&
0n
00
0i
0X
#211
1"4
1!
1E
1X
1":
1n
1i
1q
1"&
1h
1/
10
#216
0"4
0":
0q
0/
0E
0!
0h
0"&
0n
00
0i
b00000000000101011000010110010011 ~
b00000000000000000000000001000100 4
0X
#221
1"4
1!
1E
1X
1":
1n
1i
1q
1"&
1h
1/
10
#226
0"4
b11111111111101100000011000010011 ~
0":
0q
0/
0E
0!
0h
0"&
0n
00
b00000000000000000000000001001000 4
0i
0X
#231
1"4
1!
1E
1X
1":
1n
1i
1q
1"&
1h
1/
10
#236
0"4
0":
0q
0/
0E
b00000000000100000000011110010011 ~
0!
b00000000000000000000000001001100 4
0h
0"&
0n
00
0i
0X
#241
1"4
1!
1E
1X
1":
1n
1i
1q
1"&
1h
1/
10
#246
0"4
0":
0q
0/
0E
b00000000000000000000000001010000 4
0!
0h
0"&
b11111110110001011101011011100011 ~
0n
00
0i
0X
#251
1"4
1!
1E
1X
1":
1n
1i
1q
1"&
1h
1/
10
#256
0"4
0":
0q
0/
0E
b00000000000000000000000001010100 4
b11111111000000010000000100010011 ~
0!
0h
0"&
0n
00
0i
0X
#261
1"4
1!
1E
1X
1":
1n
1i
1q
1"&
1h
1/
10
#266
0"4
0":
0q
0/
0E
b00000000000000000000000001011000 4
0!
0h
0"&
0n
00
0i
b00000000000100010010011000100011 ~
0X
#271
1"4
1!
1E
1X
1":
1n
1i
1q
1"&
1h
1/
10
#276
0"4
0":
0q
0/
0E
b00000000000000000000000001011100 4
b11111100000111111111000011101111 ~
0!
0h
0"&
0n
00
0i
0X
#281
1"4
1!
1E
1X
1":
1n
1i
1q
1"&
1h
1/
10
#286
0"4
0":
0q
0/
0E
0!
0h
0"&
0n
00
0i
b00000000000000000000000001100000 4
b00000000110000010010000010000011 ~
0X
#291
1"4
1!
1E
1X
1":
1n
1i
1q
1"&
1h
1/
10
#296
0"4
0":
0q
0/
0E
b00000000101000000011011110110011 ~
0!
0h
0"&
0n
00
0i
b00000000000000000000000001100100 4
0X
#301
1"4
1!
1E
1X
1":
1n
1i
1q
1"&
1h
1/
10
#306
0"4
0":
0q
0/
0E
0!
0h
0"&
0n
00
b00000000000000000000000001101000 4
0i
b00000000000001111000010100110011 ~
0X
#311
1"4
1!
1E
1X
1":
1n
1i
1q
1"&
1h
1/
10
#316
0"4
0":
0q
0/
0E
b00000001000000010000000100010011 ~
0!
0h
0"&
0n
00
0i
b00000000000000000000000001101100 4
0X
#321
1"4
1!
1E
1X
1":
1n
1i
1q
1"&
1h
1/
10
#326
0"4
0":
0q
0/
0E
b00000000000000001000000001100111 ~
0!
0h
0"&
b00000000000000000000000001110000 4
0n
00
0i
0X
#331
1"4
1!
1E
1X
1":
1n
1i
1q
1"&
1h
1/
10
#336
0"4
0":
0q
0/
0E
0!
0h
0"&
0n
00
0i
b00000000110000010010000010000011 ~
b00000000000000000000000001110100 4
0X
#341
1"4
1!
1E
1X
1":
1n
1i
1q
1"&
1h
1/
10
#346
0"4
0":
0q
0/
0E
b00000001000000010000000100010011 ~
0!
0h
0"&
0n
00
0i
b00000000000000000000000001111000 4
0X
#351
1"4
1!
1E
1X
1":
1n
1i
1q
1"&
1h
1/
10
#356
0"4
0":
0q
0/
0E
b00000000000000001000000001100111 ~
b00000000000000000000000001111100 4
0!
0h
0"&
0n
00
0i
0X
#361
1"4
1!
1E
1X
1":
1n
1i
1q
1"&
1h
1/
10
#366
0"4
0":
0q
0/
0E
b00000000111100000000011000010011 ~
b00000000000000000000000010000000 4
0!
0h
0"&
0n
00
0i
0X
#371
1"4
1!
1E
1X
1":
1n
1i
1q
1"&
1h
1/
10
#376
0"4
0":
0q
0/
0E
0!
0h
0"&
0n
00
b00000000000000000000010110010011 ~
0i
b00000000000000000000000010000100 4
0X
#381
1"4
1!
1E
1X
1":
1n
1i
1q
1"&
1h
1/
10
#386
0"4
0":
0q
0/
0E
0!
b00000000000000000000000010001000 4
0h
0"&
0n
00
b00000010000000000000010100010011 ~
0i
0X
#391
1"4
1!
1E
1X
1":
1n
1i
1q
1"&
1h
1/
10
#396
b00000000000000000000000010001100 4
0"4
0":
0q
0/
0E
b11111001000111111111000011101111 ~
0!
0h
0"&
0n
00
0i
0X
#401
1"4
1!
1E
1X
1":
1n
1i
1q
1"&
1h
1/
10
#406
0"4
0":
0q
0/
0E
0!
0h
0"&
0n
00
b00000000000000000000000010010000 4
0i
b00000000101000000011010100110011 ~
0X
#411
1"4
1!
1E
1X
1":
1n
1i
1q
1"&
1h
1/
10
#416
0"4
b00000000000000000000000010010100 4
0":
0q
0/
0E
b11111110000111111111000001101111 ~
0!
0h
0"&
0n
00
0i
0X
#421
1"4
1!
1E
1X
1":
1n
1i
1q
1"&
1h
1/
10
#426
0"4
b00001000110001011101101001100011 ~
0":
0q
0/
0E
b00000000000000000000000010011000 4
0!
0h
0"&
0n
00
0i
0X
#431
1"4
1!
1E
1X
1":
1n
1i
1q
1"&
1h
1/
10
#436
0"4
b00000000001001100001011010010011 ~
0":
0q
0/
0E
b00000000000000000000000010011100 4
0!
0h
0"&
0n
00
0i
0X
#441
1"4
1!
1E
1X
1":
1n
1i
1q
1"&
1h
1/
10
#446
b00000000000000000000000010100000 4
0"4
b00000000001001011001011100010011 ~
0":
0q
0/
0E
0!
0h
0"&
0n
00
0i
0X
#451
1"4
1!
1E
1X
1":
1n
1i
1q
1"&
1h
1/
10
#456
0"4
0":
0q
0/
0E
0!
0h
0"&
0n
00
b00000000110101010000011110110011 ~
0i
b00000000000000000000000010100100 4
0X
#461
1"4
1!
1E
1X
1":
1n
1i
1q
1"&
1h
1/
10
#466
0"4
b00000000111001010000011100110011 ~
0":
0q
0/
0E
b00000000000000000000000010101000 4
0!
0h
0"&
0n
00
0i
0X
#471
1"4
1!
1E
1X
1":
1n
1i
1q
1"&
1h
1/
10
#476
0"4
0":
0q
0/
0E
0!
b00000000000001110010100010000011 ~
0h
0"&
0n
00
b00000000000000000000000010101100 4
0i
0X
#481
1"4
1!
1E
1X
1":
1n
1i
1q
1"&
1h
1/
10
#486
0"4
b00000000000001111010100000000011 ~
0":
0q
0/
0E
0!
0h
0"&
0n
b00000000000000000000000010110000 4
00
0i
0X
#491
1"4
1!
1E
1X
1":
1n
1i
1q
1"&
1h
1/
10
#496
0"4
0":
0q
0/
0E
0!
0h
0"&
0n
00
b00000000000000000000011010010011 ~
0i
b00000000000000000000000010110100 4
0X
#501
1"4
1!
1E
1X
1":
1n
1i
1q
1"&
1h
1/
10
#506
0"4
0":
0q
0/
0E
b00000000000000000000000010111000 4
0!
b00000111000010001001110001100011 ~
0h
0"&
0n
00
0i
0X
#511
1"4
1!
1E
1X
1":
1n
1i
1q
1"&
1h
1/
10
#516
0"4
0":
0q
0/
0E
0!
b00000000000000000000000010111100 4
0h
0"&
b00000000000101011000100010010011 ~
0n
00
0i
0X
#521
1"4
1!
1E
1X
1":
1n
1i
1q
1"&
1h
1/
10
#526
0"4
0":
0q
0/
0E
0!
b11111111111101100000100000010011 ~
0h
0"&
0n
00
0i
b00000000000000000000000011000000 4
0X
#531
1"4
1!
1E
1X
1":
1n
1i
1q
1"&
1h
1/
10
#536
0"4
0":
0q
0/
0E
0!
b00000000000000000000000011000100 4
0h
0"&
0n
b00000000000100000000011010010011 ~
00
0i
0X
#541
1"4
1!
1E
1X
1":
1n
1i
1q
1"&
1h
1/
10
#546
0"4
0":
0q
0/
0E
b00000000000000000000000011001000 4
b00000111000010001101010001100011 ~
0!
0h
0"&
0n
00
0i
0X
#551
1"4
1!
1E
1X
1":
1n
1i
1q
1"&
1h
1/
10
#556
0"4
0":
0q
0/
0E
0!
0h
0"&
0n
00
0i
b00000000010001110010100010000011 ~
b00000000000000000000000011001100 4
0X
#561
1"4
1!
1E
1X
1":
1n
1i
1q
1"&
1h
1/
10
#566
0X
0"4
b11111111110001111010100000000011 ~
0":
0q
0/
0E
0!
0h
0"&
0n
00
0i
b00000000000000000000000011010000 4
#571
1"4
1!
1E
1X
1":
1n
1i
1q
1"&
1h
1/
10
#576
0"4
b00000000000000000000000011010100 4
0":
0q
0/
0E
0!
0h
0"&
0n
00
b00000000000000000000011010010011 ~
0i
0X
#581
1"4
1!
1E
1X
1":
1n
1i
1q
1"&
1h
1/
10
#586
0"4
b00000000000000000000000011011000 4
0":
0q
0/
0E
b00000101000010001001110001100011 ~
0!
0h
0"&
0n
00
0i
0X
#591
1"4
1!
1E
1X
1":
1n
1i
1q
1"&
1h
1/
10
#596
0X
0"4
0":
0q
0/
0E
0!
0h
0"&
0n
00
0i
b00000000001001011000100010010011 ~
b00000000000000000000000011011100 4
#601
1"4
1!
1E
1X
1":
1n
1i
1q
1"&
1h
1/
10
#606
0"4
b11111111111001100000100000010011 ~
0":
0q
0/
0E
0!
0h
0"&
0n
00
0i
b00000000000000000000000011100000 4
0X
#611
1"4
1!
1E
1X
1":
1n
1i
1q
1"&
1h
1/
10
#616
0"4
0":
0q
0/
0E
b00000000000000000000000011100100 4
0!
0h
0"&
0n
b00000000000100000000011010010011 ~
00
0i
0X
#621
1"4
1!
1E
1X
1":
1n
1i
1q
1"&
1h
1/
10
#626
0"4
0":
0q
0/
0E
b00000000000000000000000011101000 4
0!
0h
0"&
b00000101000010001101010001100011 ~
0n
00
0i
0X
#631
1"4
1!
1E
1X
1":
1n
1i
1q
1"&
1h
1/
10
#636
0"4
0":
0q
0/
0E
b00000000100001110010011100000011 ~
b00000000000000000000000011101100 4
0!
0h
0"&
0n
00
0i
0X
#641
1"4
1!
1E
1X
1":
1n
1i
1q
1"&
1h
1/
10
#646
0"4
0":
0q
0/
0E
b00000000000000000000000011110000 4
0!
0h
0"&
0n
00
0i
b11111111100001111010011110000011 ~
0X
#651
1"4
1!
1E
1X
1":
1n
1i
1q
1"&
1h
1/
10
#656
0"4
0":
0q
0/
0E
0!
0h
0"&
0n
00
b00000000000000000000011010010011 ~
0i
b00000000000000000000000011110100 4
0X
#661
1"4
1!
1E
1X
1":
1n
1i
1q
1"&
1h
1/
10
#666
0"4
0":
0q
0/
0E
b00000000000000000000000011111000 4
0!
0h
0"&
0n
00
b00000010111101110001110001100011 ~
0i
0X
#671
1"4
1!
1E
1X
1":
1n
1i
1q
1"&
1h
1/
10
#676
0"4
0":
0q
0/
0E
b00000000000000000000000011111100 4
0!
0h
0"&
0n
00
0i
b00000000001101011000010110010011 ~
0X
#681
1"4
1!
1E
1X
1":
1n
1i
1q
1"&
1h
1/
10
#686
0"4
0":
0q
0/
0E
0!
0h
0"&
0n
00
b11111111110101100000011000010011 ~
0i
b00000000000000000000000100000000 4
0X
#691
1"4
1!
1E
1X
1":
1n
1i
1q
1"&
1h
1/
10
#696
0"4
0":
0q
0/
0E
0!
b00000000000000000000000100000100 4
0h
0"&
0n
b00000000000100000000011010010011 ~
00
0i
0X
#701
1"4
1!
1E
1X
1":
1n
1i
1q
1"&
1h
1/
10
#706
0"4
0":
0q
0/
0E
0!
0h
0"&
0n
00
b00000000000000000000000100001000 4
0i
b00000010110001011101010001100011 ~
0X
#711
1"4
1!
1E
1X
1":
1n
1i
1q
1"&
1h
1/
10
#716
0"4
b00000000000000000000000100001100 4
0":
0q
0/
0E
b11111111000000010000000100010011 ~
0!
0h
0"&
0n
00
0i
0X
#721
1"4
1!
1E
1X
1":
1n
1i
1q
1"&
1h
1/
10
#726
0"4
0":
0q
0/
0E
0!
0h
0"&
0n
00
0i
b00000000000000000000000100010000 4
b00000000000100010010011000100011 ~
0X
#731
1"4
1!
1E
1X
1":
1n
1i
1q
1"&
1h
1/
10
#736
0"4
0":
0q
0/
0E
0!
0h
0"&
0n
b11110000100111111111000011101111 ~
00
0i
b00000000000000000000000100010100 4
0X
#741
1"4
1!
1E
1X
1":
1n
1i
1q
1"&
1h
1/
10
#746
0"4
0":
0q
0/
0E
0!
0h
0"&
0n
00
0i
b00000000110000010010000010000011 ~
b00000000000000000000000100011000 4
0X
#751
1"4
1!
1E
1X
1":
1n
1i
1q
1"&
1h
1/
10
#756
0"4
0":
0q
0/
0E
0!
b00000000101000000011011010110011 ~
0h
0"&
0n
00
0i
b00000000000000000000000100011100 4
0X
#761
1"4
1!
1E
1X
1":
1n
1i
1q
1"&
1h
1/
10
#766
0"4
0":
0q
0/
0E
b00000000000000000000000100100000 4
0!
0h
0"&
0n
00
0i
b00000000000001101000010100110011 ~
0X
#771
1"4
1!
1E
1X
1":
1n
1i
1q
1"&
1h
1/
10
#776
0"4
0":
0q
0/
0E
b00000001000000010000000100010011 ~
0!
0h
0"&
0n
00
b00000000000000000000000100100100 4
0i
0X
#781
1"4
1!
1E
1X
1":
1n
1i
1q
1"&
1h
1/
10
#786
0"4
0":
0q
0/
0E
b00000000000000001000000001100111 ~
0!
b00000000000000000000000100101000 4
0h
0"&
0n
00
0i
0X
#791
1"4
1!
1E
1X
1":
1n
1i
1q
1"&
1h
1/
10
#796
0"4
0":
0q
0/
0E
0!
0h
0"&
0n
b00000000000100000000011010010011 ~
00
b00000000000000000000000100101100 4
0i
0X
#801
1"4
1!
1E
1X
1":
1n
1i
1q
1"&
1h
1/
10
#806
0"4
b00000000000000000000000100110000 4
0":
0q
0/
0E
0!
0h
0"&
0n
00
0i
b00000000000001101000010100110011 ~
0X
#811
1"4
1!
1E
1X
1":
1n
1i
1q
1"&
1h
1/
10
#816
0"4
0":
0q
0/
0E
b00000000000000001000000001100111 ~
0!
0h
0"&
b00000000000000000000000100110100 4
0n
00
0i
0X
#821
1"4
1!
1E
1X
1":
1n
1i
1q
1"&
1h
1/
10
#826
b01110 m
1*
0":
0/
1%
1C
b01110 N
b01110 k
0!
1e
0h
b01110 j
b01110 M
b01110 w
17
b00000000000000000000000000000000 ~
1b
0"4
1#
b01110 L
0q
0E
b00000000000000000000111111111100 4
1"
b01110 .
b01110 O
0"&
0n
00
b01110 a
1@
b01110 y
0i
1""
1<
12
0X
#831
1!
1E
1X
1":
1i
1"&
1h
1/
10
1"4
1n
1(
b01110 S
1q
#836
0"4
0":
0q
0/
0E
b01010 N
b01010 k
b01010 O
b01010 M
b01010 .
0!
b01010 a
0h
0"&
b01010 w
0n
00
b01010 j
0i
b01010 m
b01010 L
b01010 y
0X
#841
1"4
1!
1E
1X
1":
1n
1i
b01010 S
1q
1"&
1h
1/
10
#846
b10001 a
0"4
0":
b10001 O
0q
0/
0E
b10001 y
b10001 w
b10001 k
0!
b10001 M
b10001 L
0h
0"&
0n
00
b10001 N
b10001 m
b10001 j
0i
b10001 .
0X
#851
1"4
1!
1E
1X
1":
1n
1i
b10001 S
1q
1"&
1h
1/
10
#856
b00000 .
0"4
b00000 k
0b
b00000 a
0e
0":
b00000 O
0q
0/
0E
b00000 L
b00000 N
b00000 m
0!
0#
0h
0"&
0n
00
0i
b00000 M
b00000 j
b00000 w
b00000 y
0X
#861
1!
1E
1X
1":
1i
1"&
1h
1/
10
1"4
b00000 S
1n
0(
1q
#866
0"4
b00100 y
1#
0":
0q
0/
0E
b00100 k
b00100 O
b00100 m
b00100 N
0!
1e
b00100 .
b00100 j
0h
0"&
0n
00
b00100 L
b00100 a
b00100 M
0i
b00100 w
1b
0X
#871
1!
1E
1X
1":
1i
1"&
1h
1/
10
1"4
1n
1(
1q
b00100 S
#876
0"4
b11000 .
0":
0q
0/
0E
b11000 j
0!
b11000 w
0h
0"&
b11000 L
0n
b11000 m
b11000 y
00
b11000 O
b11000 M
b11000 a
0i
b11000 N
b11000 k
0X
#881
1"4
1!
1E
1X
1":
1n
1i
b11000 S
1q
1"&
1h
1/
10
#886
0"4
b00110 .
0":
b00110 w
0q
0/
0E
b00110 j
0!
b00110 M
b00110 O
b00110 N
0h
0"&
0n
b00110 m
00
b00110 k
b00110 y
b00110 L
0i
b00110 a
0X
#891
1"4
1!
1E
1X
1":
1n
1i
1q
1"&
1h
1/
b00110 S
10
#896
0"4
0":
0q
0/
0E
b10100 .
b10100 j
b10100 O
b10100 m
b10100 a
0!
0h
0"&
b10100 w
0n
b10100 y
00
b10100 N
b10100 k
b10100 L
0i
b10100 M
0X
#901
1"4
1!
1E
1X
1":
1n
1i
1q
1"&
1h
1/
b10100 S
10
#906
0"4
b00111 L
0":
b00111 M
0q
0/
0E
b00111 k
b00111 y
b00111 j
0!
0h
0"&
b00111 .
0n
b00111 a
b00111 m
00
0i
b00111 O
b00111 w
b00111 N
0X
#911
1"4
1!
b00111 S
1X
1":
1n
1E
1i
1q
1"&
1h
1/
10
