waveforms/searchRegularO0.s.vcd
$date
2021-12-01T09:31+0000
$end
$version
0.2
$end
$comment

$end
$timescale 1ns  $end
$scope module Tile $end
 $var wire 1 * io_regsWriteEnable $end
 $var wire 32 + io_regsReadData $end
 $var wire 32 4 io_IMEMAddress $end
 $var wire 1 < io_regsDeviceWriteEnable $end
 $var wire 32 I io_DMEMAddress $end
 $var wire 32 Z io_DMEMWriteData $end
 $var wire 1 ] CPU $end
 $var wire 32 _ io_regsDeviceWriteData $end
 $var wire 5 a io_regsDeviceWriteAddress $end
 $var wire 1 i clock $end
 $var wire 32 l io_currentPC $end
 $var wire 5 m io_regsAddress $end
 $var wire 1 u io_DMEMWriteEnable $end
 $var wire 32 v io_memDeviceWriteAddress $end
 $var wire 32 ~ io_IMEMWriteData $end
 $var wire 32 "! io_memDeviceWriteData $end
 $var wire 32 ") io_DMEMReadData $end
 $var wire 1 ", reset $end
 $var wire 1 "2 io_setup $end
 $var wire 1 "7 io_memDeviceWriteEnable $end
 $var wire 32 "A io_regsWriteData $end
  $scope module CPU.MEM $end
  $upscope $end
  $scope module CPU.ID.registers $end
  $upscope $end
  $scope module CPU.IF $end
  $upscope $end
  $scope module CPU.IF.IMEM $end
  $upscope $end
  $scope module CPU.MEM.DMEM $end
  $upscope $end
  $scope module CPU $end
   $var wire 1 2 testHarness_regUpdates_writeEnable $end
   $var wire 1 > ID $end
   $var wire 1 D testHarness_memUpdates_writeEnable $end
   $var wire 32 K testHarness_regUpdates_writeData $end
   $var wire 5 L testHarness_regUpdates_writeAddress $end
   $var wire 5 M testHarness_setupSignals_registerSignals_readAddress $end
   $var wire 32 P testHarness_testReadouts_registerRead $end
   $var wire 32 T testHarness_currentPC $end
   $var wire 1 W IF $end
   $var wire 32 [ testHarness_memUpdates_writeAddress $end
   $var wire 1 ^ testHarness_setupSignals_DMEMsignals_setup $end
   $var wire 32 d testHarness_testReadouts_DMEMread $end
   $var wire 32 f testHarness_setupSignals_DMEMsignals_dataIn $end
   $var wire 1 g testHarness_setupSignals_IMEMsignals_setup $end
   $var wire 1 q clock $end
   $var wire 32 s testHarness_setupSignals_DMEMsignals_dataAddress $end
   $var wire 1 x testHarness_setupSignals_registerSignals_setup $end
   $var wire 1 { MEM $end
   $var wire 1 "" testHarness_setupSignals_registerSignals_writeEnable $end
   $var wire 32 "6 testHarness_memUpdates_writeData $end
   $var wire 32 "= testHarness_setupSignals_registerSignals_writeData $end
   $var wire 1 "@ reset $end
   $var wire 1 "B testHarness_setupSignals_DMEMsignals_writeEnable $end
    $scope module MEM $end
     $var wire 1 8 DMEM $end
     $var wire 32 ; testHarness_testUpdates_writeAddress $end
     $var wire 32 U testHarness_DMEMsetup_dataAddress $end
     $var wire 1 p testHarness_testUpdates_writeEnable $end
     $var wire 1 z testHarness_DMEMsetup_writeEnable $end
     $var wire 32 } testHarness_DMEMpeek $end
     $var wire 1 "* testHarness_DMEMsetup_setup $end
     $var wire 32 "0 testHarness_testUpdates_writeData $end
     $var wire 1 "4 clock $end
     $var wire 32 "> testHarness_DMEMsetup_dataIn $end
      $scope module DMEM $end
       $var wire 32 & testHarness_testUpdates_writeData $end
       $var wire 1 ) _GEN_6 $end
       $var wire 12 - data__T_24_addr_pipe_0 $end
       $var wire 1 6 testHarness_testUpdates_writeEnable $end
       $var wire 32 : testHarness_setup_dataAddress $end
       $var wire 32 ? testHarness_testUpdates_writeAddress $end
       $var wire 32 F addressSource $end
       $var wire 32 J data $end
       $var wire 1 r testHarness_setup_writeEnable $end
       $var wire 1 t testHarness_setup_setup $end
       $var wire 1 "& clock $end
       $var wire 32 "+ testHarness_setup_dataIn $end
       $var wire 32 "9 io_dataOut $end
        $scope module data $end
          $scope module _T_26 $end
           $var wire 1 ! clk $end
           $var wire 12 B addr $end
           $var wire 32 G pipeline_data_0 $end
           $var wire 1 \ pipeline_valid_0 $end
           $var wire 32 c data $end
           $var wire 1 "# en $end
           $var wire 12 "' pipeline_addr_0 $end
           $var wire 1 "- valid $end
           $var wire 1 "< mask $end
          $upscope $end
          $scope module _T_24 $end
           $var wire 32 5 data $end
           $var wire 1 h clk $end
           $var wire 1 "% en $end
           $var wire 12 "( addr $end
          $upscope $end
        $upscope $end
      $upscope $end
    $upscope $end
    $scope module ID $end
     $var wire 1 " testHarness_registerSetup_writeEnable $end
     $var wire 32 = testHarness_registerPeek $end
     $var wire 1 C testHarness_testUpdates_writeEnable $end
     $var wire 32 H testHarness_registerSetup_writeData $end
     $var wire 5 N testHarness_testUpdates_writeAddress $end
     $var wire 5 k testHarness_registerSetup_readAddress $end
     $var wire 1 o registers $end
     $var wire 1 "3 testHarness_registerSetup_setup $end
     $var wire 32 "5 testHarness_testUpdates_writeData $end
     $var wire 1 ": clock $end
      $scope module registers $end
       $var wire 1 % testHarness_testUpdates_writeEnable $end
       $var wire 1 ' testHarness_setup_setup $end
       $var wire 32 , testHarness_testUpdates_writeData $end
       $var wire 5 . readAddress1 $end
       $var wire 1 0 clock $end
       $var wire 32 1 io_readData1 $end
       $var wire 32 3 registerFile $end
       $var wire 1 7 testHarness_setup_writeEnable $end
       $var wire 1 @ writeEnable $end
       $var wire 5 O testHarness_testUpdates_writeAddress $end
       $var wire 32 ` testHarness_setup_writeData $end
       $var wire 5 y testHarness_setup_readAddress $end
        $scope module registerFile $end
          $scope module _T_33 $end
           $var wire 1 # en $end
           $var wire 1 ( pipeline_valid_0 $end
           $var wire 1 / clk $end
           $var wire 5 S pipeline_addr_0 $end
           $var wire 1 V mask $end
           $var wire 1 e valid $end
           $var wire 5 w addr $end
           $var wire 32 "$ pipeline_data_0 $end
           $var wire 32 "8 data $end
          $upscope $end
          $scope module _T_41 $end
           $var wire 32 A data $end
           $var wire 1 R en $end
           $var wire 1 n clk $end
           $var wire 5 "1 addr $end
          $upscope $end
          $scope module _T_38 $end
           $var wire 1 E clk $end
           $var wire 1 b en $end
           $var wire 5 j addr $end
           $var wire 32 ". data $end
          $upscope $end
        $upscope $end
      $upscope $end
    $upscope $end
    $scope module IF $end
     $var wire 1 $ testHarness_IMEMsetup_setup $end
     $var wire 1 9 IMEM $end
     $var wire 32 Q PC $end
     $var wire 1 X clock $end
     $var wire 32 Y testHarness_PC $end
     $var wire 1 | reset $end
     $var wire 32 "? _GEN_0 $end
      $scope module IMEM $end
       $var wire 32 "/ testHarness_requestedAddress $end
       $var wire 32 "; io_instructionAddress $end
      $upscope $end
    $upscope $end
  $upscope $end
  $scope module CPU.ID $end
  $upscope $end
$upscope $end
$enddefinitions $end
$dumpvars
0X
b00000000000000000000000000000000 Y
0"7
1"<
0""
0C
b00000000000000000000000000000000 ">
0o
0R
b00000000000000000000000000000000 "8
b00000000000000000000000000000000 l
b00000000000000000000000000000000 :
b00000000000000000000000000000000 Q
b00000000000000000000000000000000 }
0g
b00000000000000000000000000000000 ".
b00000000000000000000000000000000 `
b00000000000000000000000000000000 K
b000000000000 "(
0"@
0D
0/
0"#
0x
0":
b00000 S
0z
b00000000000000000000000000000000 s
0r
1)
0]
b00000 j
0@
b00000000000000000000000000000000 A
0W
b00000 O
b00000000000000000000000000000000 ;
0%
b000000000000 -
b00000000000000000000000000000000 "=
b00000000000000000000000000000000 Z
0p
b00000000000000000000000000000000 T
0>
b00000000000000000000000000000000 ?
0"2
06
0!
b00000 .
b00000000000000000000000000000000 "9
0"4
b00000 y
b00000000000000000000000000000000 P
b00000000000000000000000000000000 3
0{
b00000000000000000000000000000000 "5
b00000000000000000000000000000000 J
b000000000000 "'
b00000000000000000000000000000000 "/
0"*
0b
0E
00
0(
b00000000000000000000000000000000 "+
b00000000000000000000000000000000 _
1V
0u
b00000000000000000000000000000000 [
b00000000000000000000000000000000 "6
b00000000000000000000000000000000 "!
0q
0i
b00000000000000000000000000000000 U
0"3
b00000 a
b00000 L
07
0"
09
0"-
0e
b00000000000000000000000000000000 f
b00000 "1
b00000000000000000000000000000000 I
b00000000000000000000000000000000 4
0|
b00000000000000000000000000000000 "0
b00000000000000000000000000000000 d
0"B
b00000000000000000000000000000000 G
b00000000000000000000000000000000 "A
b00000000000000000000000000000000 "$
b00000000000000000000000000000000 ,
b00000 M
0t
b00000000000000000000000000000000 ";
b00000000000000000000000000000000 &
0n
b00000000000000000000000000000000 =
0'
0<
b00000000000000000000000000000000 "?
b00000 w
08
0#
0",
02
b000000000000 B
b00000000000000000000000000000000 5
b00000000000000000000000000000000 ~
0h
b00000 m
b00000000000000000000000000000000 c
b00000000000000000000000000000000 ")
b00000000000000000000000000000000 F
b00000000000000000000000000000000 1
0\
b00000000000000000000000000000000 H
0"&
b00000000000000000000000000000000 +
0*
0^
b00000 k
1"%
0$
b00000 N
b00000000000000000000000000000000 v
$end
#0
1"@
1|
1",
#1
1X
1n
10
1h
1i
1q
1":
1/
1"4
1E
1"&
1!
#6
0!
0i
0"4
0E
0q
0h
0":
0"&
0n
00
0/
0X
#11
1X
1n
10
1h
1i
1q
1":
1/
1"4
1E
1"&
1!
#16
0!
0i
0"4
0E
0q
0h
0":
0"&
0n
00
0/
0X
#21
1X
1n
10
1h
1i
1q
1":
1/
1"4
1E
1"&
1!
#26
0!
0i
0"4
0E
0q
0h
0":
0"&
0n
00
0/
0X
#31
1X
1n
10
1h
1i
1q
1":
1/
1"4
1E
1"&
1!
#36
0!
0i
0"4
0E
0q
0h
0":
0"&
0n
00
0/
0X
#41
1X
1n
10
1h
1i
1q
1":
1/
1"4
1E
1"&
1!
#46
0!
0i
b11111110000000010000000100010011 ~
0"4
1"2
0E
0|
1g
0"@
0n
1"3
1t
1x
0q
0h
0",
1^
0":
0"&
1$
1"*
1'
00
0/
0X
#51
1X
1n
10
1h
1i
1q
1":
1/
1"4
1E
1"&
1!
#56
0!
0i
0"4
0E
0n
b00000000000100010010111000100011 ~
b00000000000000000000000000000100 4
0q
0h
0":
0"&
00
0/
0X
#61
1X
1n
10
1h
1i
1q
1":
1/
1"4
1E
1"&
1!
#66
0!
0i
0"4
0E
0n
b00000000100000010010110000100011 ~
0q
0h
0":
0"&
b00000000000000000000000000001000 4
00
0/
0X
#71
1X
1n
10
1h
1i
1q
1":
1/
1"4
1E
1"&
1!
#76
0!
0i
b00000000000000000000000000001100 4
0"4
0E
0n
0q
0h
0":
0"&
b00000010000000010000010000010011 ~
00
0/
0X
#81
1X
1n
10
1h
1i
1q
1":
1/
1"4
1E
1"&
1!
#86
0!
0i
0"4
0E
b00000000000000000000011110010011 ~
0n
0q
0h
0":
0"&
b00000000000000000000000000010000 4
00
0/
0X
#91
1X
1n
10
1h
1i
1q
1":
1/
1"4
1E
1"&
1!
#96
0!
0i
0"4
0E
0n
b00000000000001111010011110000011 ~
0q
0h
b00000000000000000000000000010100 4
0":
0"&
00
0/
0X
#101
1X
1n
10
1h
1i
1q
1":
1/
1"4
1E
1"&
1!
#106
0!
0i
0"4
0E
b00000000000000000000000000011000 4
0n
0q
0h
b11111110111101000010011000100011 ~
0":
0"&
00
0/
0X
#111
1X
1n
10
1h
1i
1q
1":
1/
1"4
1E
1"&
1!
#116
0!
0i
0"4
0E
0n
0q
0h
b11111110110001000010010100000011 ~
0":
0"&
b00000000000000000000000000011100 4
00
0/
0X
#121
1X
1n
10
1h
1i
1q
1":
1/
1"4
1E
1"&
1!
#126
0!
b00000000000000000000000000100000 4
0i
0"4
0E
0n
0q
0h
0":
0"&
b00000001110000000000000011101111 ~
00
0/
0X
#131
1X
1n
10
1h
1i
1q
1":
1/
1"4
1E
1"&
1!
#136
0!
0i
0"4
0E
b00000000000001010000011110110011 ~
0n
0q
0h
0":
0"&
b00000000000000000000000000100100 4
00
0/
0X
#141
1X
1n
10
1h
1i
1q
1":
1/
1"4
1E
1"&
1!
#146
0!
0i
0"4
0E
0n
0q
0h
0":
0"&
b00000000000001111000010100110011 ~
b00000000000000000000000000101000 4
00
0/
0X
#151
1X
1n
10
1h
1i
1q
1":
1/
1"4
1E
1"&
1!
#156
0!
0i
0"4
0E
b00000000000000000000000000101100 4
0n
0q
0h
0":
b00000001110000010010000010000011 ~
0"&
00
0/
0X
#161
1X
1n
10
1h
1i
1q
1":
1/
1"4
1E
1"&
1!
#166
0!
0i
0"4
0E
0n
b00000001100000010010010000000011 ~
0q
0h
0":
0"&
b00000000000000000000000000110000 4
00
0/
0X
#171
1X
1n
10
1h
1i
1q
1":
1/
1"4
1E
1"&
1!
#176
0!
0i
0"4
0E
b00000010000000010000000100010011 ~
0n
0q
0h
0":
0"&
b00000000000000000000000000110100 4
00
0/
0X
#181
1X
1n
10
1h
1i
1q
1":
1/
1"4
1E
1"&
1!
#186
0!
0i
0"4
0E
b00000000000000000000000000111000 4
b00000000000000001000000001100111 ~
0n
0q
0h
0":
0"&
00
0/
0X
#191
1X
1n
10
1h
1i
1q
1":
1/
1"4
1E
1"&
1!
#196
0!
0i
0"4
0E
0n
b11111100000000010000000100010011 ~
0q
0h
0":
0"&
b00000000000000000000000000111100 4
00
0/
0X
#201
1X
1n
10
1h
1i
1q
1":
1/
1"4
1E
1"&
1!
#206
0!
0i
0"4
0E
b00000000000000000000000001000000 4
0n
b00000010100000010010111000100011 ~
0q
0h
0":
0"&
00
0/
0X
#211
1X
1n
10
1h
1i
1q
1":
1/
1"4
1E
1"&
1!
#216
0!
0i
0"4
0E
b00000100000000010000010000010011 ~
0n
b00000000000000000000000001000100 4
0q
0h
0":
0"&
00
0/
0X
#221
1X
1n
10
1h
1i
1q
1":
1/
1"4
1E
1"&
1!
#226
0!
0i
0"4
0E
b11111100101001000010011000100011 ~
0n
0q
0h
0":
0"&
b00000000000000000000000001001000 4
00
0/
0X
#231
1X
1n
10
1h
1i
1q
1":
1/
1"4
1E
1"&
1!
#236
0!
0i
b11111110000001000010010000100011 ~
0"4
0E
0n
0q
0h
0":
0"&
b00000000000000000000000001001100 4
00
0/
0X
#241
1X
1n
10
1h
1i
1q
1":
1/
1"4
1E
1"&
1!
#246
0!
0i
0"4
0E
b00000000000000000000000001010000 4
b00000000010000000000011110010011 ~
0n
0q
0h
0":
0"&
00
0/
0X
#251
1X
1n
10
1h
1i
1q
1":
1/
1"4
1E
1"&
1!
#256
0!
0i
0"4
0E
b00000000000000000000000001010100 4
0n
0q
0h
b11111110111101000010011000100011 ~
0":
0"&
00
0/
0X
#261
1X
1n
10
1h
1i
1q
1":
1/
1"4
1E
1"&
1!
#266
0!
0i
0"4
0E
b11111110000001000010001000100011 ~
b00000000000000000000000001011000 4
0n
0q
0h
0":
0"&
00
0/
0X
#271
1X
1n
10
1h
1i
1q
1":
1/
1"4
1E
1"&
1!
#276
0!
0i
0"4
0E
b00001100000000000000000001101111 ~
b00000000000000000000000001011100 4
0n
0q
0h
0":
0"&
00
0/
0X
#281
1X
1n
10
1h
1i
1q
1":
1/
1"4
1E
1"&
1!
#286
0!
0i
0"4
0E
b00000000000000000000000001100000 4
0n
b11111110110001000010011110000011 ~
0q
0h
0":
0"&
00
0/
0X
#291
1X
1n
10
1h
1i
1q
1":
1/
1"4
1E
1"&
1!
#296
0!
0i
0"4
0E
0n
b00000000000001111010011110000011 ~
0q
0h
0":
0"&
b00000000000000000000000001100100 4
00
0/
0X
#301
1X
1n
10
1h
1i
1q
1":
1/
1"4
1E
1"&
1!
#306
0!
b01000001000001111101011110010011 ~
0i
0"4
0E
0n
b00000000000000000000000001101000 4
0q
0h
0":
0"&
00
0/
0X
#311
1X
1n
10
1h
1i
1q
1":
1/
1"4
1E
1"&
1!
#316
0X
0!
0i
0"4
0E
b11111110111101000010001000100011 ~
0n
0q
0h
0":
0"&
b00000000000000000000000001101100 4
00
0/
#321
1X
1n
10
1h
1i
1q
1":
1/
1"4
1E
1"&
1!
#326
0!
0i
0"4
b00000000000000000000000001110000 4
0E
b11111110010001000010011100000011 ~
0n
0q
0h
0":
0"&
00
0/
0X
#331
1X
1n
10
1h
1i
1q
1":
1/
1"4
1E
1"&
1!
#336
0!
0i
0"4
0E
b00000000000000000000000001110100 4
0n
b11111100110001000010011110000011 ~
0q
0h
0":
0"&
00
0/
0X
#341
1X
1n
10
1h
1i
1q
1":
1/
1"4
1E
1"&
1!
#346
0!
0i
0"4
0E
b00000000000000000000000001111000 4
0n
0q
b00000000111101110001011001100011 ~
0h
0":
0"&
00
0/
0X
#351
1X
1n
10
1h
1i
1q
1":
1/
1"4
1E
1"&
1!
#356
0!
0i
0"4
0E
0n
b11111110110001000010011110000011 ~
0q
b00000000000000000000000001111100 4
0h
0":
0"&
00
0/
0X
#361
1X
1n
10
1h
1i
1q
1":
1/
1"4
1E
1"&
1!
#366
0!
0i
0"4
0E
b00000000000000000000000010000000 4
b00001010010000000000000001101111 ~
0n
0q
0h
0":
0"&
00
0/
0X
#371
1X
1n
10
1h
1i
1q
1":
1/
1"4
1E
1"&
1!
#376
0!
0i
0"4
0E
b11111110010001000010011100000011 ~
b00000000000000000000000010000100 4
0n
0q
0h
0":
0"&
00
0/
0X
#381
1X
1n
10
1h
1i
1q
1":
1/
1"4
1E
1"&
1!
#386
0!
0i
0"4
0E
0n
b11111100110001000010011110000011 ~
b00000000000000000000000010001000 4
0q
0h
0":
0"&
00
0/
0X
#391
1X
1n
10
1h
1i
1q
1":
1/
1"4
1E
1"&
1!
#396
0!
0i
0"4
0E
b00000000000000000000000010001100 4
b00000100111001111101000001100011 ~
0n
0q
0h
0":
0"&
00
0/
0X
#401
1X
1n
10
1h
1i
1q
1":
1/
1"4
1E
1"&
1!
#406
0!
0i
b00000000000000000000000010010000 4
0"4
0E
0n
b11111110110001000010011110000011 ~
0q
0h
0":
0"&
00
0/
0X
#411
1X
1n
10
1h
1i
1q
1":
1/
1"4
1E
1"&
1!
#416
0!
0i
0"4
0E
0n
b00000000000001111010011110000011 ~
b00000000000000000000000010010100 4
0q
0h
0":
0"&
00
0/
0X
#421
1X
1n
10
1h
1i
1q
1":
1/
1"4
1E
1"&
1!
#426
0!
0i
0"4
0E
b00000000000101111111011110010011 ~
b00000000000000000000000010011000 4
0n
0q
0h
0":
0"&
00
0/
0X
#431
1X
1n
10
1h
1i
1q
1":
1/
1"4
1E
1"&
1!
#436
0!
0i
0"4
0E
0n
0q
b00000000000000000000000010011100 4
0h
0":
0"&
b00000010000001111000100001100011 ~
00
0/
0X
#441
1X
1n
10
1h
1i
1q
1":
1/
1"4
1E
1"&
1!
#446
0!
0i
0"4
0E
0n
b11111110110001000010011110000011 ~
0q
0h
0":
b00000000000000000000000010100000 4
0"&
00
0/
0X
#451
1X
1n
10
1h
1i
1q
1":
1/
1"4
1E
1"&
1!
#456
0!
0i
0"4
0E
0n
b00000000000001111010011110000011 ~
0q
b00000000000000000000000010100100 4
0h
0":
0"&
00
0/
0X
#461
1X
1n
10
1h
1i
1q
1":
1/
1"4
1E
1"&
1!
#466
0!
b00000000000000000000000010101000 4
0i
0"4
0E
b00000000000101111101011110010011 ~
0n
0q
0h
0":
0"&
00
0/
0X
#471
1X
1n
10
1h
1i
1q
1":
1/
1"4
1E
1"&
1!
#476
0!
0i
0"4
0E
b00000111111101111111011110010011 ~
b00000000000000000000000010101100 4
0n
0q
0h
0":
0"&
00
0/
0X
#481
1X
1n
10
1h
1i
1q
1":
1/
1"4
1E
1"&
1!
#486
0!
0i
b00000000000000000000000010110000 4
0"4
0E
b00001111111101111111011110010011 ~
0n
0q
0h
0":
0"&
00
0/
0X
#491
1X
1n
10
1h
1i
1q
1":
1/
1"4
1E
1"&
1!
#496
0!
0i
0"4
0E
b11111110111101000010000000100011 ~
b00000000000000000000000010110100 4
0n
0q
0h
0":
0"&
00
0/
0X
#501
1X
1n
10
1h
1i
1q
1":
1/
1"4
1E
1"&
1!
#506
b11111110000001000010011110000011 ~
0!
0i
0"4
b00000000000000000000000010111000 4
0E
0n
0q
0h
0":
0"&
00
0/
0X
#511
1X
1n
10
1h
1i
1q
1":
1/
1"4
1E
1"&
1!
#516
0!
0i
0"4
0E
b00000000000000000000000010111100 4
0n
0q
b00000000001001111001011110010011 ~
0h
0":
0"&
00
0/
0X
#521
1X
1n
10
1h
1i
1q
1":
1/
1"4
1E
1"&
1!
#526
0!
0i
0"4
0E
b00000000000000000000000011000000 4
b00000000010001111000011110010011 ~
0n
0q
0h
0":
0"&
00
0/
0X
#531
1X
1n
10
1h
1i
1q
1":
1/
1"4
1E
1"&
1!
#536
0!
0i
0"4
0E
0n
b00000000000000000000000011000100 4
0q
0h
b11111110111101000010011000100011 ~
0":
0"&
00
0/
0X
#541
1X
1n
10
1h
1i
1q
1":
1/
1"4
1E
1"&
1!
#546
0!
0i
0"4
0E
b00000000000000000000000011001000 4
0n
0q
0h
b00000101010000000000000001101111 ~
0":
0"&
00
0/
0X
#551
1X
1n
10
1h
1i
1q
1":
1/
1"4
1E
1"&
1!
#556
0!
0i
b00000000000000000000000011001100 4
0"4
0E
b11111110010001000010011100000011 ~
0n
0q
0h
0":
0"&
00
0/
0X
#561
1X
1n
10
1h
1i
1q
1":
1/
1"4
1E
1"&
1!
#566
0X
0!
0i
0"4
0E
0n
b11111100110001000010011110000011 ~
0q
0h
0":
0"&
b00000000000000000000000011010000 4
00
0/
#571
1X
1n
10
1h
1i
1q
1":
1/
1"4
1E
1"&
1!
#576
0!
0i
0"4
0E
0n
0q
0h
b00000100111101110101000001100011 ~
0":
0"&
b00000000000000000000000011010100 4
00
0/
0X
#581
1X
1n
10
1h
1i
1q
1":
1/
1"4
1E
1"&
1!
#586
0!
b00000000000000000000000011011000 4
0i
0"4
0E
0n
b11111110110001000010011110000011 ~
0q
0h
0":
0"&
00
0/
0X
#591
1X
1n
10
1h
1i
1q
1":
1/
1"4
1E
1"&
1!
#596
0!
0i
0"4
0E
0n
b00000000000001111010011110000011 ~
b00000000000000000000000011011100 4
0q
0h
0":
0"&
00
0/
0X
#601
1X
1n
10
1h
1i
1q
1":
1/
1"4
1E
1"&
1!
#606
0!
b00000000000000000000000011100000 4
0i
0"4
0E
0n
0q
0h
0":
b00010000000001111111011110010011 ~
0"&
00
0/
0X
#611
1X
1n
10
1h
1i
1q
1":
1/
1"4
1E
1"&
1!
#616
0!
0i
0"4
0E
b00000000000000000000000011100100 4
0n
0q
0h
0":
0"&
b00000010000001111000100001100011 ~
00
0/
0X
#621
1X
1n
10
1h
1i
1q
1":
1/
1"4
1E
1"&
1!
#626
0!
0i
0"4
0E
0n
b11111110110001000010011110000011 ~
0q
0h
0":
0"&
b00000000000000000000000011101000 4
00
0/
0X
#631
1X
1n
10
1h
1i
1q
1":
1/
1"4
1E
1"&
1!
#636
0!
0i
0"4
0E
b00000000000000000000000011101100 4
0n
b00000000000001111010011110000011 ~
0q
0h
0":
0"&
00
0/
0X
#641
1X
1n
10
1h
1i
1q
1":
1/
1"4
1E
1"&
1!
#646
0!
0i
0"4
0E
0n
b00000000100101111101011110010011 ~
0q
0h
b00000000000000000000000011110000 4
0":
0"&
00
0/
0X
#651
1X
1n
10
1h
1i
1q
1":
1/
1"4
1E
1"&
1!
#656
0!
0i
0"4
0E
b00000111111101111111011110010011 ~
b00000000000000000000000011110100 4
0n
0q
0h
0":
0"&
00
0/
0X
#661
1X
1n
10
1h
1i
1q
1":
1/
1"4
1E
1"&
1!
#666
0!
0i
0"4
0E
b00001111111101111111011110010011 ~
0n
0q
0h
b00000000000000000000000011111000 4
0":
0"&
00
0/
0X
#671
1X
1n
10
1h
1i
1q
1":
1/
1"4
1E
1"&
1!
#676
0!
b11111100111101000010111000100011 ~
0i
0"4
0E
0n
0q
0h
0":
0"&
b00000000000000000000000011111100 4
00
0/
0X
#681
1X
1n
10
1h
1i
1q
1":
1/
1"4
1E
1"&
1!
#686
0!
0i
b11111101110001000010011110000011 ~
0"4
0E
0n
0q
0h
b00000000000000000000000100000000 4
0":
0"&
00
0/
0X
#691
1X
1n
10
1h
1i
1q
1":
1/
1"4
1E
1"&
1!
#696
0!
0i
0"4
0E
0n
b00000000000000000000000100000100 4
0q
b00000000001001111001011110010011 ~
0h
0":
0"&
00
0/
0X
#701
1X
1n
10
1h
1i
1q
1":
1/
1"4
1E
1"&
1!
#706
0!
0i
0"4
0E
b00000000000000000000000100001000 4
b00000000010001111000011110010011 ~
0n
0q
0h
0":
0"&
00
0/
0X
#711
1X
1n
10
1h
1i
1q
1":
1/
1"4
1E
1"&
1!
#716
0!
0i
0"4
0E
0n
b00000000000000000000000100001100 4
0q
0h
b11111110111101000010011000100011 ~
0":
0"&
00
0/
0X
#721
1X
1n
10
1h
1i
1q
1":
1/
1"4
1E
1"&
1!
#726
0!
0i
b00000000000000000000000100010000 4
0"4
0E
0n
0q
0h
0":
0"&
b00000000110000000000000001101111 ~
00
0/
0X
#731
1X
1n
10
1h
1i
1q
1":
1/
1"4
1E
1"&
1!
#736
0!
0i
0"4
0E
b00000000000000000000000100010100 4
0n
0q
0h
b11111111111100000000011110010011 ~
0":
0"&
00
0/
0X
#741
1X
1n
10
1h
1i
1q
1":
1/
1"4
1E
1"&
1!
#746
0!
0i
0"4
0E
0n
0q
0h
0":
0"&
b00000000110000000000000001101111 ~
b00000000000000000000000100011000 4
00
0/
0X
#751
1X
1n
10
1h
1i
1q
1":
1/
1"4
1E
1"&
1!
#756
0!
0i
b11111110100001000010011110000011 ~
0"4
0E
0n
b00000000000000000000000100011100 4
0q
0h
0":
0"&
00
0/
0X
#761
1X
1n
10
1h
1i
1q
1":
1/
1"4
1E
1"&
1!
#766
0!
b00000000000000000000000100100000 4
0i
0"4
0E
b11110100000001111000000011100011 ~
0n
0q
0h
0":
0"&
00
0/
0X
#771
1X
1n
10
1h
1i
1q
1":
1/
1"4
1E
1"&
1!
#776
0!
0i
0"4
0E
b00000000000000000000000100100100 4
0n
0q
0h
0":
0"&
b00000000000001111000010100110011 ~
00
0/
0X
#781
1X
1n
10
1h
1i
1q
1":
1/
1"4
1E
1"&
1!
#786
0!
0i
0"4
0E
b00000011110000010010010000000011 ~
b00000000000000000000000100101000 4
0n
0q
0h
0":
0"&
00
0/
0X
#791
1X
1n
10
1h
1i
1q
1":
1/
1"4
1E
1"&
1!
#796
0!
0i
b00000000000000000000000100101100 4
0"4
0E
b00000100000000010000000100010011 ~
0n
0q
0h
0":
0"&
00
0/
0X
#801
1X
1n
10
1h
1i
1q
1":
1/
1"4
1E
1"&
1!
#806
0!
0i
0"4
0E
b00000000000000001000000001100111 ~
0n
b00000000000000000000000100110000 4
0q
0h
0":
0"&
00
0/
0X
#811
1X
1n
10
1h
1i
1q
1":
1/
1"4
1E
1"&
1!
#816
b01110 N
0!
0/
1b
17
1C
1""
1"
1@
b01110 j
12
0"&
1<
1%
1*
0X
1#
0i
0"4
0E
b01110 m
b00000000000000000000111111111100 4
0n
b01110 y
b01110 .
b01110 a
0q
b01110 k
b01110 L
0h
b00000000000000000000000000000000 ~
b01110 w
1e
0":
00
b01110 M
b01110 O
#821
1X
10
1":
1"4
b01110 S
1"&
1!
1(
1n
1h
1i
1q
1/
1E
#826
0!
0i
0"4
0E
b01010 m
b01010 y
b01010 L
b01010 a
b01010 .
b01010 O
b01010 k
0n
b01010 M
b01010 w
b01010 j
0q
0h
0":
b01010 N
0"&
00
0/
0X
#831
b01010 S
1X
1n
10
1h
1i
1q
1":
1/
1"4
1E
1"&
1!
#836
0X
0!
b10001 O
0i
b10001 k
0"4
b10001 y
0E
b10001 N
b10001 a
b10001 j
b10001 m
0n
0q
0h
0":
0"&
b10001 L
b10001 w
b10001 .
00
0/
b10001 M
#841
1X
1n
10
b10001 S
1h
1i
1q
1":
1/
1"4
1E
1"&
1!
#846
b00000 L
0!
b00000 .
0i
0e
0"4
0E
b00000 N
b00000 w
b00000 j
0b
0n
b00000 k
0#
b00000 M
0q
0h
0":
0"&
b00000 y
b00000 m
b00000 O
b00000 a
00
0/
0X
#851
1X
10
0(
b00000 S
1":
1"4
1"&
1!
1n
1h
1i
1q
1/
1E
#856
b00100 a
0!
b00100 .
0i
1#
0"4
b00100 k
0E
1b
b00100 j
b00100 M
b00100 y
0n
0q
b00100 O
b00100 N
0h
b00100 w
1e
0":
0"&
b00100 L
b00100 m
00
0/
0X
#861
b00100 S
1X
10
1":
1"4
1"&
1!
1(
1n
1h
1i
1q
1/
1E
#866
0!
0i
b11000 j
0"4
0E
b11000 w
b11000 N
b11000 y
b11000 O
b11000 .
0n
b11000 L
0q
b11000 k
0h
0":
0"&
b11000 a
b11000 M
b11000 m
00
0/
0X
#871
1X
1n
10
b11000 S
1h
1i
1q
1":
1/
1"4
1E
1"&
1!
#876
0!
0i
b00110 w
0"4
b00110 L
0E
b00110 j
b00110 M
b00110 N
0n
b00110 a
b00110 O
0q
0h
b00110 y
0":
b00110 m
0"&
b00110 k
b00110 .
00
0/
0X
#881
1X
1n
10
1h
1i
1q
1":
1/
1"4
1E
1"&
b00110 S
1!
#886
0!
0i
0"4
0E
b10100 j
b10100 y
b10100 a
b10100 M
b10100 .
b10100 m
0n
b10100 N
b10100 L
b10100 O
0q
0h
b10100 k
b10100 w
0":
0"&
00
0/
0X
#891
1X
1n
10
1h
1i
1q
1":
1/
1"4
b10100 S
1"&
1!
1E
#896
0!
0i
b00111 a
0"4
b00111 .
0E
b00111 N
b00111 L
b00111 w
b00111 k
0n
b00111 m
b00111 j
b00111 y
0q
0h
b00111 M
0":
0"&
b00111 O
00
0/
0X
#901
1X
1n
10
1h
1i
1q
b00111 S
1":
1/
1"4
1E
1"&
1!
