waveforms/square.s.vcd
$date
2021-12-01T09:31+0000
$end
$version
0.2
$end
$comment

$end
$timescale 1ns  $end
$scope module Tile $end
 $var wire 1 * io_regsWriteEnable $end
 $var wire 32 + io_regsReadData $end
 $var wire 32 4 io_IMEMAddress $end
 $var wire 1 < io_regsDeviceWriteEnable $end
 $var wire 32 I io_DMEMAddress $end
 $var wire 32 Z io_DMEMWriteData $end
 $var wire 1 ] CPU $end
 $var wire 32 _ io_regsDeviceWriteData $end
 $var wire 5 a io_regsDeviceWriteAddress $end
 $var wire 1 i clock $end
 $var wire 32 l io_currentPC $end
 $var wire 5 m io_regsAddress $end
 $var wire 1 u io_DMEMWriteEnable $end
 $var wire 32 v io_memDeviceWriteAddress $end
 $var wire 32 ~ io_IMEMWriteData $end
 $var wire 32 "! io_memDeviceWriteData $end
 $var wire 32 ") io_DMEMReadData $end
 $var wire 1 ", reset $end
 $var wire 1 "2 io_setup $end
 $var wire 1 "7 io_memDeviceWriteEnable $end
 $var wire 32 "A io_regsWriteData $end
  $scope module CPU.MEM $end
  $upscope $end
  $scope module CPU.ID.registers $end
  $upscope $end
  $scope module CPU.IF $end
  $upscope $end
  $scope module CPU.IF.IMEM $end
  $upscope $end
  $scope module CPU.MEM.DMEM $end
  $upscope $end
  $scope module CPU $end
   $var wire 1 2 testHarness_regUpdates_writeEnable $end
   $var wire 1 > ID $end
   $var wire 1 D testHarness_memUpdates_writeEnable $end
   $var wire 32 K testHarness_regUpdates_writeData $end
   $var wire 5 L testHarness_regUpdates_writeAddress $end
   $var wire 5 M testHarness_setupSignals_registerSignals_readAddress $end
   $var wire 32 P testHarness_testReadouts_registerRead $end
   $var wire 32 T testHarness_currentPC $end
   $var wire 1 W IF $end
   $var wire 32 [ testHarness_memUpdates_writeAddress $end
   $var wire 1 ^ testHarness_setupSignals_DMEMsignals_setup $end
   $var wire 32 d testHarness_testReadouts_DMEMread $end
   $var wire 32 f testHarness_setupSignals_DMEMsignals_dataIn $end
   $var wire 1 g testHarness_setupSignals_IMEMsignals_setup $end
   $var wire 1 q clock $end
   $var wire 32 s testHarness_setupSignals_DMEMsignals_dataAddress $end
   $var wire 1 x testHarness_setupSignals_registerSignals_setup $end
   $var wire 1 { MEM $end
   $var wire 1 "" testHarness_setupSignals_registerSignals_writeEnable $end
   $var wire 32 "6 testHarness_memUpdates_writeData $end
   $var wire 32 "= testHarness_setupSignals_registerSignals_writeData $end
   $var wire 1 "@ reset $end
   $var wire 1 "B testHarness_setupSignals_DMEMsignals_writeEnable $end
    $scope module MEM $end
     $var wire 1 8 DMEM $end
     $var wire 32 ; testHarness_testUpdates_writeAddress $end
     $var wire 32 U testHarness_DMEMsetup_dataAddress $end
     $var wire 1 p testHarness_testUpdates_writeEnable $end
     $var wire 1 z testHarness_DMEMsetup_writeEnable $end
     $var wire 32 } testHarness_DMEMpeek $end
     $var wire 1 "* testHarness_DMEMsetup_setup $end
     $var wire 32 "0 testHarness_testUpdates_writeData $end
     $var wire 1 "4 clock $end
     $var wire 32 "> testHarness_DMEMsetup_dataIn $end
      $scope module DMEM $end
       $var wire 32 & testHarness_testUpdates_writeData $end
       $var wire 1 ) _GEN_6 $end
       $var wire 12 - data__T_24_addr_pipe_0 $end
       $var wire 1 6 testHarness_testUpdates_writeEnable $end
       $var wire 32 : testHarness_setup_dataAddress $end
       $var wire 32 ? testHarness_testUpdates_writeAddress $end
       $var wire 32 F addressSource $end
       $var wire 32 J data $end
       $var wire 1 r testHarness_setup_writeEnable $end
       $var wire 1 t testHarness_setup_setup $end
       $var wire 1 "& clock $end
       $var wire 32 "+ testHarness_setup_dataIn $end
       $var wire 32 "9 io_dataOut $end
        $scope module data $end
          $scope module _T_26 $end
           $var wire 1 ! clk $end
           $var wire 12 B addr $end
           $var wire 32 G pipeline_data_0 $end
           $var wire 1 \ pipeline_valid_0 $end
           $var wire 32 c data $end
           $var wire 1 "# en $end
           $var wire 12 "' pipeline_addr_0 $end
           $var wire 1 "- valid $end
           $var wire 1 "< mask $end
          $upscope $end
          $scope module _T_24 $end
           $var wire 32 5 data $end
           $var wire 1 h clk $end
           $var wire 1 "% en $end
           $var wire 12 "( addr $end
          $upscope $end
        $upscope $end
      $upscope $end
    $upscope $end
    $scope module ID $end
     $var wire 1 " testHarness_registerSetup_writeEnable $end
     $var wire 32 = testHarness_registerPeek $end
     $var wire 1 C testHarness_testUpdates_writeEnable $end
     $var wire 32 H testHarness_registerSetup_writeData $end
     $var wire 5 N testHarness_testUpdates_writeAddress $end
     $var wire 5 k testHarness_registerSetup_readAddress $end
     $var wire 1 o registers $end
     $var wire 1 "3 testHarness_registerSetup_setup $end
     $var wire 32 "5 testHarness_testUpdates_writeData $end
     $var wire 1 ": clock $end
      $scope module registers $end
       $var wire 1 % testHarness_testUpdates_writeEnable $end
       $var wire 1 ' testHarness_setup_setup $end
       $var wire 32 , testHarness_testUpdates_writeData $end
       $var wire 5 . readAddress1 $end
       $var wire 1 0 clock $end
       $var wire 32 1 io_readData1 $end
       $var wire 32 3 registerFile $end
       $var wire 1 7 testHarness_setup_writeEnable $end
       $var wire 1 @ writeEnable $end
       $var wire 5 O testHarness_testUpdates_writeAddress $end
       $var wire 32 ` testHarness_setup_writeData $end
       $var wire 5 y testHarness_setup_readAddress $end
        $scope module registerFile $end
          $scope module _T_33 $end
           $var wire 1 # en $end
           $var wire 1 ( pipeline_valid_0 $end
           $var wire 1 / clk $end
           $var wire 5 S pipeline_addr_0 $end
           $var wire 1 V mask $end
           $var wire 1 e valid $end
           $var wire 5 w addr $end
           $var wire 32 "$ pipeline_data_0 $end
           $var wire 32 "8 data $end
          $upscope $end
          $scope module _T_41 $end
           $var wire 32 A data $end
           $var wire 1 R en $end
           $var wire 1 n clk $end
           $var wire 5 "1 addr $end
          $upscope $end
          $scope module _T_38 $end
           $var wire 1 E clk $end
           $var wire 1 b en $end
           $var wire 5 j addr $end
           $var wire 32 ". data $end
          $upscope $end
        $upscope $end
      $upscope $end
    $upscope $end
    $scope module IF $end
     $var wire 1 $ testHarness_IMEMsetup_setup $end
     $var wire 1 9 IMEM $end
     $var wire 32 Q PC $end
     $var wire 1 X clock $end
     $var wire 32 Y testHarness_PC $end
     $var wire 1 | reset $end
     $var wire 32 "? _GEN_0 $end
      $scope module IMEM $end
       $var wire 32 "/ testHarness_requestedAddress $end
       $var wire 32 "; io_instructionAddress $end
      $upscope $end
    $upscope $end
  $upscope $end
  $scope module CPU.ID $end
  $upscope $end
$upscope $end
$enddefinitions $end
$dumpvars
0X
0C
b00000000000000000000000000000000 Y
1"<
0"7
0""
0o
b00000000000000000000000000000000 ">
0R
b00000000000000000000000000000000 "8
b00000000000000000000000000000000 l
b00000000000000000000000000000000 :
b00000000000000000000000000000000 Q
b00000000000000000000000000000000 }
0g
b00000000000000000000000000000000 ".
b00000000000000000000000000000000 `
b00000000000000000000000000000000 K
b000000000000 "(
0"@
0D
0/
0"#
0x
0":
b00000 S
0z
b00000000000000000000000000000000 s
0]
1)
0r
b00000 j
0@
b00000000000000000000000000000000 A
0W
b00000 O
0%
b00000000000000000000000000000000 ;
b000000000000 -
b00000000000000000000000000000000 "=
b00000000000000000000000000000000 Z
0p
b00000000000000000000000000000000 T
b00000000000000000000000000000000 ?
0"2
0>
06
0!
b00000 .
b00000000000000000000000000000000 "9
0"4
b00000 y
b00000000000000000000000000000000 P
b00000000000000000000000000000000 3
0{
b00000000000000000000000000000000 "5
b00000000000000000000000000000000 J
b000000000000 "'
b00000000000000000000000000000000 "/
0"*
0b
0E
00
0(
b00000000000000000000000000000000 "+
b00000000000000000000000000000000 _
0u
1V
b00000000000000000000000000000000 [
b00000000000000000000000000000000 "6
b00000000000000000000000000000000 "!
0q
0i
b00000000000000000000000000000000 U
0"3
b00000 a
b00000 L
07
0"
09
0"-
b00000000000000000000000000000000 f
0e
b00000 "1
b00000000000000000000000000000000 I
b00000000000000000000000000000000 4
0|
b00000000000000000000000000000000 "0
b00000000000000000000000000000000 d
0"B
b00000000000000000000000000000000 G
b00000000000000000000000000000000 "A
b00000000000000000000000000000000 "$
b00000000000000000000000000000000 ,
b00000 M
0t
b00000000000000000000000000000000 ";
b00000000000000000000000000000000 &
0n
0<
b00000000000000000000000000000000 =
0'
b00000000000000000000000000000000 "?
b00000 w
08
0",
0#
02
b000000000000 B
b00000000000000000000000000000000 5
b00000000000000000000000000000000 ~
0h
b00000 m
b00000000000000000000000000000000 c
b00000000000000000000000000000000 ")
b00000000000000000000000000000000 F
b00000000000000000000000000000000 1
0\
b00000000000000000000000000000000 H
0"&
0*
b00000000000000000000000000000000 +
0^
b00000 k
1"%
0$
b00000 N
b00000000000000000000000000000000 v
$end
#0
1"@
1",
1|
#1
1i
1"&
1h
1q
1X
1!
1":
1"4
10
1n
1E
1/
#6
0X
0"&
0h
0i
0n
0":
0q
0/
0"4
0E
00
0!
#11
1i
1"&
1h
1q
1X
1!
1":
1"4
10
1n
1E
1/
#16
0X
0"&
0h
0i
0n
0":
0q
0/
0"4
0E
00
0!
#21
1i
1"&
1h
1q
1X
1!
1":
1"4
10
1n
1E
1/
#26
0X
0"&
0h
0i
0n
0":
0q
0/
0"4
0E
00
0!
#31
1i
1"&
1h
1q
1X
1!
1":
1"4
10
1n
1E
1/
#36
0X
0"&
0h
0i
0n
0":
0q
0/
0"4
0E
00
0!
#41
1i
1"&
1h
1q
1X
1!
1":
1"4
10
1n
1E
1/
#46
0X
0h
0i
0n
b11111110000000010000000100010011 ~
1"2
1x
00
0!
1^
1$
0"&
1t
0"@
1"3
0":
1"*
0|
0q
0",
1'
0/
0"4
0E
1g
#51
1i
1"&
1h
1q
1X
1!
1":
1"4
10
1n
1E
1/
#56
0X
b00000000000100010010111000100011 ~
0h
0i
0n
b00000000000000000000000000000100 4
00
0!
0"&
0":
0q
0/
0"4
0E
#61
1i
1"&
1h
1q
1X
1!
1":
1"4
10
1n
1E
1/
#66
0X
0h
0i
b00000000000000000000000000001000 4
0n
00
0!
0"&
0":
0q
b00000000100000010010110000100011 ~
0/
0"4
0E
#71
1i
1"&
1h
1q
1X
1!
1":
1"4
10
1n
1E
1/
#76
0X
0h
0i
0n
b00000000000000000000000000001100 4
00
0!
0"&
b00000000100100010010101000100011 ~
0":
0q
0/
0"4
0E
#81
1i
1"&
1h
1q
1X
1!
1":
1"4
10
1n
1E
1/
#86
0X
0h
0i
b00000000000000000000000000010000 4
0n
00
0!
0"&
0":
b00000010000000010000010000010011 ~
0q
0/
0"4
0E
#91
1i
1"&
1h
1q
1X
1!
1":
1"4
10
1n
1E
1/
#96
0X
0h
b00000000000000000000000000010100 4
0i
0n
00
0!
0"&
0":
b00000000011000000000011110010011 ~
0q
0/
0"4
0E
#101
1i
1"&
1h
1q
1X
1!
1":
1"4
10
1n
1E
1/
#106
0X
0h
0i
0n
00
0!
0"&
b11111110111101000010011000100011 ~
0":
0q
0/
0"4
0E
b00000000000000000000000000011000 4
#111
1i
1"&
1h
1q
1X
1!
1":
1"4
10
1n
1E
1/
#116
0X
0h
0i
0n
b00000000000000000000000000011100 4
b11111111111000000000011110010011 ~
00
0!
0"&
0":
0q
0/
0"4
0E
#121
1i
1"&
1h
1q
1X
1!
1":
1"4
10
1n
1E
1/
#126
0X
0h
0i
0n
b11111110111101000010010000100011 ~
00
0!
0"&
0":
0q
b00000000000000000000000000100000 4
0/
0"4
0E
#131
1i
1"&
1h
1q
1X
1!
1":
1"4
10
1n
1E
1/
#136
0X
0h
0i
0n
00
0!
0"&
0":
b11111111111100000000011110010011 ~
0q
b00000000000000000000000000100100 4
0/
0"4
0E
#141
1i
1"&
1h
1q
1X
1!
1":
1"4
10
1n
1E
1/
#146
0X
0h
0i
0n
b11111110111101000010001000100011 ~
b00000000000000000000000000101000 4
00
0!
0"&
0":
0q
0/
0"4
0E
#151
1i
1"&
1h
1q
1X
1!
1":
1"4
10
1n
1E
1/
#156
0X
0h
0i
0n
b00000000011100000000011110010011 ~
00
0!
0"&
b00000000000000000000000000101100 4
0":
0q
0/
0"4
0E
#161
1i
1"&
1h
1q
1X
1!
1":
1"4
10
1n
1E
1/
#166
0X
b11111110111101000010000000100011 ~
0h
0i
0n
b00000000000000000000000000110000 4
00
0!
0"&
0":
0q
0/
0"4
0E
#171
1i
1"&
1h
1q
1X
1!
1":
1"4
10
1n
1E
1/
#176
0X
0h
0i
0n
b00000000000000000000000000110100 4
b11111110110001000010011100000011 ~
00
0!
0"&
0":
0q
0/
0"4
0E
#181
1i
1"&
1h
1q
1X
1!
1":
1"4
10
1n
1E
1/
#186
0X
0h
0i
0n
b00000000000000000000000000111000 4
b11111110100001000010011110000011 ~
00
0!
0"&
0":
0q
0/
0"4
0E
#191
1i
1"&
1h
1q
1X
1!
1":
1"4
10
1n
1E
1/
#196
0X
0h
0i
0n
b00000000111101110000011110110011 ~
00
0!
0"&
0":
0q
b00000000000000000000000000111100 4
0/
0"4
0E
#201
1i
1"&
1h
1q
1X
1!
1":
1"4
10
1n
1E
1/
#206
0X
b00000000000000000000000001000000 4
0h
0i
0n
b00000000000001111000010100110011 ~
00
0!
0"&
0":
0q
0/
0"4
0E
#211
1i
1"&
1h
1q
1X
1!
1":
1"4
10
1n
1E
1/
#216
0X
0h
0i
0n
00
0!
0"&
0":
b00000000000000000000000001000100 4
0q
b00001010100000000000000011101111 ~
0/
0"4
0E
#221
1i
1"&
1h
1q
1X
1!
1":
1"4
10
1n
1E
1/
#226
0X
0h
0i
0n
00
0!
b00000000000001010000010010110011 ~
0"&
b00000000000000000000000001001000 4
0":
0q
0/
0"4
0E
#231
1i
1"&
1h
1q
1X
1!
1":
1"4
10
1n
1E
1/
#236
0X
0h
0i
0n
b11111110010001000010011100000011 ~
00
0!
0"&
0":
b00000000000000000000000001001100 4
0q
0/
0"4
0E
#241
1i
1"&
1h
1q
1X
1!
1":
1"4
10
1n
1E
1/
#246
0X
0h
0i
0n
b11111110000001000010011110000011 ~
b00000000000000000000000001010000 4
00
0!
0"&
0":
0q
0/
0"4
0E
#251
1i
1"&
1h
1q
1X
1!
1":
1"4
10
1n
1E
1/
#256
0X
0h
0i
0n
b00000000111101110000011110110011 ~
00
0!
0"&
b00000000000000000000000001010100 4
0":
0q
0/
0"4
0E
#261
1i
1"&
1h
1q
1X
1!
1":
1"4
10
1n
1E
1/
#266
0X
0h
0i
0n
b00000000000001111000010100110011 ~
00
0!
0"&
0":
b00000000000000000000000001011000 4
0q
0/
0"4
0E
#271
1i
1"&
1h
1q
1X
1!
1":
1"4
10
1n
1E
1/
#276
0X
0h
0i
0n
00
0!
0"&
b00001001000000000000000011101111 ~
0":
0q
b00000000000000000000000001011100 4
0/
0"4
0E
#281
1i
1"&
1h
1q
1X
1!
1":
1"4
10
1n
1E
1/
#286
0X
0h
0i
0n
00
b00000000000000000000000001100000 4
0!
0"&
b00000000000001010000011110110011 ~
0":
0q
0/
0"4
0E
#291
1i
1"&
1h
1q
1X
1!
1":
1"4
10
1n
1E
1/
#296
0X
0h
0i
0n
00
0!
0"&
0":
b00000000000000000000000001100100 4
0q
0/
0"4
0E
b00000000100101111101011001100011 ~
#301
1i
1"&
1h
1q
1X
1!
1":
1"4
10
1n
1E
1/
#306
0X
0h
0i
b11111110110001000010011110000011 ~
0n
00
0!
0"&
0":
0q
b00000000000000000000000001101000 4
0/
0"4
0E
#311
1i
1"&
1h
1q
1X
1!
1":
1"4
10
1n
1E
1/
#316
0X
0h
0i
0n
00
0!
0"&
b00000000000000000000000001101100 4
0":
b00000000100000000000000001101111 ~
0q
0/
0"4
0E
#321
1i
1"&
1h
1q
1X
1!
1":
1"4
10
1n
1E
1/
#326
0X
0h
b11111110010001000010011110000011 ~
0i
0n
b00000000000000000000000001110000 4
00
0!
0"&
0":
0q
0/
0"4
0E
#331
1i
1"&
1h
1q
1X
1!
1":
1"4
10
1n
1E
1/
#336
0X
0h
0i
0n
b00000000000001111000010100110011 ~
00
b00000000000000000000000001110100 4
0!
0"&
0":
0q
0/
0"4
0E
#341
1i
1"&
1h
1q
1X
1!
1":
1"4
10
1n
1E
1/
#346
0X
0h
0i
0n
00
0!
0"&
0":
0q
0/
0"4
0E
b00000000000000000000000001111000 4
b00000001110000010010000010000011 ~
#351
1i
1"&
1h
1q
1X
1!
1":
1"4
10
1n
1E
1/
#356
0X
0h
0i
b00000001100000010010010000000011 ~
0n
b00000000000000000000000001111100 4
00
0!
0"&
0":
0q
0/
0"4
0E
#361
1i
1"&
1h
1q
1X
1!
1":
1"4
10
1n
1E
1/
#366
0X
0h
0i
0n
b00000001010000010010010010000011 ~
b00000000000000000000000010000000 4
00
0!
0"&
0":
0q
0/
0"4
0E
#371
1i
1"&
1h
1q
1X
1!
1":
1"4
10
1n
1E
1/
#376
0X
0h
0i
0n
00
0!
0"&
b00000010000000010000000100010011 ~
0":
0q
0/
0"4
0E
b00000000000000000000000010000100 4
#381
1i
1"&
1h
1q
1X
1!
1":
1"4
10
1n
1E
1/
#386
0X
0h
0i
0n
00
0!
0"&
b00000000000000001000000001100111 ~
0":
b00000000000000000000000010001000 4
0q
0/
0"4
0E
#391
1i
1"&
1h
1q
1X
1!
1":
1"4
10
1n
1E
1/
#396
0X
0h
0i
0n
b11111101000000010000000100010011 ~
00
0!
0"&
b00000000000000000000000010001100 4
0":
0q
0/
0"4
0E
#401
1i
1"&
1h
1q
1X
1!
1":
1"4
10
1n
1E
1/
#406
0X
0h
0i
0n
00
0!
b00000000000000000000000010010000 4
0"&
b00000010100000010010011000100011 ~
0":
0q
0/
0"4
0E
#411
1i
1"&
1h
1q
1X
1!
1":
1"4
10
1n
1E
1/
#416
0X
0h
0i
0n
00
b00000011000000010000010000010011 ~
0!
0"&
0":
b00000000000000000000000010010100 4
0q
0/
0"4
0E
#421
1i
1"&
1h
1q
1X
1!
1":
1"4
10
1n
1E
1/
#426
0X
0h
0i
0n
b11111100101001000010111000100011 ~
00
0!
b00000000000000000000000010011000 4
0"&
0":
0q
0/
0"4
0E
#431
1i
1"&
1h
1q
1X
1!
1":
1"4
10
1n
1E
1/
#436
0X
0h
0i
0n
b11111100101101000010110000100011 ~
b00000000000000000000000010011100 4
00
0!
0"&
0":
0q
0/
0"4
0E
#441
1i
1"&
1h
1q
1X
1!
1":
1"4
10
1n
1E
1/
#446
0X
0h
0i
0n
b11111110000001000010011000100011 ~
00
0!
b00000000000000000000000010100000 4
0"&
0":
0q
0/
0"4
0E
#451
1i
1"&
1h
1q
1X
1!
1":
1"4
10
1n
1E
1/
#456
0X
0h
0i
0n
00
0!
0"&
b00000000000000000000000010100100 4
0":
0q
b11111110000001000010001000100011 ~
0/
0"4
0E
#461
1i
1"&
1h
1q
1X
1!
1":
1"4
10
1n
1E
1/
#466
0X
0h
0i
0n
00
0!
0"&
b11111110000001000010010000100011 ~
0":
b00000000000000000000000010101000 4
0q
0/
0"4
0E
#471
1i
1"&
1h
1q
1X
1!
1":
1"4
10
1n
1E
1/
#476
0X
0h
0i
0n
b00000000000000000000000010101100 4
00
0!
0"&
0":
0q
0/
0"4
0E
b00000010000000000000000001101111 ~
#481
1i
1"&
1h
1q
1X
1!
1":
1"4
10
1n
1E
1/
#486
0X
0h
0i
0n
b11111110110001000010011100000011 ~
00
0!
b00000000000000000000000010110000 4
0"&
0":
0q
0/
0"4
0E
#491
1i
1"&
1h
1q
1X
1!
1":
1"4
10
1n
1E
1/
#496
0X
0h
0i
b00000000000000000000000010110100 4
b11111101100001000010011110000011 ~
0n
00
0!
0"&
0":
0q
0/
0"4
0E
#501
1i
1"&
1h
1q
1X
1!
1":
1"4
10
1n
1E
1/
#506
0X
0h
0i
0n
b00000000000000000000000010111000 4
b00000000111101110000011110110011 ~
00
0!
0"&
0":
0q
0/
0"4
0E
#511
1i
1"&
1h
1q
1X
1!
1":
1"4
10
1n
1E
1/
#516
0X
0h
0i
0n
b00000000000000000000000010111100 4
00
0!
0"&
b11111110111101000010011000100011 ~
0":
0q
0/
0"4
0E
#521
1i
1"&
1h
1q
1X
1!
1":
1"4
10
1n
1E
1/
#526
0X
0h
0i
0n
b11111110100001000010011110000011 ~
00
0!
0"&
0":
b00000000000000000000000011000000 4
0q
0/
0"4
0E
#531
1i
1"&
1h
1q
1X
1!
1":
1"4
10
1n
1E
1/
#536
0X
0h
0i
0n
b00000000000000000000000011000100 4
00
0!
0"&
0":
0q
0/
0"4
0E
b00000000000101111000011110010011 ~
#541
1i
1"&
1h
1q
1X
1!
1":
1"4
10
1n
1E
1/
#546
0X
0h
0i
0n
b11111110111101000010010000100011 ~
00
0!
0"&
b00000000000000000000000011001000 4
0":
0q
0/
0"4
0E
#551
1i
1"&
1h
1q
1X
1!
1":
1"4
10
1n
1E
1/
#556
0X
0h
0i
0n
b11111110100001000010011100000011 ~
00
0!
b00000000000000000000000011001100 4
0"&
0":
0q
0/
0"4
0E
#561
1i
1"&
1h
1q
1X
1!
1":
1"4
10
1n
1E
1/
#566
0X
0h
0i
0n
00
0!
0"&
0":
b11111101110001000010011110000011 ~
0q
0/
0"4
0E
b00000000000000000000000011010000 4
#571
1i
1"&
1h
1q
1X
1!
1":
1"4
10
1n
1E
1/
#576
0X
0h
b11111100111101110100111011100011 ~
0i
0n
b00000000000000000000000011010100 4
00
0!
0"&
0":
0q
0/
0"4
0E
#581
1i
1"&
1h
1q
1X
1!
1":
1"4
10
1n
1E
1/
#586
0X
0h
0i
b11111110110001000010011110000011 ~
0n
b00000000000000000000000011011000 4
00
0!
0"&
0":
0q
0/
0"4
0E
#591
1i
1"&
1h
1q
1X
1!
1":
1"4
10
1n
1E
1/
#596
0X
0h
0i
0n
b00000000000001111000010100110011 ~
00
0!
0"&
b00000000000000000000000011011100 4
0":
0q
0/
0"4
0E
#601
1i
1"&
1h
1q
1X
1!
1":
1"4
10
1n
1E
1/
#606
0X
0h
0i
0n
b00000000000000000000000011100000 4
00
0!
0"&
b00000010110000010010010000000011 ~
0":
0q
0/
0"4
0E
#611
1i
1"&
1h
1q
1X
1!
1":
1"4
10
1n
1E
1/
#616
0X
0h
0i
0n
00
b00000011000000010000000100010011 ~
0!
0"&
b00000000000000000000000011100100 4
0":
0q
0/
0"4
0E
#621
1i
1"&
1h
1q
1X
1!
1":
1"4
10
1n
1E
1/
#626
0X
0h
b00000000000000000000000011101000 4
0i
0n
00
0!
0"&
b00000000000000001000000001100111 ~
0":
0q
0/
0"4
0E
#631
1i
1"&
1h
1q
1X
1!
1":
1"4
10
1n
1E
1/
#636
0X
0h
0i
0n
b11111110000000010000000100010011 ~
00
0!
0"&
b00000000000000000000000011101100 4
0":
0q
0/
0"4
0E
#641
1i
1"&
1h
1q
1X
1!
1":
1"4
10
1n
1E
1/
#646
0X
b00000000000000000000000011110000 4
b00000000000100010010111000100011 ~
0h
0i
0n
00
0!
0"&
0":
0q
0/
0"4
0E
#651
1i
1"&
1h
1q
1X
1!
1":
1"4
10
1n
1E
1/
#656
0X
0h
0i
0n
b00000000000000000000000011110100 4
00
0!
0"&
0":
0q
b00000000100000010010110000100011 ~
0/
0"4
0E
#661
1i
1"&
1h
1q
1X
1!
1":
1"4
10
1n
1E
1/
#666
0X
0h
0i
0n
00
0!
0"&
0":
b00000000000000000000000011111000 4
b00000010000000010000010000010011 ~
0q
0/
0"4
0E
#671
1i
1"&
1h
1q
1X
1!
1":
1"4
10
1n
1E
1/
#676
0X
0h
b00000000000000000000000011111100 4
0i
0n
b11111110101001000010011000100011 ~
00
0!
0"&
0":
0q
0/
0"4
0E
#681
1i
1"&
1h
1q
1X
1!
1":
1"4
10
1n
1E
1/
#686
0X
0h
0i
b00000000000000000000000100000000 4
0n
00
0!
0"&
b11111110110001000010010110000011 ~
0":
0q
0/
0"4
0E
#691
1i
1"&
1h
1q
1X
1!
1":
1"4
10
1n
1E
1/
#696
0X
0h
0i
0n
00
0!
0"&
b11111110110001000010010100000011 ~
0":
b00000000000000000000000100000100 4
0q
0/
0"4
0E
#701
1i
1"&
1h
1q
1X
1!
1":
1"4
10
1n
1E
1/
#706
0X
0h
0i
0n
b00000000000000000000000100001000 4
b11111000010111111111000011101111 ~
00
0!
0"&
0":
0q
0/
0"4
0E
#711
1i
1"&
1h
1q
1X
1!
1":
1"4
10
1n
1E
1/
#716
0X
0h
0i
0n
b00000000000000000000000100001100 4
00
0!
0"&
b00000000000001010000011110110011 ~
0":
0q
0/
0"4
0E
#721
1i
1"&
1h
1q
1X
1!
1":
1"4
10
1n
1E
1/
#726
0X
0h
0i
0n
b00000000000001111000010100110011 ~
b00000000000000000000000100010000 4
00
0!
0"&
0":
0q
0/
0"4
0E
#731
1i
1"&
1h
1q
1X
1!
1":
1"4
10
1n
1E
1/
#736
0X
0h
0i
0n
b00000000000000000000000100010100 4
00
0!
0"&
0":
0q
0/
0"4
0E
b00000001110000010010000010000011 ~
#741
1i
1"&
1h
1q
1X
1!
1":
1"4
10
1n
1E
1/
#746
0X
0h
0i
b00000001100000010010010000000011 ~
0n
b00000000000000000000000100011000 4
00
0!
0"&
0":
0q
0/
0"4
0E
#751
1i
1"&
1h
1q
1X
1!
1":
1"4
10
1n
1E
1/
#756
0X
0h
0i
0n
00
0!
0"&
b00000010000000010000000100010011 ~
b00000000000000000000000100011100 4
0":
0q
0/
0"4
0E
#761
1i
1"&
1h
1q
1X
1!
1":
1"4
10
1n
1E
1/
#766
0X
0h
b00000000000000000000000100100000 4
0i
0n
00
0!
0"&
b00000000000000001000000001100111 ~
0":
0q
0/
0"4
0E
#771
1i
1"&
1h
1q
1X
1!
1":
1"4
10
1n
1E
1/
#776
0X
b01110 j
1e
b00000000000000000000111111111100 4
0n
b01110 L
b01110 a
1"
1#
1%
1""
0q
b01110 .
1*
1@
0E
b01110 M
0h
b01110 y
0i
b01110 O
17
b01110 w
12
00
0!
b01110 m
0"&
1C
b00000000000000000000000000000000 ~
b01110 k
0":
1b
0/
0"4
1<
b01110 N
#781
1i
1h
10
1n
1!
1"4
b01110 S
1/
1(
1"&
1q
1X
1":
1E
#786
0X
0h
b01010 M
0i
b01010 L
b01010 m
b01010 j
0n
b01010 .
00
0!
b01010 w
b01010 N
b01010 k
0"&
b01010 O
0":
0q
b01010 a
0/
0"4
0E
b01010 y
#791
1i
1"&
1h
1q
1X
1!
1":
1"4
10
1n
b01010 S
1E
1/
#796
0X
0h
0i
b10001 a
0n
b10001 m
b10001 k
b10001 N
b10001 j
00
0!
b10001 y
0"&
b10001 w
0":
b10001 L
b10001 .
b10001 M
0q
0/
0"4
0E
b10001 O
#801
b10001 S
1i
1"&
1h
1q
1X
1!
1":
1"4
10
1n
1E
1/
#806
0X
b00000 .
0h
0i
0n
b00000 k
0#
b00000 y
00
0!
b00000 m
b00000 L
0"&
b00000 N
0b
b00000 M
b00000 w
0":
b00000 a
0e
0q
0/
0"4
0E
b00000 O
b00000 j
#811
1i
1h
10
1n
1!
1"4
1/
0(
b00000 S
1"&
1q
1X
1":
1E
#816
0X
1e
0h
b00100 w
0i
0n
b00100 k
b00100 .
b00100 N
00
b00100 a
0!
1#
0"&
b00100 M
b00100 O
b00100 j
0":
b00100 L
1b
0q
0/
0"4
0E
b00100 m
b00100 y
#821
1i
1h
10
1n
1!
1"4
1/
b00100 S
1(
1"&
1q
1X
1":
1E
#826
0X
b11000 a
b11000 L
b11000 .
b11000 O
0h
0i
b11000 N
b11000 M
0n
b11000 w
b11000 k
00
0!
b11000 j
b11000 y
b11000 m
0"&
0":
0q
0/
0"4
0E
#831
1i
1"&
1h
1q
1X
1!
1":
1"4
10
1n
1E
1/
b11000 S
#836
0X
b00110 N
0h
b00110 k
0i
b00110 .
0n
b00110 j
b00110 a
b00110 y
b00110 L
00
0!
b00110 m
b00110 O
0"&
b00110 M
0":
b00110 w
0q
0/
0"4
0E
#841
1i
b00110 S
1"&
1h
1q
1X
1!
1":
1"4
10
1n
1E
1/
#846
0X
0h
b10100 j
0i
0n
b10100 L
00
b10100 M
0!
b10100 k
b10100 y
0"&
b10100 N
b10100 w
0":
b10100 a
b10100 m
b10100 .
0q
0/
0"4
0E
b10100 O
#851
b10100 S
1i
1"&
1h
1q
1X
1!
1":
1"4
10
1n
1E
1/
#856
0X
b00111 w
b00111 a
0h
b00111 .
0i
0n
b00111 L
b00111 j
00
0!
0"&
b00111 M
b00111 k
b00111 O
0":
b00111 m
0q
0/
0"4
0E
b00111 y
b00111 N
#861
1i
b00111 S
1"&
1h
1q
1X
1!
1":
1"4
10
1n
1E
1/
#866
0X
b00001 y
0n
b11101011000111001110101100011100 "5
b00001 w
b11101011000111001110101100011100 "8
b00001 a
b11101011000111001110101100011100 K
b00001 m
b00001 M
0q
b11101011000111001110101100011100 _
0E
b00001 N
0h
b11101011000111001110101100011100 `
0i
b11101011000111001110101100011100 "A
b00001 L
b00001 k
b00001 j
00
0!
b00001 O
0"&
b00001 .
b11101011000111001110101100011100 H
b11101011000111001110101100011100 "=
0":
0/
0"4
b11101011000111001110101100011100 ,
#871
b11101011000111001110101100011100 =
b00001 S
1i
b11101011000111001110101100011100 1
1h
10
1n
1!
b11101011000111001110101100011100 +
1"4
1/
b11101011000111001110101100011100 ".
b11101011000111001110101100011100 "$
1"&
1q
1X
1":
1E
b11101011000111001110101100011100 P
